********************************************************************************
***                                                                          ***
*** Secondary Structure Prediction by a Layered Network                      ***
*** ~~~~~~~~~~~~~~~~~~~~~~~~~~~~~~~~~~~~~~~~~~~~~~~~~~~                      ***
***                                                                          ***
*** Burkhard Rost, EMBL, Heidelberg, FRG                                     ***
*** (Internet: rost@EMBL-Heidelberg.DE)                                      ***
*** file containing the architecture in PHD format                           ***
*** Fri Feb 11 05:02:57 1994                                                 ***
***                                                                          ***
*** cryptic:     F152d-w9-15rc-A                                             ***
***                                                                          ***
********************************************************************************
***                                                                          ***
 prediction type:   EXPOSURE                      
 network type:      FIRST 

 input type:        PROFILE-REAL-CONS        
 NUMIN:                198
 NUMHID:                15
 NUMOUT:                10
 NCODEUNT:              22
 NUMNEIGH:               4
 *****
 *****
   number of layers: 2       junction first layer: row=numhid (10F10.4)
    0.0123   -0.0993   -0.0956   -0.1382   -0.0287   -0.0297    0.0444    0.0076   -0.1511   -0.0587
   -0.1435   -0.0387    0.0833    0.0047    0.0305   -0.1502   -0.1161    0.1576   -0.0146   -0.1485
    0.1867   -0.0627   -0.1040   -0.0766   -0.0478    0.0553    0.0209   -0.0555   -0.0075    0.0034
   -0.0565    0.1146    0.0820   -0.0573   -0.1214   -0.0287   -0.0935   -0.1330    0.0708   -0.1264
   -0.1026    0.0208    0.1430    0.1189   -0.3219   -0.1809   -0.1911   -0.0155   -0.1197   -0.0313
   -0.0519   -0.0361   -0.1519    0.0921   -0.0838    0.0628   -0.0187   -0.0112    0.0810    0.1595
   -0.0736    0.1393    0.0366    0.0370    0.2337   -0.1030   -0.1727   -0.0816   -0.1333   -0.0639
   -0.1752   -0.1010   -0.0763    0.2349   -0.1420    0.1240   -0.0010    0.0289   -0.0236   -0.1264
   -0.0817    0.0321   -0.1434   -0.0602    0.0923    0.1858    0.1582   -0.0604   -0.2972    0.0034
   -0.2162   -0.1416    0.0598   -0.0505    0.2291   -0.1746   -0.5354    0.0275   -0.2351   -0.1034
   -0.1685    0.0432    0.3642    0.3711    0.0461    0.2912   -0.0291    0.0391    0.0040   -0.1029
   -0.1362   -0.1245   -0.2129   -0.1213   -0.1269   -0.0997   -0.3036   -0.1366   -0.1148    0.3553
    0.1505   -0.0209   -0.1901    0.0275   -0.1486    0.0904   -0.1014   -0.1408    0.0270    0.2640
    0.2297   -0.0580   -0.2189   -0.2143   -0.2053   -0.1823   -0.0678    0.0040   -0.0269    0.1279
    0.0263    0.0821    0.0466   -0.0388   -0.0775   -0.0743    0.0264   -0.1162    0.0450    0.0305
    0.1364    0.1325    0.1525   -0.1145    0.0078   -0.0552   -0.1060   -0.1800   -0.1527   -0.0696
    0.0143    0.1022   -0.0857    0.1281    0.0993   -0.0385    0.0480   -0.1365    0.0448    0.0807
   -0.0405    0.0849    0.1385    0.0339    0.1978   -0.0373   -0.0201   -0.0223   -0.1876   -0.1459
   -0.0271    0.0556   -0.0432   -0.1822   -0.1142    0.0373    0.0441   -0.1267    0.0181    0.0039
   -0.0217    0.2068   -0.0315    0.1830    0.1212    0.0347    0.0839   -0.1049    0.0969    0.0000
    0.0000    0.0000    0.0000    0.0000    0.0000    0.0000    0.0000    0.0000
   -0.0299   -0.0497    0.1284    0.1149    0.0381   -0.0590    0.0487    0.0836    0.0186    0.0802
    0.1185    0.0699   -0.1221   -0.0664   -0.1464   -0.0626    0.0499   -0.1252    0.0333    0.0127
   -0.0300    0.0001    0.0100   -0.0100    0.1383    0.1928   -0.0175    0.0441    0.0114    0.0561
   -0.1099    0.0149   -0.0796    0.0926    0.0176    0.0687    0.0570   -0.0084    0.0196   -0.0817
   -0.0658   -0.0906   -0.1019    0.0011    0.1573   -0.0091    0.0919    0.0527    0.1364    0.1387
    0.0798   -0.0712   -0.0532   -0.1276   -0.0897   -0.1320    0.0792    0.0665    0.0067    0.0264
    0.0485   -0.0246   -0.0508   -0.1152   -0.1149   -0.0350    0.0893    0.1347    0.1251    0.0655
    0.0861    0.0755    0.0215   -0.0966    0.0496   -0.1980   -0.0057    0.1076   -0.0270   -0.0263
   -0.0467   -0.1243   -0.0445   -0.1556   -0.0314   -0.0455   -0.0104    0.0978    0.4391    0.2597
    0.3694    0.2016    0.1890    0.1309    0.0372   -0.0818    0.3168   -0.2482   -0.1515   -0.1725
    0.2306   -0.1069   -0.1979   -0.3388   -0.1569   -0.3666   -0.2338   -0.2846   -0.0575    0.6227
    0.1331    0.0273    0.0911    0.0171    0.0093    0.0700   -0.0163   -0.1442   -0.0801   -0.0581
   -0.0688    0.0356    0.0760    0.0567   -0.0675   -0.0599   -0.0198   -0.0627   -0.1662   -0.1899
   -0.0304   -0.0171   -0.0293    0.0022    0.0648    0.1339    0.1119    0.1226   -0.0006   -0.1591
    0.0707   -0.0517   -0.0688    0.0060    0.0112    0.1044   -0.1658   -0.0240   -0.0263   -0.0680
    0.0542    0.0325   -0.0060    0.0853    0.0564    0.1184    0.0403    0.0105    0.1422   -0.0211
    0.0437    0.0440    0.0329   -0.2105   -0.0158   -0.0620    0.0018    0.1339   -0.1234   -0.1271
   -0.0755   -0.0859   -0.1457   -0.0079   -0.0813    0.0090    0.0176    0.1201    0.1311    0.0699
   -0.0224   -0.0998    0.0375    0.1097    0.0434   -0.0088   -0.1560   -0.1116    0.0139    0.0991
    0.0030   -0.0847    0.0741   -0.1353   -0.0770    0.0424   -0.1061   -0.0521   -0.5219    0.0000
    0.0000    0.0000    0.0000    0.0000    0.0000    0.0000    0.0000    0.0000
   -0.1191   -0.0443   -0.1211   -0.0375   -0.0554   -0.1181    0.0067    0.0549    0.0575   -0.0474
    0.1298    0.0443   -0.0528    0.0808    0.1095   -0.0353    0.0393   -0.0155    0.0784    0.1398
    0.0627   -0.0177   -0.0916   -0.0945   -0.0366   -0.0902   -0.1081   -0.0198    0.1487    0.0140
   -0.0017   -0.0359   -0.1785   -0.0137   -0.0445    0.0148    0.0230    0.1257   -0.0480    0.0630
    0.0386   -0.0125    0.1723   -0.1697   -0.0180    0.2087    0.0333   -0.0119    0.0137    0.0453
   -0.0510   -0.0285    0.0499   -0.0079    0.1384   -0.0224   -0.0506   -0.1048   -0.0533   -0.1835
   -0.0244   -0.1049   -0.0342    0.0711    0.0792   -0.0383   -0.0931   -0.0324   -0.0274    0.0279
    0.0169   -0.0110   -0.0791    0.0099    0.0574    0.1701   -0.0020    0.0750   -0.0419   -0.0842
    0.0336    0.0415    0.0946    0.0329   -0.0085   -0.0384    0.1451   -0.1706    0.0588   -0.1583
   -0.1647   -0.0880   -0.1931   -0.2324   -0.3349    0.1137    0.1653    0.1966    0.1489    0.0332
   -0.0914   -0.1512   -0.1181    0.2432    0.1096    0.2428    0.0929    0.2302    0.0431   -0.3580
   -0.0507   -0.0152   -0.1140    0.0089   -0.1048   -0.0717   -0.0628    0.2389    0.1294   -0.2179
   -0.0465    0.0581    0.0230    0.0324    0.0642   -0.1001    0.1307    0.1162    0.0572    0.0835
    0.0257   -0.0588    0.0080   -0.0124   -0.0004    0.0671   -0.1310   -0.1187    0.0299    0.0578
   -0.1484    0.0773    0.0699    0.0849    0.0091   -0.1082    0.0288    0.1167   -0.0132   -0.0728
    0.0154   -0.1046    0.2080    0.0604    0.0454    0.0334    0.0718   -0.0918   -0.0785   -0.0207
   -0.0704   -0.0996   -0.0942    0.0420    0.0146   -0.0486    0.0754    0.0290    0.0012   -0.0163
    0.0949   -0.1120   -0.0026    0.0525    0.0368   -0.1113   -0.0072   -0.0613    0.0367   -0.0033
   -0.1139   -0.0618    0.0097    0.0217    0.0594   -0.0135    0.0522    0.0558    0.1107    0.0628
   -0.0823    0.0371    0.0683   -0.0628    0.0202   -0.0090    0.2169   -0.0435   -0.0311    0.0000
    0.0000    0.0000    0.0000    0.0000    0.0000    0.0000    0.0000    0.0000
    0.0432   -0.0728    0.1464    0.0804    0.0323    0.0266    0.0606   -0.0798    0.1451   -0.0478
    0.0638   -0.0966    0.0337    0.0369   -0.0356   -0.1519   -0.0260   -0.1754    0.0620   -0.0030
   -0.0010    0.1071    0.1286    0.0078    0.1170    0.1026   -0.0171    0.1438   -0.0412   -0.0794
   -0.0192   -0.0441   -0.1447   -0.0103    0.0172   -0.0458   -0.0079   -0.0392   -0.0923   -0.0734
   -0.0593   -0.1681    0.0210   -0.1613    0.2106    0.0963    0.1569    0.0192    0.0495   -0.0041
   -0.0309   -0.0976    0.0586   -0.1278   -0.0309   -0.1407    0.0561   -0.0100   -0.1477   -0.2148
   -0.0971   -0.0609   -0.1152   -0.0908   -0.0862   -0.0462    0.0993   -0.1013    0.0464    0.1013
    0.0446    0.0277    0.0044   -0.1529   -0.0239   -0.0057   -0.0529   -0.0637   -0.0634    0.1522
   -0.0297   -0.0747    0.0075   -0.1392   -0.0946   -0.0165    0.0253    0.0078    0.4859    0.2326
    0.4634    0.2121    0.1992    0.1264   -0.2112    0.1445    0.4628   -0.0981   -0.0091   -0.0976
    0.3766   -0.1169   -0.4434   -0.3427   -0.3862   -0.3663   -0.1849   -0.3816    0.0388    0.6714
    0.0199    0.0663    0.1458    0.1527   -0.0600   -0.0743    0.0781   -0.0066   -0.0260   -0.1665
   -0.1422    0.0394    0.0159   -0.0555    0.1047    0.0220    0.0219   -0.1691    0.0051   -0.1653
   -0.0020   -0.0227    0.0368    0.0095    0.1187    0.0270    0.1113    0.1088   -0.0909   -0.1306
    0.0198   -0.0942   -0.1140   -0.1100    0.0678    0.1355   -0.0887    0.0382   -0.1149   -0.1433
   -0.0209   -0.1218    0.1106    0.1095    0.0308    0.0341    0.1291    0.1429    0.0281   -0.0723
    0.0033   -0.0335    0.0810    0.0718   -0.1350   -0.0143   -0.0527    0.0819   -0.0316   -0.0460
   -0.0341   -0.1150   -0.1222   -0.0673   -0.1141   -0.1115    0.0417    0.0270    0.0684    0.1506
    0.0224    0.0835    0.0286    0.1570    0.0883   -0.0833   -0.0320    0.0046    0.0782   -0.0250
   -0.0005   -0.2849   -0.0603   -0.1595   -0.1386   -0.1137   -0.0282    0.0168   -0.5258    0.0000
    0.0000    0.0000    0.0000    0.0000    0.0000    0.0000    0.0000    0.0000
    0.1522    0.0684    0.1062    0.0234    0.1680    0.0857   -0.0830    0.0456    0.0125   -0.1159
    0.0137   -0.0950   -0.1116    0.0543   -0.1472   -0.0716   -0.0532   -0.2302    0.0944   -0.0760
   -0.4363    0.0933    0.0508   -0.0311    0.0561    0.1141    0.0535    0.0659    0.1550    0.1307
   -0.0180   -0.1870   -0.0297   -0.1089   -0.1612    0.0817   -0.1433   -0.1363   -0.1036   -0.3395
   -0.0428   -0.1936   -0.1882   -0.0164    0.1725   -0.0199    0.0758    0.0908    0.0923    0.0345
    0.0924   -0.1913    0.0386   -0.0837   -0.2095   -0.2336    0.0363   -0.0614    0.0601   -0.2012
   -0.1098    0.0121   -0.1083   -0.0050   -0.2130   -0.0629    0.1875   -0.0371    0.2753    0.0605
    0.0875    0.1209    0.2549   -0.1974   -0.0894   -0.3730   -0.2383   -0.0068    0.0205    0.0762
    0.0130   -0.2171    0.0753   -0.0620   -0.0265   -0.1872   -0.1769    0.0829    0.8828    0.7532
    0.9503    0.5420    0.7551    0.3646    0.2049   -0.1807    0.5344   -0.4783   -0.1057   -0.1552
    0.7061   -0.1856   -0.5998   -1.3038   -0.5144   -0.9657   -0.4505   -0.7543   -0.0645    1.6345
    0.1202    0.1298    0.3519    0.1077    0.0935    0.1727    0.1899   -0.2548    0.0295   -0.1797
   -0.0791   -0.0796   -0.0146   -0.0701   -0.0758   -0.0922   -0.1021   -0.2226   -0.1250   -0.1476
   -0.3355    0.1045    0.1206    0.1552    0.0898    0.2056    0.1762    0.1195    0.0415   -0.0343
    0.0284   -0.2612   -0.1866   -0.2959    0.1032    0.0948   -0.1127   -0.1016   -0.0918   -0.0258
   -0.1400   -0.0971   -0.2256   -0.0449   -0.0801    0.2709    0.2237    0.2229    0.0844    0.0357
    0.1438   -0.1520    0.1701   -0.1851   -0.0907   -0.0455   -0.0508    0.1606    0.0031   -0.3190
   -0.0888   -0.1912   -0.1032   -0.1539   -0.2554    0.0828    0.0493    0.1455    0.0972    0.3399
    0.1455   -0.0398    0.0124    0.0420    0.0332   -0.1120   -0.1483   -0.0534    0.0801    0.1241
   -0.1142   -0.2606   -0.1082   -0.2203    0.0465   -0.0752   -0.4309    0.0300   -1.0552    0.0000
    0.0000    0.0000    0.0000    0.0000    0.0000    0.0000    0.0000    0.0000
    0.1117    0.0989    0.1104    0.1538   -0.0153    0.0590    0.1161   -0.0478   -0.1173   -0.0673
   -0.1115    0.0904   -0.0266    0.0473   -0.1225   -0.1327    0.0406   -0.2498   -0.0495   -0.1316
   -0.3097    0.0223    0.1008    0.0485    0.0809    0.0382    0.0423    0.0354    0.0103    0.1052
   -0.1610   -0.0037   -0.0540   -0.0032   -0.0254    0.0181   -0.0567   -0.1077   -0.0922   -0.0861
    0.0175    0.0353   -0.2524    0.0561    0.0994   -0.0683    0.1256    0.0041    0.1754    0.0087
    0.1058    0.0021   -0.0004   -0.1149   -0.1837   -0.0054    0.0909   -0.0144   -0.0176   -0.0036
   -0.1062    0.1354   -0.0077   -0.1512   -0.2826    0.0021    0.1737    0.1297    0.0587    0.0084
    0.1554    0.1814    0.1604   -0.1342   -0.0061   -0.2563   -0.1322    0.0140    0.0822    0.1025
    0.0331   -0.1540    0.0738   -0.0225    0.0325   -0.1511   -0.1144    0.0596    0.4762    0.6510
    0.6146    0.4213    0.4749    0.3257    0.1234   -0.2709    0.0418   -0.4000   -0.2202   -0.1400
    0.4183   -0.0899   -0.3191   -0.7682   -0.3528   -0.6637   -0.2972   -0.6028    0.0003    1.1690
    0.0466    0.0817    0.1652    0.1509    0.1570    0.0549    0.1074   -0.2714   -0.0928    0.0809
    0.0503   -0.0031   -0.0500   -0.0717    0.0605   -0.0916   -0.1810   -0.1518   -0.1419   -0.1062
   -0.1228    0.2218    0.1919    0.0593   -0.0173    0.0021   -0.0168    0.0919    0.0843    0.0075
    0.0276   -0.1665   -0.0732   -0.0586    0.1115   -0.0150   -0.0691   -0.2041   -0.0144    0.0684
   -0.0655    0.0072   -0.2589   -0.0629   -0.0298    0.1011    0.1319    0.1872    0.0291    0.0921
    0.0060   -0.0388    0.1349   -0.1652   -0.1522   -0.0253   -0.0695    0.1277    0.0067   -0.2551
   -0.1966    0.0032   -0.0090   -0.0707   -0.2703    0.0624   -0.1016    0.1885    0.0779    0.0993
    0.0156    0.0067   -0.0376    0.0186   -0.0781   -0.0550   -0.0379   -0.0969   -0.0252   -0.0149
   -0.0756   -0.1472   -0.0462   -0.0930   -0.0204   -0.0390   -0.2831    0.1136   -0.7077    0.0000
    0.0000    0.0000    0.0000    0.0000    0.0000    0.0000    0.0000    0.0000
   -0.2011   -0.2030   -0.0867    0.0836   -0.0032    0.0817   -0.0547    0.1525    0.0174    0.0335
    0.1106   -0.0313   -0.1806   -0.0616    0.0388    0.1449    0.2225   -0.0135    0.0815    0.0009
   -0.0903    0.1879    0.0594    0.0136   -0.0658   -0.1177   -0.1677   -0.0223   -0.0152   -0.0463
    0.1542   -0.1304   -0.1394   -0.0163    0.1488    0.1462    0.2126    0.0445   -0.0061    0.1293
    0.0216   -0.0316   -0.1534    0.1315    0.2914    0.2979    0.2991    0.0180    0.1057   -0.1286
   -0.0444   -0.0233    0.1577   -0.1413    0.0133   -0.0276    0.1309    0.0118    0.0206   -0.2041
    0.0155   -0.1243    0.0007   -0.1254   -0.2438    0.1901    0.2355    0.0827    0.2348    0.0372
    0.0603    0.1709    0.1026   -0.2023    0.2480   -0.1303    0.0448   -0.1278    0.0066   -0.0109
    0.0283   -0.0682    0.0569   -0.1657   -0.1503   -0.1460   -0.1319   -0.0173    0.2490   -0.2538
    0.1173   -0.0296   -0.2802   -0.2538   -0.3493    0.1539    0.5870   -0.0523    0.0900    0.1901
    0.0616   -0.2150   -0.2925    0.2916   -0.0121    0.0652   -0.1954    0.0149    0.0985   -0.2496
    0.2688    0.2428    0.0407   -0.0310    0.0876    0.0323    0.2980    0.0881    0.0786   -0.2380
   -0.2508    0.0050    0.1828    0.0241    0.0808   -0.0879   -0.0304   -0.0185   -0.0814   -0.3784
   -0.1218   -0.0167    0.0870    0.2476    0.1867    0.0281   -0.0362    0.0456    0.0140   -0.3017
    0.0971   -0.0907   -0.1264    0.0295   -0.0057    0.0989   -0.0031    0.0840   -0.0389    0.0122
   -0.0943   -0.0068   -0.1808    0.1472   -0.0004    0.0539   -0.0160   -0.0472    0.1065    0.0350
   -0.0419    0.0569    0.1225   -0.2187   -0.0721    0.0720    0.0829   -0.0294   -0.0865   -0.0008
    0.1068   -0.0873    0.0016    0.0000   -0.2439    0.0325   -0.0013   -0.0246    0.0348   -0.0412
   -0.1065    0.0573    0.0559    0.1929    0.3003   -0.1930    0.0874    0.1605    0.0588   -0.1121
    0.0313   -0.1363   -0.0689   -0.0744   -0.1992    0.0603   -0.1482   -0.0113   -0.2640    0.0000
    0.0000    0.0000    0.0000    0.0000    0.0000    0.0000    0.0000    0.0000
    0.0037   -0.1070   -0.0607   -0.1558   -0.0857   -0.0776    0.0106   -0.0106   -0.0221    0.0088
   -0.1301   -0.1238   -0.0086   -0.0969    0.0938    0.0831    0.0486    0.1361   -0.0869    0.0180
    0.3331   -0.1936   -0.1773   -0.0329   -0.1523   -0.0592   -0.0119    0.0008   -0.1100   -0.1958
   -0.0046    0.0434    0.0245   -0.0016    0.1129   -0.0467   -0.0198    0.1540    0.1650    0.0847
   -0.0148    0.0994    0.3275   -0.1918   -0.1480    0.0032   -0.2550   -0.0106   -0.2012   -0.1187
   -0.2036   -0.0227    0.0022    0.1673    0.1236    0.0415    0.0030   -0.0641    0.0105    0.0445
   -0.0116   -0.0429    0.1829    0.1784    0.2893   -0.0818   -0.2687   -0.0646   -0.2865    0.0016
   -0.2109   -0.1786   -0.0883    0.1356    0.0087    0.3823    0.1633   -0.0696   -0.0120    0.0192
    0.1064    0.1683   -0.0602    0.0270    0.1389    0.1154    0.2610   -0.2626   -0.5628   -0.5109
   -0.7056   -0.4469   -0.4835   -0.2711   -0.0282    0.0745   -0.4618    0.2760    0.0144   -0.0298
   -0.5631    0.1376    0.4129    0.9234    0.4062    0.8759    0.3632    0.5281    0.0192   -1.1707
   -0.1374   -0.1662   -0.2539   -0.0755   -0.2435   -0.1225   -0.0996    0.1994   -0.0374    0.0242
   -0.0658   -0.0774   -0.0137    0.1479    0.0689    0.0994    0.1381    0.2346    0.1316    0.3181
    0.3045   -0.3037   -0.2442   -0.0436   -0.0451   -0.0578   -0.0846   -0.1193   -0.0471    0.1848
   -0.1448    0.3186    0.0201    0.1230   -0.1004   -0.0285    0.1721    0.0833    0.0651    0.0266
    0.0898    0.0094    0.2247   -0.0821   -0.0541   -0.1026   -0.0830   -0.1900   -0.0918   -0.0419
   -0.1122   -0.1286   -0.0778    0.2428    0.0115    0.1140    0.0581   -0.1113   -0.0083    0.1259
    0.0414    0.0115    0.0142    0.0970    0.4109   -0.1195   -0.0307   -0.1992   -0.1324   -0.3071
   -0.0899   -0.0360   -0.1413   -0.1142   -0.0741    0.1685    0.0160    0.0389   -0.0050   -0.0521
    0.0339    0.1981    0.0681    0.1257    0.1376    0.0784    0.4502   -0.2297    0.5175    0.0000
    0.0000    0.0000    0.0000    0.0000    0.0000    0.0000    0.0000    0.0000
   -0.1213    0.0661   -0.1819   -0.0898   -0.1577   -0.0978   -0.0497   -0.1024   -0.0498    0.0204
   -0.1068   -0.0417    0.0952    0.0610    0.1352    0.0454    0.0163    0.2564   -0.0296    0.0017
    0.1612   -0.2784   -0.0704   -0.0321   -0.1524   -0.2048   -0.1219   -0.0233    0.0483   -0.0285
    0.0314   -0.0210   -0.1192   -0.0276    0.0214    0.0103    0.1178   -0.0097   -0.0102    0.2081
   -0.0189    0.1267    0.1955   -0.0216   -0.0713    0.0502   -0.1590   -0.0168   -0.1712   -0.0059
   -0.0274    0.0430   -0.0064    0.1065    0.0490    0.0024    0.0185    0.0222    0.0222    0.0071
    0.0859   -0.0344    0.0179    0.0314    0.1739   -0.1273   -0.1913   -0.0107   -0.2103   -0.0766
   -0.1641   -0.0150   -0.0342    0.1157   -0.0308    0.2586   -0.0094   -0.1303    0.0620   -0.0376
    0.0830    0.0539   -0.0804    0.0894   -0.0585    0.0631    0.1875   -0.1283   -0.3037   -0.3399
   -0.4218   -0.3741   -0.4198   -0.2959   -0.1076    0.0154   -0.3656    0.2180    0.0226   -0.0916
   -0.3988    0.1189    0.3512    0.8604    0.3259    0.6242    0.2551    0.3393    0.0356   -0.8206
   -0.1436   -0.0838   -0.1367   -0.0638   -0.1422   -0.1085   -0.0775    0.1512    0.0701    0.0638
   -0.1269    0.0037   -0.0850    0.0763    0.0057    0.0594   -0.0800    0.0918    0.1728    0.0399
    0.2135   -0.1488   -0.0295   -0.0631   -0.0782   -0.0592   -0.0614    0.0357   -0.1205    0.0223
   -0.0908    0.1261    0.0094    0.0961   -0.1184    0.0387    0.1786    0.0082   -0.0410    0.0857
   -0.0619    0.0102    0.1303   -0.0820   -0.1124   -0.0672   -0.1364   -0.0697   -0.1440    0.0337
    0.0004   -0.0195   -0.0182    0.0628    0.0193   -0.0509    0.0943   -0.0519    0.0820    0.0640
    0.0765    0.1000    0.1194    0.0495    0.2095   -0.0791    0.0003   -0.1379   -0.0949   -0.2766
   -0.0182   -0.0642   -0.1000   -0.0198   -0.0373    0.0852   -0.0274    0.0713   -0.1202    0.0463
   -0.0061    0.0963    0.0095    0.1451   -0.0140   -0.0085    0.2477   -0.1525    0.2134    0.0000
    0.0000    0.0000    0.0000    0.0000    0.0000    0.0000    0.0000    0.0000
    0.0065   -0.0416   -0.0666   -0.1452   -0.0867   -0.1086    0.0184   -0.0219    0.0405    0.0315
   -0.0691    0.0316   -0.0260   -0.0660    0.0316    0.0737   -0.0188    0.1829   -0.1441    0.0063
    0.1326   -0.1122    0.0064   -0.0342   -0.1275   -0.0709   -0.0503   -0.1009   -0.0816    0.0110
    0.0461    0.0606    0.0040   -0.0162    0.1124   -0.0648    0.0712    0.0297    0.0713    0.1557
    0.1108   -0.0416    0.0670   -0.1215   -0.0167   -0.0721   -0.0835    0.0129   -0.0176   -0.0874
   -0.0204    0.0818   -0.0852    0.0839   -0.0677    0.0979   -0.0045   -0.0419    0.0305    0.0769
   -0.0227   -0.1031   -0.0166   -0.0912    0.2140   -0.0749   -0.0358   -0.0035   -0.1769   -0.0013
   -0.1269   -0.1192   -0.1091   -0.0104   -0.0771    0.0952    0.1296    0.0449    0.0033   -0.1181
   -0.0159    0.0796    0.0039   -0.1120   -0.0480   -0.0245   -0.0093    0.0130   -0.2547   -0.3517
   -0.3982   -0.4301   -0.4525   -0.1673   -0.1869    0.0027   -0.1435    0.1202   -0.0554   -0.0323
   -0.4663    0.0786    0.3849    0.7741    0.3010    0.5095    0.1437    0.5109    0.0833   -0.8561
   -0.1431    0.0584   -0.1837   -0.0417   -0.0604   -0.0484   -0.0959    0.1719    0.0039    0.0972
   -0.0621    0.0510    0.0495   -0.0178   -0.0675   -0.0617    0.0033    0.0016    0.0416   -0.0186
    0.0523   -0.1317   -0.0299   -0.1168   -0.1587   -0.1740   -0.1396   -0.0026   -0.1356    0.1317
    0.0199    0.0328   -0.0236    0.0721   -0.0022   -0.0208    0.0686    0.0760    0.0628   -0.0899
   -0.0691   -0.0118    0.2100   -0.0632   -0.1087   -0.1572   -0.1778   -0.0709   -0.0954   -0.0618
    0.0245    0.0853    0.0553    0.0237    0.0356   -0.0580    0.0438   -0.1115   -0.0207    0.0653
   -0.0215    0.1228    0.0351   -0.0433    0.1823   -0.1716    0.0365    0.0042   -0.0814   -0.0753
   -0.1715    0.0883    0.0391   -0.0112    0.0412   -0.1016    0.0739   -0.0129    0.0305   -0.0188
    0.0542    0.2396    0.0059    0.0967    0.0198   -0.0877    0.1385   -0.0701    0.2125    0.0000
    0.0000    0.0000    0.0000    0.0000    0.0000    0.0000    0.0000    0.0000
   -0.0402   -0.1004   -0.1593   -0.1260   -0.0586    0.0692    0.0138   -0.0391   -0.0190    0.0812
   -0.1300    0.1081   -0.0523    0.0415    0.1145    0.0393   -0.0048    0.1117    0.0471   -0.0252
    0.1099   -0.1008   -0.1078    0.0792   -0.0012   -0.1550   -0.0842   -0.1326    0.0025   -0.1300
    0.0810    0.0826   -0.0007   -0.0136    0.0330   -0.0231    0.1365   -0.0402    0.0489    0.0308
    0.0996    0.1130   -0.0431   -0.1465   -0.1375    0.1270   -0.0723   -0.0055    0.0116   -0.0354
    0.0395   -0.0077    0.0102    0.0197   -0.0030    0.1162   -0.0619    0.0296    0.0397   -0.0725
    0.0280    0.0589    0.0687    0.0720    0.1560   -0.0076   -0.0121   -0.0287   -0.0089   -0.0337
   -0.0420   -0.0605   -0.0813   -0.0028    0.0632    0.0882    0.0890    0.0643    0.0082   -0.0230
    0.0678    0.1344   -0.0862   -0.0213   -0.0994    0.0620    0.0771   -0.1015   -0.2008   -0.2945
   -0.3268   -0.2692   -0.2500   -0.2049   -0.2077   -0.0432   -0.1926    0.1802    0.0715    0.0603
   -0.3863    0.0739    0.1824    0.6763    0.2904    0.5153    0.1624    0.3838    0.1030   -0.6886
   -0.0065    0.0361   -0.1897   -0.1147    0.0526   -0.1025   -0.0979    0.1421   -0.0080    0.0585
   -0.0819   -0.0480    0.0341    0.0490    0.0794   -0.0709   -0.0073    0.1163    0.0518    0.0076
    0.0678   -0.1612   -0.0011    0.0775   -0.0294   -0.0252    0.0421   -0.0535   -0.0559   -0.0240
    0.0707    0.1088   -0.0630    0.1226    0.0196   -0.0704    0.0316    0.0957   -0.0379    0.0642
    0.0448   -0.0013    0.0356   -0.1970   -0.0036   -0.1690   -0.0056   -0.2021   -0.0555    0.0727
   -0.1457    0.0954   -0.0159    0.1034   -0.0643   -0.0308    0.0341    0.0140   -0.0076    0.1400
    0.0216    0.1092    0.0439    0.0695   -0.0247   -0.0579   -0.0599   -0.1342   -0.0972   -0.2094
   -0.0467   -0.0213    0.0174    0.0087    0.0710   -0.0795    0.0671    0.1246    0.0505   -0.0169
   -0.0060    0.1729    0.0631   -0.0012   -0.0181    0.0559    0.0624   -0.1955    0.0961    0.0000
    0.0000    0.0000    0.0000    0.0000    0.0000    0.0000    0.0000    0.0000
   -0.0382    0.1121    0.1586    0.0274    0.1262   -0.0331   -0.0041    0.0512   -0.0309    0.0940
   -0.0035   -0.1469    0.0456   -0.0349   -0.0013    0.0023   -0.0379   -0.1338   -0.0829   -0.0363
   -0.0905    0.0835   -0.0574    0.0462    0.1271    0.1481    0.1920    0.0486    0.1047    0.0115
   -0.0233   -0.0131    0.0321    0.0969   -0.0924   -0.0627   -0.0428   -0.0045   -0.0005   -0.0739
    0.0296    0.0688    0.0844   -0.1071   -0.0039   -0.0834   -0.1422    0.0034    0.0489    0.0910
   -0.0258   -0.0987   -0.0857    0.0142   -0.0363   -0.1508   -0.0510   -0.0746   -0.0334    0.0613
   -0.0644   -0.0142   -0.0106    0.0178   -0.0111   -0.1303   -0.0723   -0.0898   -0.0849    0.0317
   -0.0875    0.0515    0.0018    0.0093   -0.0390   -0.0835   -0.0635    0.0992   -0.0323    0.0267
   -0.0781   -0.0999    0.0371    0.1090    0.0228    0.0273    0.0184   -0.0043    0.4464    0.4135
    0.4179    0.2150    0.3934    0.0745    0.0347   -0.0943    0.1710   -0.2453   -0.1646   -0.2044
    0.3480    0.0024   -0.3036   -0.3670   -0.2333   -0.3285   -0.1377   -0.2855    0.0116    0.8006
   -0.1229   -0.1314    0.0485    0.0403    0.0271   -0.0611    0.0370   -0.1777   -0.0346    0.0717
    0.0082   -0.0161   -0.1422    0.0676    0.0511    0.0186   -0.0205   -0.1371   -0.0049    0.0171
    0.0950   -0.0235   -0.0179   -0.0698   -0.0962   -0.0563    0.0941    0.0348    0.0394    0.0423
   -0.0087   -0.0966   -0.0314   -0.0606    0.0156   -0.0017   -0.0017   -0.1378   -0.0864   -0.0934
    0.0567    0.0278   -0.0137   -0.0088   -0.0184    0.0829   -0.0310    0.1517    0.0384    0.1066
    0.0812    0.0351   -0.0435    0.0434   -0.0596   -0.1213   -0.0611    0.0918   -0.1278   -0.0782
   -0.1533   -0.1855   -0.0991    0.0063    0.1032   -0.0101   -0.0075    0.1351    0.0609    0.0810
    0.0252    0.0550   -0.0628   -0.0712   -0.0545    0.1079   -0.1289   -0.0322   -0.0478    0.0173
    0.0689   -0.1299   -0.0491   -0.0597    0.0433   -0.0109   -0.0054    0.0221   -0.3956    0.0000
    0.0000    0.0000    0.0000    0.0000    0.0000    0.0000    0.0000    0.0000
    0.0024   -0.0184   -0.0472   -0.0150   -0.0894   -0.0346    0.0256   -0.1149   -0.1488    0.0573
   -0.0423   -0.0329    0.0705   -0.0336   -0.0415   -0.0214   -0.0201    0.2110   -0.1708   -0.0853
    0.1372   -0.2441    0.0454   -0.1763   -0.0329   -0.0599   -0.0354   -0.0429   -0.1189    0.0772
   -0.0732   -0.0099    0.1105    0.0681    0.0290   -0.0037   -0.0275   -0.0075   -0.0283    0.0298
   -0.0150    0.0314    0.0754   -0.1047   -0.1240   -0.1728   -0.1306    0.0798   -0.1070   -0.0556
   -0.0764    0.0900   -0.0729    0.0146   -0.0537    0.0369   -0.0708   -0.0212    0.0215    0.0116
   -0.0989    0.0448   -0.0033    0.0215    0.1570    0.0003   -0.0776    0.0003   -0.0865    0.0399
    0.0039   -0.0115   -0.1435    0.0413   -0.0010    0.2109    0.0203    0.0572   -0.0669   -0.1104
    0.0754    0.0099   -0.0962    0.0053    0.0704    0.0274    0.0309    0.0307   -0.2921   -0.0233
   -0.1580   -0.2603   -0.0254   -0.1032    0.1073   -0.1815   -0.4010    0.1270   -0.2792   -0.0405
   -0.2221    0.1359    0.3648    0.3990    0.2028    0.2937    0.0563    0.2575    0.1315   -0.3586
   -0.0232    0.0222   -0.0545   -0.0768   -0.0599    0.0768   -0.1329   -0.0987   -0.1297    0.1580
    0.0941   -0.0647   -0.0956   -0.0507    0.0523   -0.1055    0.0125   -0.0063    0.0709    0.1073
    0.0558    0.0160   -0.0968   -0.0186   -0.1261   -0.0249    0.0014   -0.0353    0.0204    0.1352
    0.0239    0.0690    0.0537   -0.0527   -0.0314   -0.0025    0.0490    0.0051    0.0058    0.0977
    0.0790    0.0352    0.1185   -0.2028    0.0174   -0.1135   -0.1226   -0.1615   -0.0516   -0.1038
   -0.0083   -0.0750   -0.0980   -0.0205    0.0141    0.0436   -0.0082   -0.0983    0.0778    0.1001
    0.0529    0.1701    0.0385    0.0541    0.1686   -0.0721   -0.0514   -0.0313   -0.0457   -0.1164
   -0.1092   -0.0742   -0.1092   -0.0058   -0.0905    0.0672   -0.0244   -0.0160   -0.1409   -0.0882
    0.0768    0.0610    0.0806    0.0751    0.0784    0.0044    0.0772   -0.0111    0.0238    0.0000
    0.0000    0.0000    0.0000    0.0000    0.0000    0.0000    0.0000    0.0000
    0.0698   -0.0035   -0.0935   -0.0609    0.0554   -0.0277   -0.0221   -0.0280    0.0372   -0.0812
   -0.0267    0.0301   -0.0715   -0.0221    0.0787   -0.0456   -0.0672    0.0323   -0.0067   -0.1142
    0.0205   -0.1607   -0.0317   -0.0010   -0.0675   -0.0165   -0.0064   -0.1036   -0.0480   -0.0020
   -0.1015    0.0242    0.0386    0.0109   -0.0558    0.0358   -0.1405   -0.0692    0.0905   -0.1310
   -0.1146    0.0977   -0.0357   -0.1020   -0.0753   -0.1168   -0.1896    0.0242   -0.0166    0.0577
   -0.0748    0.1055    0.0157   -0.0357    0.0502   -0.1009   -0.0078   -0.0356    0.0556    0.1334
   -0.0245   -0.0060    0.0806    0.0074    0.0736   -0.1260   -0.1668   -0.0942   -0.0841    0.0846
    0.0365    0.0386   -0.0826    0.0087   -0.1539    0.0366    0.0439   -0.0524   -0.0247   -0.0518
   -0.0467   -0.0251   -0.0913    0.0766    0.0501   -0.0312    0.1106    0.0240   -0.1583    0.0901
   -0.0791   -0.1394   -0.0730    0.0940   -0.0200   -0.1073   -0.3871   -0.1071   -0.2740   -0.0959
   -0.1070    0.0729    0.1022    0.1822   -0.0252    0.0697    0.0898    0.1386    0.0306    0.0994
   -0.0309   -0.0390   -0.0568   -0.1412   -0.0263    0.0590   -0.2327    0.0131   -0.0411    0.1848
    0.0740   -0.1169   -0.0002    0.0071    0.0035    0.0470    0.0440    0.0053   -0.0168    0.0168
    0.1562    0.0168   -0.1324   -0.1592   -0.0780   -0.1275   -0.1368   -0.0977    0.0156    0.0306
   -0.0682   -0.0202    0.0689    0.0244   -0.0388    0.0021    0.0209   -0.1033    0.0143   -0.0461
    0.0960    0.0366    0.0303   -0.0826   -0.1107   -0.0866   -0.1195    0.0298   -0.1773   -0.0896
   -0.0765    0.0377   -0.0930    0.0938    0.0403    0.0417   -0.0512    0.0025    0.0624    0.0512
   -0.1187    0.0418    0.0606   -0.0812    0.1261   -0.1060    0.0570   -0.0999   -0.1394    0.0009
   -0.0836   -0.0848   -0.0280   -0.0255   -0.1953    0.1112   -0.1186   -0.0362   -0.0999   -0.0245
    0.0647    0.0029   -0.0209   -0.0007    0.0347   -0.0171    0.0993    0.0351   -0.0932    0.0000
    0.0000    0.0000    0.0000    0.0000    0.0000    0.0000    0.0000    0.0000
   -0.0855   -0.0685    0.0620   -0.0997   -0.0579   -0.0061    0.1268   -0.0640   -0.0480    0.0296
    0.0474   -0.1192   -0.0634    0.0236    0.0295   -0.1213   -0.1324    0.0033    0.0600   -0.0482
    0.1829   -0.0531    0.0365   -0.0050   -0.0740    0.0159    0.1690    0.0256   -0.0400    0.0915
   -0.0808    0.0288    0.0621    0.0227   -0.0082   -0.0376    0.0238   -0.0065    0.0074   -0.0453
   -0.0748   -0.0338    0.2025    0.0751   -0.1405   -0.1251   -0.0218   -0.0599   -0.0345   -0.0479
   -0.0883    0.0719   -0.0483    0.0539   -0.0097    0.0412   -0.0053    0.1384   -0.0964    0.1123
    0.0980    0.0241    0.0970   -0.0784    0.2085   -0.0777   -0.1075   -0.0103   -0.0982    0.0991
    0.0289   -0.0641   -0.0309    0.0825   -0.0568    0.1950    0.0235   -0.0127    0.0363    0.0231
   -0.0142    0.0524    0.0681    0.0650    0.1258    0.0920    0.1583    0.0245    0.1478    0.1121
    0.0945    0.0004    0.1559    0.0290    0.0469   -0.1239    0.0411   -0.1187   -0.1941   -0.1745
    0.1121   -0.0600   -0.0824    0.0382   -0.1123    0.0113   -0.0350    0.0521    0.0039    0.2765
   -0.0485   -0.1096   -0.0776   -0.0453   -0.0303   -0.0179   -0.1229    0.0106   -0.0521    0.1444
    0.0319   -0.0034    0.0105   -0.0426   -0.0634    0.0566    0.0173   -0.0831   -0.0291    0.0575
    0.1983   -0.0241    0.0580   -0.0622   -0.0645   -0.0668   -0.1371   -0.0824    0.0279    0.0629
   -0.0067    0.1123    0.0185   -0.0738   -0.0916    0.0460    0.0204   -0.0611   -0.0277   -0.0701
   -0.0352    0.0904    0.0679   -0.0419    0.0675   -0.0723   -0.1002    0.0689   -0.0181   -0.0089
   -0.0716    0.0625   -0.0550   -0.0111    0.0814   -0.0794    0.0073    0.0248    0.0165   -0.0443
   -0.0467   -0.1006    0.0990    0.0421    0.1390   -0.0167   -0.1018    0.0060    0.0152   -0.0843
    0.0166    0.0712   -0.0383   -0.0030   -0.1018    0.1265   -0.0852    0.0058   -0.1000   -0.0500
    0.0201    0.0257   -0.0844    0.0369   -0.0153   -0.0453    0.2272   -0.0185   -0.1258    0.0000
    0.0000    0.0000    0.0000    0.0000    0.0000    0.0000    0.0000    0.0000
 ***                         junction second layer: row=numhid+ (10F10.4)
   -1.6881   -0.4106   -0.2219   -0.0625    0.0565   -0.0684   -0.1521   -0.6329   -0.1906    0.1295
    0.7230   -0.0148   -0.0828   -0.0939   -0.3115   -0.3456   -0.4486   -0.6857   -0.9715   -0.8145
   -0.2362   -0.6165   -0.4986   -0.7463   -0.4526   -0.4050   -0.2151    0.3574    0.4177    0.2631
    1.0359    0.0714   -0.1467   -0.2142   -0.6337   -0.8819   -0.6359   -0.6058   -0.6767   -0.5404
    1.8580    0.8695    0.4729   -0.1232   -0.2709   -0.7584   -1.3442   -1.6724   -1.5585   -1.5887
    0.9236    0.8275    0.2850    0.1059   -0.2277   -0.3485   -0.7741   -1.1138   -1.4135   -1.4321
    0.8782   -0.9244   -0.8727   -0.5992   -0.3694   -0.5202    0.3953    0.7392   -0.2725   -0.9779
   -2.2457   -1.1163   -0.7389   -0.5129   -0.2125   -0.0992    0.1010    0.5548    1.0330    0.9597
   -1.6637   -0.9722   -0.6668   -0.5408   -0.3158   -0.0853    0.1819    0.4679    0.4096    0.3567
   -1.3872   -1.1558   -0.7879   -0.4352   -0.3486    0.1408    0.3286    0.4086    0.3009    0.2379
   -1.1494   -0.9118   -0.5940   -0.4900   -0.3901   -0.1228    0.4104    0.5394    0.2632   -0.0480
    0.3280    0.2381    0.2485   -0.1262   -0.1077   -0.5685   -0.8581   -1.1164   -0.6272   -0.5308
   -1.3680   -0.3875   -0.4435   -0.1511   -0.1804    0.2167   -0.1071   -0.0794    0.0178   -0.0817
   -0.9386   -0.1496   -0.2603   -0.0977   -0.2386   -0.0711   -0.2769   -0.4546   -0.1461   -0.1332
   -0.5151   -0.3378   -0.2941   -0.1076   -0.2461   -0.4945   -0.5624   -0.7721   -0.3665   -0.1277
   -0.7732   -0.6595   -0.7118   -0.7125   -0.4010   -0.3985   -0.2449   -0.3747   -0.4163   -0.9961
    0.0000    0.0000    0.0000    0.0000    0.0000    0.0000    0.0000    0.0000    0.0000    0.0000
    0.0000    0.0000    0.0000    0.0000    0.0000    0.0000    0.0000    0.0000    0.0000    0.0000
    0.0000    0.0000    0.0000    0.0000    0.0000    0.0000    0.0000    0.0000    0.0000    0.0000
    0.0000    0.0000    0.0000    0.0000    0.0000    0.0000    0.0000    0.0000    0.0000    0.0000
    0.0000    0.0000    0.0000    0.0000    0.0000    0.0000    0.0000    0.0000    0.0000    0.0000
    0.0000    0.0000    0.0000    0.0000    0.0000    0.0000    0.0000    0.0000    0.0000    0.0000
    0.0000    0.0000    0.0000    0.0000    0.0000    0.0000    0.0000    0.0000    0.0000    0.0000
    0.0000    0.0000    0.0000    0.0000    0.0000    0.0000    0.0000    0.0000    0.0000    0.0000
    0.0000    0.0000    0.0000    0.0000    0.0000    0.0000    0.0000    0.0000    0.0000    0.0000
END
