********************************************************************************
***                                                                          ***
*** Secondary Structure Prediction by a Layered Network                      ***
*** ~~~~~~~~~~~~~~~~~~~~~~~~~~~~~~~~~~~~~~~~~~~~~~~~~~~                      ***
***                                                                          ***
*** Burkhard Rost, EMBL, Heidelberg, FRG                                     ***
*** (Internet: rost@EMBL-Heidelberg.DE)                                      ***
*** file containing the architecture in PHD format                           ***
*** Fri Feb 11 02:36:09 1994                                                 ***
***                                                                          ***
*** cryptic:     F152a-w9-15rc-A                                             ***
***                                                                          ***
********************************************************************************
***                                                                          ***
 prediction type:   EXPOSURE                      
 network type:      FIRST 

 input type:        PROFILE-REAL-CONS        
 NUMIN:                198
 NUMHID:                15
 NUMOUT:                10
 NCODEUNT:              22
 NUMNEIGH:               4
 *****
 *****
   number of layers: 2       junction first layer: row=numhid (10F10.4)
   -0.0882   -0.0664   -0.1044   -0.0090   -0.0839   -0.0313   -0.1117    0.0014   -0.0585   -0.0107
   -0.1339    0.1111    0.0015    0.0622    0.1409    0.0486    0.0360    0.0376   -0.1157   -0.0473
    0.1264   -0.0242   -0.0888   -0.1490   -0.1455   -0.0468   -0.1535    0.0128   -0.0788   -0.1701
   -0.0079   -0.0971   -0.0327   -0.0732    0.0939    0.0620    0.0661    0.0079    0.0442    0.0924
   -0.0250   -0.0370    0.0891   -0.0065   -0.1152    0.0470   -0.0600    0.0663   -0.0848   -0.0566
   -0.1686    0.0304   -0.0577    0.0060    0.0639   -0.0323    0.0864   -0.0224    0.0580   -0.0813
   -0.0573   -0.1321    0.0898    0.0216    0.0641    0.0185   -0.0297   -0.0201   -0.1868   -0.0754
   -0.0499   -0.1737   -0.0358    0.0236    0.0579    0.1598    0.1367    0.0302   -0.0720   -0.0052
    0.0841    0.0803   -0.1192   -0.0758    0.0809    0.0418    0.1279   -0.0600   -0.2329   -0.2598
   -0.1649   -0.2954   -0.2894   -0.1810   -0.2657    0.1144   -0.3009    0.1638   -0.0788    0.0299
   -0.3190    0.0494   -0.0069    0.4958    0.2437    0.3855    0.1466    0.2935    0.1077   -0.6704
   -0.0380    0.0305   -0.2421   -0.0327   -0.0300   -0.0161   -0.0242    0.2486   -0.0878   -0.0429
   -0.0891   -0.0325    0.0345    0.1001    0.0634    0.0106    0.0349    0.0512    0.0196    0.0440
    0.0946   -0.2224    0.0369   -0.1029   -0.0594   -0.0715   -0.0724   -0.0841    0.0151   -0.0601
   -0.0887    0.0650    0.0592    0.0770    0.0488    0.0135    0.0571    0.0239   -0.0807    0.0088
   -0.0702    0.0296    0.1702   -0.1500   -0.1042   -0.0791   -0.0900   -0.0187   -0.0846    0.0362
   -0.0021    0.0189   -0.0886    0.1350    0.0384    0.0259    0.0850   -0.0503    0.0550    0.1622
    0.0191    0.0414    0.0256   -0.0800    0.2016   -0.0988    0.0106   -0.1287   -0.0861   -0.0124
   -0.0263    0.0153   -0.0448   -0.0086    0.0464    0.0635    0.0519   -0.0150   -0.0498   -0.0536
   -0.0583    0.1027    0.0018    0.0289   -0.0353   -0.0795    0.1225   -0.1443   -0.0528    0.0000
    0.0000    0.0000    0.0000    0.0000    0.0000    0.0000    0.0000    0.0000
   -0.0453   -0.0154   -0.1316   -0.0945   -0.1482    0.0195    0.0500    0.0030   -0.0267   -0.0287
   -0.0603   -0.1149    0.0290    0.0625    0.0833   -0.0291   -0.1235    0.0456    0.0373   -0.0960
    0.0105   -0.1273   -0.0915   -0.0090   -0.0502    0.0305   -0.0848   -0.1165    0.0356   -0.0244
   -0.0408    0.0171   -0.0561    0.0062   -0.0383   -0.0603    0.0464   -0.0764    0.0461   -0.0250
   -0.0149    0.0735    0.0250   -0.0569   -0.0913   -0.1331   -0.1174   -0.0182   -0.1448   -0.1223
   -0.0477   -0.0752    0.0162    0.0433   -0.0642    0.0824    0.0274   -0.0175   -0.0338   -0.0148
   -0.0423   -0.0119    0.0256   -0.0467    0.1290   -0.1087   -0.1066   -0.0523   -0.1162   -0.0666
    0.0374   -0.1258   -0.1251    0.0280   -0.0779    0.1809   -0.0697   -0.0314   -0.0694    0.0332
    0.0595   -0.0309   -0.0779    0.0179    0.1295    0.0743   -0.0063   -0.1693   -0.1772   -0.1804
   -0.2792   -0.2816   -0.2087   -0.0309    0.0504   -0.2070   -0.3628   -0.0208   -0.2068   -0.1518
   -0.2434    0.0901    0.2005    0.4763    0.0308    0.4289    0.0242    0.0972   -0.0579   -0.4372
   -0.1434   -0.0059   -0.1307   -0.1396    0.0068    0.0439   -0.1350    0.0717   -0.1449    0.2356
    0.0379    0.0002   -0.1294    0.1083   -0.0688   -0.0670   -0.0959   -0.0340    0.0903    0.0137
    0.1544   -0.0807   -0.0084   -0.0108   -0.0544   -0.0710   -0.1367   -0.0897    0.0274   -0.0297
   -0.0739    0.0589   -0.0414   -0.0576   -0.0853   -0.0711    0.0692    0.0663   -0.0585   -0.0712
   -0.0586    0.0235    0.0689   -0.0682   -0.0801   -0.1121   -0.0998   -0.0511   -0.0168    0.0180
    0.0074    0.1532   -0.0413    0.0027   -0.0084   -0.0250    0.0325    0.0053    0.0258    0.0009
   -0.1198   -0.0151   -0.0037   -0.0660    0.0677   -0.0325    0.0098   -0.0072   -0.0230   -0.1473
   -0.1486   -0.0931   -0.0529   -0.0748    0.0066    0.0805    0.0131   -0.0262   -0.0659    0.0523
    0.0050    0.1362    0.0114    0.0291   -0.0080   -0.0033    0.0603   -0.1740    0.0548    0.0000
    0.0000    0.0000    0.0000    0.0000    0.0000    0.0000    0.0000    0.0000
   -0.2019   -0.1380   -0.1931   -0.1078   -0.0661   -0.1677   -0.0921   -0.1254    0.0748    0.0617
    0.0417    0.0410    0.0270    0.0193    0.0858    0.2314    0.1240    0.3549   -0.0444    0.0055
    0.2926   -0.1710   -0.0834    0.0009   -0.2485   -0.1341   -0.0988   -0.2087   -0.1187   -0.1600
    0.0484   -0.0789   -0.0010    0.0456    0.1844    0.0031    0.0379    0.0201    0.1053    0.1232
    0.0188    0.1834    0.2692   -0.2038   -0.1935   -0.0492   -0.2379   -0.0340   -0.0845   -0.1354
   -0.0870    0.0727    0.0226    0.1724    0.1275    0.1539   -0.0902    0.0896   -0.0553    0.0877
    0.0467   -0.2077    0.0671    0.0802    0.2725    0.0649   -0.1897   -0.0225   -0.2013   -0.1208
   -0.0896   -0.1900   -0.2221    0.1292   -0.0124    0.2929    0.1800    0.0607    0.1321   -0.0209
    0.0348    0.1521    0.0324    0.0163    0.1407    0.0681    0.2204   -0.1765   -0.7171   -0.5237
   -0.9276   -0.6444   -0.6812   -0.3474   -0.3568    0.2169   -0.4383    0.3343    0.0974    0.0122
   -0.7197    0.0986    0.6601    1.3242    0.5548    1.0714    0.4859    0.7605    0.2098   -1.6998
   -0.1541   -0.1110   -0.2285   -0.1338   -0.1074   -0.1596   -0.1209    0.2306    0.0452    0.0209
    0.1186   -0.0089    0.0762    0.2278   -0.0897   -0.0111    0.0709    0.1116    0.0289    0.2525
    0.2568   -0.2806   -0.1841   -0.0895   -0.1635   -0.0751   -0.1168   -0.1619   -0.1071    0.1352
   -0.0410    0.2590    0.1070    0.1876   -0.0039   -0.0576    0.1414    0.0957    0.1285   -0.0011
    0.1005    0.0770    0.2253   -0.0416   -0.0474   -0.2417   -0.0730   -0.1487   -0.0423    0.0268
   -0.0803    0.0702   -0.0228    0.2700    0.0152    0.0886   -0.0022   -0.1497    0.1270    0.3335
    0.1882    0.1721    0.0430    0.1260    0.3619   -0.2973   -0.1506   -0.1238   -0.2210   -0.3121
   -0.0695   -0.0698   -0.0508    0.0197   -0.0196    0.0999    0.0163    0.0920   -0.0418    0.0798
   -0.0179    0.2300    0.1338    0.1855    0.0067    0.0576    0.4856   -0.0690    0.6773    0.0000
    0.0000    0.0000    0.0000    0.0000    0.0000    0.0000    0.0000    0.0000
   -0.0171    0.0567    0.0343    0.0014    0.0625    0.0154   -0.0767   -0.0708   -0.0205   -0.0973
    0.0090   -0.0265   -0.0392   -0.0841    0.0271   -0.2211   -0.0783   -0.0904    0.0845   -0.0824
   -0.1681    0.0857    0.0896    0.0107    0.0864    0.0856    0.1295    0.0597   -0.0928   -0.0464
    0.0081   -0.0910   -0.1110    0.0471    0.0049   -0.0238   -0.1387   -0.0200   -0.1266   -0.1013
   -0.0207   -0.0935   -0.0782   -0.0917    0.0518    0.0004    0.1037   -0.0019    0.1436    0.0225
   -0.0154   -0.0008    0.0556   -0.0249    0.0121   -0.0519    0.0118   -0.0100   -0.0500   -0.0727
    0.0718    0.1044   -0.0938    0.0264   -0.0932   -0.0892    0.0266    0.0846    0.1227   -0.0119
    0.1015    0.1721    0.1324   -0.0942    0.0132   -0.1176   -0.0543   -0.0109    0.0369    0.0773
   -0.0644   -0.0748   -0.0171    0.0309   -0.0305   -0.0326    0.0285   -0.0512    0.4633    0.3263
    0.4125    0.2779    0.3624    0.1526    0.0965   -0.1168    0.2456   -0.2788   -0.0732   -0.0272
    0.2792   -0.0338   -0.3627   -0.3707   -0.2261   -0.4459   -0.1615   -0.2959   -0.0702    0.7887
    0.0636    0.0117    0.0738    0.0468    0.0533   -0.0585    0.1246   -0.1443    0.0031   -0.0493
    0.0486    0.0506   -0.0938    0.0029    0.0693   -0.0168   -0.0106   -0.1759    0.0041   -0.1386
   -0.0283    0.0955    0.0187   -0.0367    0.0992    0.1372   -0.0183    0.0965    0.0924   -0.0643
    0.0987    0.0127    0.0034   -0.1500    0.0584    0.1016   -0.0651   -0.0134    0.0026    0.0445
   -0.0205    0.0334    0.0529   -0.0279    0.0575    0.0592   -0.0030    0.1774   -0.0344    0.0470
   -0.0034    0.0592   -0.0785   -0.1372   -0.1355   -0.0105    0.0334   -0.0066   -0.0075   -0.1735
   -0.0629   -0.0422    0.0017   -0.0636   -0.0740    0.0478   -0.0161    0.0595    0.0273    0.1161
    0.0493   -0.0707    0.0954   -0.0191   -0.0155   -0.0772   -0.1026   -0.0845    0.0125   -0.0016
    0.0743   -0.0600   -0.0050    0.0013    0.0856   -0.0178   -0.0722   -0.0549   -0.5278    0.0000
    0.0000    0.0000    0.0000    0.0000    0.0000    0.0000    0.0000    0.0000
   -0.0438   -0.0906   -0.0215    0.0349   -0.0856   -0.0519    0.0303    0.0625    0.0982    0.0568
    0.0678   -0.0233   -0.1109    0.0411   -0.0025    0.0849    0.0371   -0.0443    0.0985    0.1434
   -0.1399   -0.0632   -0.0171    0.0442    0.0451   -0.0077   -0.0965   -0.0161   -0.0015   -0.0024
    0.0569   -0.0566   -0.0297   -0.0185   -0.0614   -0.0612    0.0039   -0.0896    0.0383   -0.0109
    0.0211    0.0607   -0.2029    0.0879    0.1481    0.1274    0.0766    0.1066    0.0409   -0.0102
    0.1082   -0.0337    0.0550   -0.2008   -0.0936    0.0428    0.0440   -0.0540   -0.0434   -0.1081
   -0.0363   -0.0352   -0.0805    0.0314   -0.2243    0.0349    0.1394    0.2254    0.0797    0.0647
    0.1688    0.1539    0.0078   -0.0867    0.1116   -0.2637   -0.0480    0.0899    0.0284    0.0460
    0.0328   -0.0308    0.0012    0.0386   -0.1395   -0.1092   -0.1182    0.1330    0.2966    0.2017
    0.3016    0.2508    0.0382   -0.0120   -0.1945   -0.0893    0.3002   -0.2226   -0.1056    0.0409
    0.1518   -0.0292   -0.2119   -0.0597   -0.0704   -0.0712   -0.2066   -0.2099   -0.1249    0.5068
    0.1811    0.1804    0.1218    0.0566    0.1053    0.0533    0.1785   -0.1515    0.1688   -0.1832
   -0.1158    0.0244    0.0396   -0.0786    0.1450    0.0647   -0.0965   -0.0679   -0.1142   -0.0520
   -0.1368    0.1193    0.1395    0.1999    0.1432    0.0216    0.1494    0.0136   -0.0493   -0.0426
    0.1061   -0.1316   -0.1817   -0.0183   -0.0073   -0.0503    0.1058    0.0822   -0.0226    0.0913
    0.0790    0.0229   -0.2711    0.0244   -0.0586   -0.0202    0.1260    0.0637    0.0109   -0.0562
    0.0804    0.0437    0.1283   -0.1016    0.0291   -0.0131   -0.1088    0.1390   -0.0029   -0.0721
   -0.0177   -0.0559   -0.0047    0.0505   -0.1783    0.1204   -0.0599    0.0953    0.1518    0.0371
    0.0069   -0.0058   -0.0003    0.1227    0.2720   -0.0693   -0.0332    0.0848   -0.0376   -0.0087
    0.0368   -0.0398   -0.1045   -0.0180    0.0265    0.0352   -0.2207    0.0585   -0.4561    0.0000
    0.0000    0.0000    0.0000    0.0000    0.0000    0.0000    0.0000    0.0000
    0.0841    0.0139    0.1576    0.0108    0.1677   -0.0175    0.0869   -0.0237   -0.0090   -0.0713
    0.0318    0.0336   -0.0314    0.0646   -0.2334   -0.2208   -0.0853   -0.1943    0.0571   -0.0971
   -0.0952   -0.0398    0.0713   -0.1166    0.2528    0.0661    0.0611    0.0629    0.0909    0.0246
   -0.1468   -0.0241   -0.0748    0.0456   -0.0406   -0.0110   -0.1508   -0.1937   -0.1751   -0.0788
   -0.1892   -0.0240   -0.0523    0.0207    0.1535   -0.1376    0.1516    0.0027    0.0369    0.0433
    0.1321   -0.0657    0.0315   -0.0004   -0.1284   -0.1730    0.0327    0.0003    0.0094   -0.0057
   -0.1027    0.0541   -0.0567   -0.0413   -0.0433   -0.1047    0.1149    0.0403    0.1147   -0.0497
    0.1453    0.0808    0.1875   -0.0793   -0.1129   -0.0794   -0.1873    0.0226    0.0004    0.1240
    0.0220   -0.1542   -0.0252    0.0508   -0.0511   -0.0465   -0.0200    0.0628    0.6717    0.7431
    0.7139    0.4660    0.5704    0.3101    0.1275   -0.0788    0.2827   -0.3523   -0.0946   -0.1982
    0.6129   -0.1657   -0.6085   -0.8157   -0.5434   -0.8663   -0.3663   -0.5294   -0.2136    1.4393
    0.0100    0.0006    0.1867    0.0203    0.0911    0.0503    0.0298   -0.2309   -0.1251   -0.0924
   -0.0849    0.0378   -0.1068   -0.0782   -0.0129   -0.1400   -0.0998   -0.1974   -0.1521   -0.1636
   -0.0391    0.0601    0.1188    0.0465    0.0524    0.1124    0.0835    0.0636   -0.0271   -0.0914
    0.0540   -0.1689   -0.1059   -0.1536    0.0113    0.0295   -0.1478   -0.2262   -0.1422   -0.0231
   -0.0394   -0.1566   -0.0243    0.0430    0.0341    0.2058    0.0483    0.2847    0.0322   -0.0085
   -0.0588   -0.0880    0.0010   -0.1823   -0.0237   -0.1261   -0.0810    0.1727   -0.0965   -0.2436
   -0.1084   -0.1797   -0.2163    0.0537   -0.0617    0.0240    0.0120    0.1751    0.0648    0.1312
    0.0585    0.0249   -0.0094    0.0203    0.0407    0.0625    0.0001   -0.0299   -0.0177   -0.0911
    0.0054   -0.3355   -0.1466   -0.1464   -0.0011   -0.0977   -0.1086    0.0720   -0.8317    0.0000
    0.0000    0.0000    0.0000    0.0000    0.0000    0.0000    0.0000    0.0000
   -0.0425    0.0332   -0.1239   -0.1097   -0.1302   -0.0725    0.0064   -0.1458   -0.1271    0.1434
   -0.1730    0.0588   -0.0430    0.1201    0.1202    0.0695    0.0377    0.1604   -0.1015   -0.1223
    0.4196   -0.0938   -0.1436   -0.0693   -0.1641   -0.1118   -0.0473   -0.0590   -0.1486    0.0023
    0.0276    0.0340    0.0728    0.0494    0.1142   -0.1097    0.0860    0.0549    0.0898    0.0790
    0.0220    0.0806    0.1957    0.0244   -0.2778   -0.2047   -0.0943   -0.1687   -0.1559   -0.0871
   -0.0775    0.1196   -0.0144    0.0058    0.0654    0.2058    0.0138    0.0615    0.0345    0.1548
   -0.0488    0.0917    0.0846    0.0812    0.1689    0.1454   -0.2459   -0.1844   -0.2175   -0.0298
   -0.1762   -0.1265   -0.1701    0.2804    0.0600    0.3843    0.1193   -0.0162    0.0229   -0.1699
   -0.1542    0.1339   -0.1385   -0.1204    0.0211    0.0932    0.2643    0.0124   -0.4809   -0.3469
   -0.6012   -0.4477   -0.3765   -0.2959    0.1396   -0.1730   -0.7043    0.3205   -0.2056   -0.0711
   -0.5053    0.0621    0.6431    0.9378    0.3870    0.7668    0.3873    0.5389    0.1909   -0.9324
   -0.0844   -0.0709   -0.3357   -0.0689   -0.0833   -0.0185   -0.2823    0.1608    0.0072    0.4025
    0.1166   -0.0244   -0.1640    0.0268   -0.0888    0.0834   -0.0471    0.0584    0.1878    0.1781
    0.2098   -0.1211   -0.1984   -0.0853    0.0011   -0.0678   -0.0261   -0.1106    0.0548    0.1794
    0.0926    0.1976    0.1847    0.1221   -0.2126   -0.0555   -0.0498    0.0390    0.0501    0.0938
    0.0429    0.2704    0.1719   -0.1469   -0.0477   -0.1617   -0.0815   -0.2410   -0.1688   -0.0721
   -0.1457    0.1207   -0.1425    0.0856    0.1240   -0.0052    0.1935   -0.1482    0.0138    0.0946
   -0.0940    0.1797    0.0995    0.0887    0.2796   -0.1193   -0.1431   -0.1273   -0.2220   -0.2887
   -0.1641   -0.0340   -0.0003   -0.0503   -0.1678    0.0992   -0.0831   -0.1181   -0.0873    0.0854
    0.1449    0.3620    0.0270    0.2164    0.0176   -0.0619    0.2499   -0.2072    0.5115    0.0000
    0.0000    0.0000    0.0000    0.0000    0.0000    0.0000    0.0000    0.0000
   -0.1425   -0.0491    0.0285    0.0949   -0.0636    0.0258   -0.0959   -0.0669    0.1138   -0.0266
    0.1131   -0.0985   -0.0087   -0.1115    0.0408   -0.0404    0.0842   -0.0012   -0.0417    0.0148
    0.0393    0.1699   -0.0333   -0.0600    0.0295    0.0163   -0.0729    0.0796    0.0716   -0.1599
    0.0403   -0.1007   -0.0057    0.0616   -0.0237    0.0048    0.0568    0.0530    0.0562   -0.0303
    0.0710   -0.1545    0.0406    0.0033    0.1285    0.2501    0.1993    0.0096    0.0961   -0.0108
   -0.0481   -0.0245    0.1324   -0.1204   -0.0426   -0.1019    0.1331   -0.0521   -0.1489   -0.1356
   -0.0001   -0.1136    0.0508   -0.0625   -0.0324    0.0837    0.2038    0.0186    0.2447    0.0451
    0.0351    0.2079    0.1124   -0.0858    0.1342   -0.2252   -0.0061    0.0269    0.0304   -0.0050
   -0.0667    0.0427    0.0729    0.0560   -0.2314   -0.1174   -0.0659   -0.0543    0.4446   -0.0131
    0.1813    0.1205    0.0010   -0.1187   -0.2567    0.2888    0.6782   -0.1037    0.2394   -0.0334
    0.3106   -0.1992   -0.3298   -0.0890   -0.1572   -0.2250   -0.1027   -0.0422    0.0426    0.3095
    0.0210    0.0768    0.0858    0.1367   -0.0840   -0.0001    0.1743    0.1283    0.1597   -0.2444
   -0.1898    0.0467    0.1493   -0.0074    0.0166   -0.0886    0.0758    0.0437   -0.1267   -0.3002
   -0.0212    0.0501   -0.0124    0.1093    0.1056    0.0904    0.0790    0.0675    0.0547   -0.1677
    0.0149    0.0344   -0.0804    0.0138    0.0025    0.0137    0.1050    0.0070   -0.0082   -0.0084
   -0.0911    0.0236    0.0016    0.0792   -0.0256   -0.0152   -0.0297    0.1254    0.1205   -0.0716
    0.1033   -0.0720    0.0741   -0.0836   -0.0228   -0.0787   -0.0969    0.0947   -0.0983    0.0044
    0.0017   -0.0742    0.0219   -0.1488   -0.0690   -0.0019    0.0018    0.1078    0.0513    0.0735
    0.0322    0.0744    0.0870    0.2211    0.1469   -0.1216   -0.0850    0.0568    0.0116   -0.0514
    0.0156   -0.1829    0.0015   -0.1665   -0.0637    0.0572   -0.1174    0.0790   -0.5308    0.0000
    0.0000    0.0000    0.0000    0.0000    0.0000    0.0000    0.0000    0.0000
   -0.1257   -0.1616   -0.0569   -0.1091   -0.0811   -0.1455   -0.0627    0.0130    0.0614   -0.0073
   -0.0041   -0.0596    0.0243    0.0676    0.0808    0.0369    0.0824    0.0695    0.0140    0.1147
    0.3549    0.0521    0.0665    0.0075   -0.0312   -0.1232   -0.1163   -0.0574    0.0774    0.0082
    0.0701    0.1165    0.0000   -0.0879   -0.0508   -0.0100    0.0327    0.1303   -0.0024    0.1216
    0.0319   -0.1509    0.2668   -0.1537   -0.0141    0.2037    0.0368    0.0544   -0.0999   -0.1257
   -0.0825   -0.0348   -0.0630    0.1883    0.0894   -0.0968    0.0091    0.0585    0.0356   -0.0522
   -0.0221    0.0118    0.0457    0.0620    0.2097   -0.0821   -0.1630   -0.0688   -0.1181   -0.0120
   -0.2175   -0.0512   -0.0453    0.0142    0.0474    0.2870    0.0377    0.0031   -0.0942   -0.0478
   -0.0034    0.1636   -0.0539    0.0348    0.0291   -0.0177    0.2175   -0.2484   -0.2500   -0.4355
   -0.3146   -0.3557   -0.2983   -0.2197   -0.2063    0.1564    0.1530    0.2861    0.0105   -0.0258
   -0.2578    0.0469   -0.0456    0.3992    0.1942    0.4111    0.1239    0.4378    0.1257   -0.6561
    0.0390   -0.1539   -0.0919    0.0049   -0.1037    0.0266   -0.0867    0.1573   -0.0244   -0.1879
   -0.1616    0.0300    0.0591    0.0860    0.0623    0.1167    0.0976    0.0794    0.0815    0.1133
    0.2496   -0.2793   -0.0940   -0.0557   -0.0215   -0.0116   -0.0989   -0.0750   -0.0838    0.0281
   -0.0294    0.2394   -0.0077    0.1854    0.0458    0.0815    0.1086    0.1034    0.0234   -0.0232
    0.0467   -0.1154    0.2748    0.0156   -0.0673   -0.0714   -0.1914   -0.0618   -0.1151   -0.0592
   -0.0365   -0.0908   -0.0516    0.2938   -0.0286   -0.0259   -0.0617   -0.0436   -0.1084    0.2321
    0.0160   -0.0828    0.0897    0.0221    0.2352   -0.0466   -0.1232   -0.1779   -0.0273   -0.0916
   -0.2121    0.0228   -0.1245    0.0319    0.0547    0.0689   -0.0559    0.1002    0.0542    0.0265
   -0.0313    0.0162    0.0214   -0.0346    0.0532   -0.0284    0.3911   -0.1802    0.0012    0.0000
    0.0000    0.0000    0.0000    0.0000    0.0000    0.0000    0.0000    0.0000
   -0.0473   -0.0114    0.0343   -0.0098   -0.0242    0.0145    0.0669   -0.0116   -0.0160   -0.1046
   -0.0827   -0.0740   -0.1063   -0.0323    0.0090   -0.0959   -0.1405    0.1179   -0.0454   -0.0245
   -0.0218   -0.0698   -0.1241    0.0171   -0.0666   -0.0656    0.0062   -0.0281    0.0419   -0.0204
   -0.1114    0.0920   -0.1503   -0.0532   -0.1124    0.0278   -0.0128    0.0144    0.0145   -0.1152
   -0.0545   -0.0826    0.1184   -0.0770   -0.0781    0.0364   -0.0386    0.0039   -0.0525    0.0072
   -0.0595    0.0294   -0.0158   -0.0152   -0.0799   -0.0372   -0.0700    0.0034    0.0268   -0.0539
   -0.1028   -0.0487   -0.0628    0.0361    0.1364   -0.1723   -0.1614   -0.1326   -0.0878   -0.0792
   -0.0188   -0.0166   -0.1627   -0.0081   -0.1327    0.1908   -0.0815   -0.1024   -0.0804   -0.1115
    0.0660    0.0567   -0.0476    0.0225    0.0291   -0.0250    0.1216   -0.1776   -0.1786    0.0763
    0.0198   -0.0756    0.1129    0.0961   -0.0082   -0.2299   -0.3034    0.0807   -0.2481   -0.1114
   -0.0945   -0.0415    0.0937    0.2403    0.0570    0.2257   -0.0790    0.0160   -0.0657   -0.0553
   -0.1231   -0.0750   -0.1554   -0.0212   -0.1765   -0.0838   -0.1661    0.0608   -0.0571    0.1878
    0.0189   -0.1018   -0.1962   -0.0183    0.1189   -0.0555   -0.0422   -0.0232    0.0786    0.1701
    0.1267   -0.1973   -0.0943   -0.1123   -0.0944   -0.0255   -0.0295   -0.0146   -0.1265    0.0426
   -0.0653    0.0900    0.0057    0.0166    0.0489   -0.0065   -0.0587   -0.0160    0.0047   -0.1001
   -0.0581   -0.0249    0.0977   -0.1332    0.0568    0.0692   -0.1642   -0.0448   -0.1020   -0.0167
   -0.1481   -0.0581   -0.0941    0.1294   -0.1123    0.0455   -0.0388    0.0117   -0.1125    0.1161
    0.0229   -0.0458    0.1169   -0.0577    0.0173   -0.0584    0.0134   -0.1402   -0.1260   -0.0062
    0.0168   -0.0310   -0.1704   -0.0908    0.0025   -0.0157   -0.0434    0.0575   -0.1063    0.1032
   -0.0140    0.0511    0.1132   -0.0171    0.0438    0.0490    0.0581   -0.2154    0.0395    0.0000
    0.0000    0.0000    0.0000    0.0000    0.0000    0.0000    0.0000    0.0000
    0.0490    0.0523    0.0697    0.0722    0.1071    0.1602   -0.0228   -0.0635   -0.1070   -0.0706
    0.0069   -0.0734    0.1005   -0.0026   -0.0255   -0.1380    0.0075   -0.1787   -0.0042   -0.0730
   -0.1007   -0.0083   -0.0521   -0.0057   -0.0132    0.0305    0.0175    0.0070    0.0271    0.0915
   -0.1479   -0.0595   -0.0225    0.0023   -0.1330   -0.0550   -0.0767   -0.1635   -0.0706   -0.1691
   -0.0478   -0.0566   -0.0869    0.0621    0.0871   -0.0896    0.0844    0.0114    0.0228    0.0089
    0.1225   -0.0729    0.0177   -0.0238   -0.1836   -0.1579    0.0040    0.0306   -0.0338    0.0363
   -0.0044    0.0991   -0.0432   -0.2057   -0.1399   -0.0931    0.1249   -0.0547   -0.0124   -0.0295
   -0.0143    0.1404    0.1377    0.0630    0.0010   -0.2327   -0.0747    0.0805    0.0596   -0.0165
   -0.0622   -0.2300   -0.0626   -0.1020   -0.0165   -0.0076   -0.0466    0.0409    0.4597    0.4909
    0.5878    0.2346    0.5338    0.1942    0.2523   -0.3692    0.1304   -0.4277   -0.2729   -0.2375
    0.4486    0.0636   -0.2297   -0.6474   -0.2822   -0.5215   -0.3327   -0.5374   -0.0860    1.0700
   -0.0091   -0.0324    0.1556    0.0376    0.0920    0.0568   -0.0631   -0.2908   -0.0221    0.2471
    0.0373   -0.0075    0.0124   -0.1838   -0.0909    0.0674    0.0062   -0.1549   -0.1311    0.0359
   -0.2011    0.1568   -0.0531   -0.0239   -0.0460   -0.0087   -0.0090    0.1674   -0.0600   -0.0318
    0.0022   -0.0895   -0.0944   -0.0121   -0.0203    0.0640   -0.1396   -0.0887   -0.0481   -0.0450
   -0.0390    0.0219   -0.0222   -0.1163    0.0577    0.0943    0.1178    0.0850    0.1112    0.0262
   -0.0312   -0.0274    0.1396   -0.1510   -0.0780   -0.0138   -0.0736    0.0978    0.0414   -0.0504
   -0.1948   -0.0519   -0.0139   -0.1480   -0.1279    0.1001    0.0263   -0.0091    0.0786    0.1066
    0.0433    0.0922    0.0251   -0.0372   -0.0513    0.0655   -0.0759   -0.1445    0.0236   -0.0711
    0.1010   -0.1591   -0.0683   -0.0381   -0.0406    0.0779   -0.1308   -0.0067   -0.4492    0.0000
    0.0000    0.0000    0.0000    0.0000    0.0000    0.0000    0.0000    0.0000
   -0.0224   -0.1513   -0.0099   -0.1030    0.0010   -0.0318    0.0822   -0.0434    0.1298    0.1233
    0.1168   -0.1083   -0.0272    0.0732   -0.0549    0.0009    0.0472    0.0378    0.0157    0.0875
    0.2644   -0.1777    0.0318   -0.1465    0.0212   -0.0763   -0.0388    0.0065    0.1107   -0.0204
    0.0157    0.0624   -0.1069   -0.0132    0.0995   -0.0473   -0.0640    0.1405   -0.0255    0.0707
   -0.0648   -0.1049    0.3202   -0.1596   -0.0815   -0.0569   -0.1974   -0.1245   -0.0451    0.0164
   -0.2014    0.0232   -0.0587    0.0444   -0.0529    0.0271    0.1213   -0.0301   -0.0699   -0.0466
    0.0791   -0.1379    0.1639    0.0740    0.3740   -0.1350   -0.2917   -0.1268   -0.1266    0.0722
   -0.1998   -0.1397   -0.0669   -0.0275   -0.0418    0.2754    0.0050    0.0678   -0.0404   -0.0272
    0.0566    0.0482    0.0476   -0.0581    0.0103    0.1189    0.3423   -0.1381   -0.2288   -0.3865
   -0.2300   -0.2621   -0.3573   -0.2553   -0.1899    0.2687    0.0280    0.2002    0.1699   -0.1417
   -0.3529   -0.0145   -0.1179    0.4938    0.1169    0.4281    0.2410    0.3848   -0.0124   -0.6536
   -0.1952   -0.0756   -0.1163   -0.1312   -0.2158   -0.1760   -0.0786    0.2097   -0.0213   -0.0984
    0.0812   -0.0395   -0.0048    0.0341    0.0065   -0.0193    0.0387    0.0824    0.1836    0.0640
    0.3893   -0.1796   -0.1060   -0.0097   -0.1504   -0.1245   -0.1230   -0.0523   -0.0785    0.2565
   -0.1188    0.3094   -0.0008    0.0734   -0.0469    0.0745    0.0623   -0.0331   -0.0421   -0.1104
   -0.0193   -0.0213    0.3946   -0.1759   -0.0767   -0.1723   -0.1557    0.0066   -0.0638   -0.0541
   -0.1123   -0.0893   -0.0780    0.2269    0.0521   -0.0046   -0.0476   -0.0294   -0.0632   -0.0181
    0.0819   -0.0935    0.0554    0.0996    0.2725   -0.2148    0.0674   -0.1648   -0.0142   -0.0816
   -0.1784   -0.0834   -0.0923   -0.0271    0.0358    0.0146    0.0158    0.0682    0.1030   -0.0634
   -0.1460   -0.0724    0.0183   -0.0485    0.0835   -0.0138    0.4079   -0.0302    0.1473    0.0000
    0.0000    0.0000    0.0000    0.0000    0.0000    0.0000    0.0000    0.0000
    0.0568   -0.0436   -0.0174   -0.1217   -0.0305   -0.0389    0.0552    0.0267   -0.1915    0.0315
   -0.0957    0.0026   -0.0499    0.1320   -0.0623    0.0025   -0.1317    0.0235    0.0165   -0.1113
    0.1722   -0.1882   -0.1487    0.0166   -0.0349   -0.0592   -0.0058   -0.0188   -0.1244    0.0700
    0.0316    0.0232    0.0225   -0.1122   -0.0291   -0.1500   -0.0375   -0.0145    0.0811   -0.1035
   -0.0683    0.0380    0.0378    0.0080   -0.1582   -0.0438   -0.1993   -0.0144   -0.1015    0.0337
   -0.0218    0.1168   -0.1600   -0.0214   -0.0401    0.0412   -0.1186    0.0970    0.1379    0.0969
    0.0413    0.0162   -0.0391    0.0628    0.1769   -0.1408   -0.0133   -0.0508   -0.0336   -0.0386
   -0.1696   -0.1459   -0.0702    0.0556   -0.1569    0.1226   -0.0448   -0.0332    0.0226    0.0056
    0.0634    0.1065   -0.0986   -0.1179    0.0137    0.0794    0.0326   -0.1131   -0.2676   -0.1503
   -0.2428   -0.1960   -0.1443   -0.1980    0.0215   -0.2965   -0.4266   -0.0217   -0.2094    0.0089
   -0.1635    0.0603    0.4122    0.5065    0.0455    0.3372    0.0188    0.1402    0.0277   -0.5277
   -0.1230   -0.1064   -0.1261   -0.0681    0.0146    0.0689   -0.1366   -0.0382   -0.0209    0.2826
   -0.0358   -0.1060   -0.1381   -0.0195   -0.1342   -0.0260    0.0386    0.0422   -0.0322    0.0941
   -0.0213    0.0240   -0.0261   -0.0707   -0.1950   -0.0959   -0.0676    0.0044   -0.0808    0.0515
   -0.0137   -0.0454   -0.0029   -0.0509   -0.1054    0.0300    0.0721    0.0339    0.0732   -0.0090
   -0.0142    0.0073    0.1280   -0.1830   -0.0312    0.0048   -0.0796   -0.0724   -0.0747   -0.0583
   -0.0803   -0.0137    0.0084   -0.0299   -0.0054   -0.0490    0.1061   -0.0986   -0.0381    0.0296
   -0.0258    0.1021    0.0311   -0.0067    0.0611   -0.0395   -0.1683   -0.0147   -0.1837   -0.0806
   -0.0144    0.0685   -0.1100   -0.0849   -0.2218    0.0087    0.0431   -0.0584   -0.0166   -0.0109
    0.0200    0.1413   -0.0359    0.1496   -0.0875    0.0028    0.1426   -0.0520    0.1680    0.0000
    0.0000    0.0000    0.0000    0.0000    0.0000    0.0000    0.0000    0.0000
    0.1531    0.1568    0.1939    0.0086    0.0811    0.0190    0.0964    0.0186   -0.1001   -0.0040
   -0.1537    0.0971    0.0279   -0.0140    0.0055   -0.1570   -0.1218    0.0145   -0.0533   -0.0941
   -0.1354   -0.0185    0.0410    0.0369   -0.0522    0.0979    0.2494    0.0214   -0.0027    0.1952
   -0.1612    0.0068    0.0948    0.0917   -0.2347    0.0054   -0.0182   -0.0685   -0.0741   -0.1808
   -0.0137    0.1051    0.0936    0.0233   -0.2244   -0.3242   -0.1728   -0.0645    0.0927    0.0632
    0.0907   -0.0376   -0.1140    0.0184   -0.0142    0.0501   -0.1181    0.1113    0.1205    0.3381
   -0.1015    0.0895   -0.0626    0.0411    0.1077   -0.0531   -0.0922   -0.1468   -0.2057    0.0391
    0.0039   -0.0709   -0.0096    0.1413   -0.1651    0.0794   -0.0598    0.0052    0.0234   -0.0967
    0.0223   -0.1163   -0.1090    0.0221    0.1623   -0.0544   -0.0627   -0.0149    0.3027    0.6286
    0.3142    0.2128    0.5599    0.2847    0.3661   -0.4897   -0.4609   -0.1677   -0.4276   -0.2036
    0.2345    0.0430    0.2524   -0.3531   -0.2425   -0.1838   -0.1981   -0.2797   -0.1715    0.8827
   -0.1370    0.0386    0.1130   -0.0563    0.0547   -0.0232   -0.1467   -0.2141   -0.1855    0.3963
    0.0803   -0.0207   -0.2092    0.0112   -0.0568    0.0225   -0.0848   -0.1816    0.0335    0.1649
   -0.0528    0.1269    0.0073   -0.1222   -0.1129   -0.0008   -0.0088   -0.0449    0.0165    0.2453
   -0.0174   -0.0095    0.1142   -0.1956    0.0070   -0.1144   -0.0372   -0.1785    0.0950   -0.0124
    0.1616    0.0443    0.0538   -0.1770    0.0823   -0.0208    0.1037    0.0438    0.0893   -0.0862
    0.0636   -0.0058   -0.0142    0.0233    0.1285   -0.0066   -0.0325    0.0255    0.0883   -0.1673
   -0.1444    0.0494    0.0512    0.0552    0.1937   -0.0318    0.0696    0.1648    0.0399   -0.0615
    0.0693    0.1263   -0.0390   -0.1410   -0.3031    0.1428   -0.0604   -0.1631   -0.0467   -0.0434
    0.0115    0.1366    0.0133   -0.0026    0.2187    0.0078    0.0513   -0.0903   -0.3673    0.0000
    0.0000    0.0000    0.0000    0.0000    0.0000    0.0000    0.0000    0.0000
   -0.0632   -0.0382   -0.0113   -0.0451   -0.0929    0.1189    0.0260    0.1092    0.1595    0.0435
    0.1312   -0.0088    0.0197   -0.0433   -0.0430    0.0992    0.0962   -0.1243    0.0122    0.0595
   -0.0602    0.0399    0.1540   -0.1352    0.0035    0.1276   -0.0375   -0.0552   -0.0166   -0.0431
    0.0915    0.0266   -0.0174   -0.1133   -0.0015    0.0493    0.0622    0.0967    0.0138   -0.0361
   -0.0177   -0.0351   -0.0224   -0.0760    0.1651    0.1844    0.0526   -0.0050   -0.0283   -0.0165
    0.0773   -0.0880    0.0478   -0.0700   -0.0753   -0.0360    0.1479    0.0377   -0.0566   -0.1987
    0.1097   -0.0613    0.0675   -0.0971   -0.0786    0.0525    0.0446    0.1012    0.1681    0.0511
   -0.0150    0.0814   -0.0129   -0.2036    0.1047   -0.0769    0.0491   -0.0946   -0.1419    0.0679
   -0.1040   -0.0293    0.0599   -0.0095   -0.1047   -0.1283   -0.0213    0.0307    0.3677    0.0998
    0.2255    0.2209    0.0671   -0.1355   -0.3651    0.1626    0.5947   -0.1525    0.1142   -0.0872
    0.2373   -0.2514   -0.3966   -0.1226   -0.0924   -0.0497   -0.0616   -0.2179   -0.1364    0.2568
    0.1148   -0.0505    0.1147   -0.0241   -0.0280   -0.0178    0.1245    0.0728    0.1099   -0.3312
    0.0020   -0.0238   -0.0116   -0.1075   -0.0379   -0.0505   -0.0604    0.0103   -0.1137   -0.2003
   -0.0558   -0.0619    0.0601    0.1282    0.0130    0.0761    0.1351    0.0087   -0.0302   -0.0419
   -0.0295   -0.0595   -0.0752   -0.0555    0.0800    0.0708   -0.0516    0.0367   -0.0128   -0.1457
   -0.0360   -0.0127    0.0331    0.1379    0.0393    0.0350    0.0243    0.1027    0.0038    0.0812
    0.1185   -0.0402    0.0934    0.0547    0.0415    0.0792    0.0056    0.0741   -0.0702   -0.0975
    0.0996   -0.1207   -0.0684   -0.1050    0.0078    0.0059    0.1025   -0.0074    0.0840    0.0494
    0.0386    0.0518    0.0530    0.2100    0.0916   -0.0382   -0.0664    0.1624    0.0571   -0.0888
   -0.0633   -0.0541   -0.1267   -0.1650   -0.0974   -0.0448   -0.0319   -0.0339   -0.3470    0.0000
    0.0000    0.0000    0.0000    0.0000    0.0000    0.0000    0.0000    0.0000
 ***                         junction second layer: row=numhid+ (10F10.4)
   -0.9910   -0.6071   -0.7708   -0.5500   -0.4056   -0.3265    0.0893    0.3993    0.1984    0.2952
   -1.1946   -0.5580   -0.2887   -0.2869   -0.0506   -0.1035    0.0692   -0.0155    0.0027   -0.0683
   -2.4919   -1.4625   -1.1463   -0.7501   -0.4296    0.3633    0.6452    0.8517    1.0260    0.9156
    0.6448    0.2699   -0.0059   -0.1542   -0.2930   -0.6318   -0.6038   -0.8246   -0.9534   -0.9147
    0.7403   -0.2246   -0.2157   -0.3933   -0.5294   -0.3636   -0.1090   -0.2687   -0.6308   -1.4414
    1.1793    0.8614    0.1723   -0.0114   -0.5300   -0.7238   -1.2655   -1.4379   -1.2671   -1.0705
   -2.4434   -0.9284   -0.6238   -0.1313    0.0201    0.1657    0.6249    0.3595    0.2248    0.6034
    1.1648   -0.4493   -0.6201   -0.3911   -0.5894   -0.6330   -0.2111   -0.1166   -0.4172   -0.5838
   -0.7731   -1.1099   -0.7113   -0.3858   -0.3045   -0.4668   -0.3824    0.4388    0.5596    0.7932
   -0.9264   -0.1710   -0.0484   -0.1822   -0.0730   -0.4217   -0.4185   -0.0765   -0.0436   -0.0359
    0.5505    0.3996    0.3067    0.2033    0.0014   -0.4927   -0.7685   -1.1865   -1.4363   -1.1687
   -0.9349   -0.9826   -0.5956   -0.5939   -0.6025   -0.4285   -0.2888   -0.1335    0.7017    1.0519
   -1.3834   -0.6273   -0.2746   -0.2593   -0.0544    0.2447    0.0179   -0.0415   -0.1348   -0.0882
   -0.7419    0.7319    0.4888    0.0847    0.1323   -0.0783   -0.9038   -1.4406   -1.1601   -0.8859
    0.9686   -0.3159   -0.4771   -0.6020   -0.6308   -0.5743   -0.2457   -0.3711   -0.1560   -0.5678
   -0.4410   -0.6516   -0.5979   -0.5549   -0.5396   -0.2472   -0.3927   -0.3020   -0.6825   -1.1195
    0.0000    0.0000    0.0000    0.0000    0.0000    0.0000    0.0000    0.0000    0.0000    0.0000
    0.0000    0.0000    0.0000    0.0000    0.0000    0.0000    0.0000    0.0000    0.0000    0.0000
    0.0000    0.0000    0.0000    0.0000    0.0000    0.0000    0.0000    0.0000    0.0000    0.0000
    0.0000    0.0000    0.0000    0.0000    0.0000    0.0000    0.0000    0.0000    0.0000    0.0000
    0.0000    0.0000    0.0000    0.0000    0.0000    0.0000    0.0000    0.0000    0.0000    0.0000
    0.0000    0.0000    0.0000    0.0000    0.0000    0.0000    0.0000    0.0000    0.0000    0.0000
    0.0000    0.0000    0.0000    0.0000    0.0000    0.0000    0.0000    0.0000    0.0000    0.0000
    0.0000    0.0000    0.0000    0.0000    0.0000    0.0000    0.0000    0.0000    0.0000    0.0000
    0.0000    0.0000    0.0000    0.0000    0.0000    0.0000    0.0000    0.0000    0.0000    0.0000
END
