********************************************************************************
***                                                                          ***
*** Secondary Structure Prediction by a Layered Network                      ***
*** ~~~~~~~~~~~~~~~~~~~~~~~~~~~~~~~~~~~~~~~~~~~~~~~~~~~                      ***
***                                                                          ***
*** Burkhard Rost, EMBL, Heidelberg, FRG                                     ***
*** (Internet: rost@EMBL-Heidelberg.DE)                                      ***
*** file containing the architecture in PHD format                           ***
*** Fri Jan 28 02:35:02 1994                                                 ***
***                                                                          ***
*** cryptic:     F152c-15rcicld-A                                            ***
***                                                                          ***
********************************************************************************
***                                                                          ***
 prediction type:   EXPOSURE                      
 network type:      FIRST 

 input type:        P-REAL-CICLD
 NUMIN:                345
 NUMHID:                15
 NUMOUT:                10
 NCODEUNT:              24
 NUMNEIGH:               6
 *****
 *****
   number of layers: 2       junction first layer: row=numhid (10F10.4)
   -0.2013   -0.0294   -0.0859    0.0044    0.0215    0.1350   -0.0339    0.0412    0.1362   -0.0975
    0.0591    0.0303   -0.0313   -0.0508    0.1830   -0.1132   -0.0366    0.0580   -0.0448    0.0344
    0.0038    0.1065   -0.0677   -0.0389    0.0414    0.1952   -0.0923    0.1847   -0.0841    0.0026
   -0.1853   -0.0893   -0.0102   -0.0633   -0.1141   -0.0753   -0.0416   -0.0023    0.0224    0.1974
   -0.1257    0.0746    0.0360   -0.0746    0.0998    0.0476    0.0211    0.0906   -0.2059   -0.2116
   -0.1761    0.0091   -0.1197   -0.1056    0.0240    0.0406    0.1266   -0.0013    0.1969   -0.0248
   -0.1474   -0.0131    0.1508    0.1657    0.0916    0.0487    0.0541    0.2002   -0.0592    0.0829
    0.0094   -0.1439    0.0889   -0.1374   -0.0985   -0.0893   -0.1664    0.0409    0.0615   -0.0598
    0.1462    0.0510   -0.3091   -0.1224    0.2781    0.1475    0.1520    0.1665    0.0040    0.1700
    0.0350   -0.0473   -0.0895   -0.1197   -0.1478    0.0369    0.0784    0.2954    0.2040    0.1492
    0.0351   -0.0692   -0.1579    0.0250    0.1146   -0.1109    0.0925    0.0763    0.0373   -0.0846
    0.0287   -0.2257   -0.0819   -0.1895    0.0872    0.1338    0.0674    0.1476   -0.1770   -0.0154
    0.0063    0.1342    0.0808    0.0703   -0.0338   -0.0097   -0.0171   -0.2038    0.1963   -0.0155
   -0.0172   -0.1853   -0.0821    0.0021    0.0847    0.1811    0.1642   -0.1215   -0.0817   -0.0943
   -0.0470   -0.1294    0.0223    0.0908   -0.0528   -0.5443   -0.1572   -0.3898   -0.5999   -0.3953
   -0.6509    0.3609    0.6126    0.2463    0.1564    0.1254   -0.3937   -0.1247   -0.2859    0.7739
    0.2231    0.6190    0.1375    0.5071    0.2005   -0.9277    0.1171    0.0668    0.1252    0.0776
   -0.0982    0.0360   -0.1768   -0.1275    0.2310    0.2355    0.2051   -0.5183   -0.2271    0.0877
    0.1761    0.1277    0.1177   -0.0068    0.1357    0.2613    0.0260   -0.0800    0.0345   -0.2710
    0.0674    0.0810   -0.0645    0.1133    0.1237    0.0738   -0.1512   -0.0639   -0.0535   -0.0383
   -0.0669    0.1496   -0.1077   -0.0523    0.0458   -0.0044    0.1077    0.0456   -0.1115   -0.0335
   -0.1498   -0.1811   -0.1039    0.2410    0.0639    0.1324   -0.0470   -0.0502   -0.0041   -0.1313
    0.0628   -0.0055   -0.0338   -0.0473   -0.0889    0.0415    0.0072    0.0119   -0.0214   -0.0604
   -0.0956    0.1341    0.2225    0.0511   -0.0556    0.0144    0.0512   -0.1716   -0.0314    0.0535
   -0.1111   -0.1275   -0.0818   -0.0991   -0.1004   -0.0507    0.0153    0.2163    0.2512    0.0253
    0.0867    0.2582    0.1969   -0.0950   -0.1152   -0.0820   -0.0530   -0.0815   -0.0981   -0.0671
    0.1007   -0.1159   -0.0516    0.0342    0.0797   -0.0089    0.0554   -0.0468   -0.0844   -0.0926
    0.0334   -0.0193    0.0487   -0.0651    0.0641   -0.0107   -0.0902    0.0112    0.1773   -0.1735
   -0.1024    0.0413    0.0685    0.0112   -0.1316    0.0880   -0.1274    0.1286   -0.0134   -0.0966
   -0.0228    0.1406   -0.0579    0.1340   -0.0004   -0.1499   -0.0586   -0.2986    0.0013   -0.0851
    0.0209   -0.0198    0.1605   -0.0139    0.1279   -0.0551   -0.0311    0.0590   -0.0501    0.1031
    0.0433    0.1364   -0.0212    0.1563   -0.0188    0.0209   -0.0754    0.0096   -0.0617    0.0970
    0.0261   -0.0716    0.0394    0.0922    0.1272    0.0495   -0.0298    0.0451    0.0960    0.0926
   -0.1118    0.1098   -0.0610   -0.0404   -0.2167   -0.0240    0.0022   -0.0705    0.0643   -0.0300
   -0.0338    0.0609   -0.0134   -0.0585   -0.0846    0.0109    0.0000    0.0000    0.0000    0.0000
    0.0000    0.0000    0.0000    0.0000    0.0000
   -0.1104   -0.2041   -0.1837   -0.0380   -0.1076    0.1050    0.1237   -0.0522    0.0303    0.0406
    0.0507    0.0374    0.0072    0.0152    0.1397   -0.0492   -0.0985    0.0872   -0.0264   -0.1557
    0.0658   -0.1112   -0.0044   -0.0013    0.0027   -0.0819   -0.0656    0.1482   -0.0428    0.1262
   -0.1321    0.1107    0.0480   -0.2043   -0.2153   -0.1232   -0.0372    0.0223    0.1379    0.1787
   -0.0887    0.0803    0.1234   -0.0874   -0.0439   -0.1985    0.1106    0.0437   -0.0131   -0.1826
    0.0955    0.1227    0.0880    0.0120   -0.1046    0.0967    0.1582    0.0560    0.2490   -0.2516
   -0.0748   -0.1445   -0.1379   -0.0035   -0.1004   -0.3280   -0.0437   -0.0720   -0.1263    0.3223
   -0.0487    0.0522    0.1572   -0.1336    0.0950    0.0938   -0.1284    0.1362    0.1616   -0.0814
    0.0446   -0.0634   -0.1692   -0.0536    0.0788   -0.0979    0.0136    0.1008   -0.1838   -0.1714
    0.0049   -0.2298   -0.1194   -0.2100    0.1033    0.1382    0.2334    0.0284    0.0984    0.0008
   -0.0138   -0.0163    0.1307   -0.1513    0.0071   -0.1262   -0.1962   -0.1917    0.1300    0.0315
   -0.0315   -0.1225   -0.0154   -0.0372   -0.0286   -0.0569   -0.1483   -0.1111   -0.0757   -0.0443
    0.1789    0.0601    0.0064   -0.0208   -0.0751    0.0842    0.1068   -0.1807    0.1454   -0.2339
   -0.2095    0.0949   -0.0440    0.0411   -0.0177   -0.1556    0.0504   -0.0628   -0.0989   -0.0667
    0.0356   -0.1717   -0.1108   -0.0600    0.6610    0.3510    0.5044    0.2193    0.2894   -0.0449
   -0.0735    0.1161    0.9005   -0.3179    0.1060   -0.1425    0.4953   -0.2428   -0.8230   -0.6190
   -0.5077   -0.5714   -0.2750   -0.2999   -0.0583    0.8032    0.0294   -0.0485    0.1255    0.1420
    0.0702   -0.0389   -0.1591    0.0579    0.2859   -0.2206    0.0735   -0.3325   -0.0954    0.0806
    0.0920    0.0202    0.0752    0.1108    0.0581   -0.1362   -0.1708   -0.1665   -0.1154   -0.2213
   -0.0284   -0.0635   -0.0435    0.0064    0.0368    0.1137    0.0144   -0.0263   -0.0722   -0.1049
   -0.0854    0.0298   -0.0960   -0.1876    0.2319    0.0814   -0.0879    0.0346   -0.1309   -0.0486
   -0.1066    0.0408   -0.0741    0.1073   -0.0534   -0.1181   -0.0600    0.2016    0.1383    0.2482
    0.0552    0.0318    0.0701   -0.0107    0.0460   -0.0704    0.0497   -0.1958    0.0776    0.1524
   -0.0633   -0.1042    0.0633   -0.2804   -0.0183   -0.1551   -0.1707    0.0342   -0.0588   -0.1888
   -0.0824    0.1510    0.1346    0.2047   -0.1247    0.0149    0.0664    0.2833    0.1198   -0.0586
   -0.0377    0.0732    0.1550   -0.0678   -0.0645   -0.2693   -0.0663   -0.1577   -0.0790    0.0265
   -0.1091    0.1118   -0.0188   -0.0315   -0.0907    0.0000    0.0421   -0.0745   -0.0496   -0.1239
   -0.0447    0.0730   -0.0786   -0.0503   -0.0869   -0.1399   -0.0510    0.0488   -0.0130    0.0288
   -0.0106   -0.0748   -0.0584   -0.0199   -0.1116   -0.1332   -0.0893    0.0727   -0.1627   -0.1440
    0.0418    0.0432   -0.1272    0.0343    0.0541    0.0298   -0.0164   -0.2094   -0.0710    0.0298
   -0.1896    0.0118    0.0937    0.0189    0.0437   -0.0501    0.0015    0.0108   -0.0265   -0.2866
   -0.0281    0.0134   -0.1018   -0.0592    0.2123    0.2087    0.0331    0.2488    0.0320    0.0653
    0.0310    0.1188    0.1381    0.1316    0.0871    0.1503    0.0678    0.1011    0.0372    0.1231
    0.1607   -0.1671    0.0793   -0.5379   -0.1108    0.2535    0.1764    0.0623   -0.1890   -0.0577
    0.0021    0.0030   -0.1372   -0.0073   -0.0724   -0.5589    0.0000    0.0000    0.0000    0.0000
    0.0000    0.0000    0.0000    0.0000    0.0000
    0.0737   -0.0615    0.0123   -0.0981    0.0446    0.0440    0.0211   -0.0127    0.0812   -0.0410
    0.0837   -0.1337   -0.0201    0.0607    0.0078   -0.0018   -0.0447   -0.0258    0.0535   -0.0346
    0.1040    0.0199    0.0175   -0.0254    0.0934    0.1133   -0.0844    0.0086    0.0408   -0.0513
    0.0561   -0.0285   -0.0945    0.0104    0.0381    0.0246   -0.0904    0.0352    0.0252   -0.0148
    0.0674   -0.0930   -0.0948   -0.0722    0.1050   -0.0334   -0.0024   -0.0656   -0.0358   -0.0283
   -0.1810    0.0022   -0.0650   -0.0423    0.0491    0.0441    0.0328   -0.1121    0.0413    0.2390
   -0.1002    0.0592    0.1200    0.2768    0.0656    0.1826    0.0383    0.0858    0.0914   -0.1103
   -0.0123    0.0457   -0.1507    0.0010   -0.1302   -0.0102   -0.2403   -0.1040   -0.1219   -0.0581
    0.1820   -0.1035   -0.0797   -0.0589    0.0972    0.0414    0.2060   -0.0372    0.0107    0.1909
   -0.0313    0.0608   -0.0332   -0.0861   -0.0313   -0.1126    0.0846    0.0831    0.0220   -0.0191
    0.0161   -0.1215   -0.0137    0.2009    0.0019    0.0130    0.0712    0.0912    0.0339    0.0077
   -0.0147   -0.1637    0.0576   -0.1905   -0.0048   -0.1315    0.0450   -0.0371   -0.0615    0.0920
    0.1830    0.1305    0.0130   -0.0249   -0.0751   -0.0370   -0.0919   -0.1578    0.1378    0.0241
    0.0455    0.0178   -0.0293   -0.0428   -0.0340    0.1834   -0.0481   -0.0566   -0.1067   -0.0789
    0.0225    0.0352    0.0114   -0.0150   -0.2670   -0.3945   -0.2517   -0.3785   -0.4925   -0.3454
   -0.3009   -0.0859   -0.0392    0.1358    0.0291    0.1317   -0.4613   -0.1147    0.2654    0.7425
    0.2641    0.4232    0.1323    0.3887    0.0452   -0.7482    0.0268    0.0813    0.0418    0.1201
   -0.0964   -0.0619    0.0621   -0.0216   -0.0007    0.0846   -0.0302   -0.0033   -0.0846   -0.0725
    0.0373    0.0242   -0.0776   -0.1110   -0.0952    0.1215   -0.0787   -0.1060   -0.0383   -0.0262
   -0.0094    0.0701   -0.0542    0.0303   -0.0424    0.0423   -0.0418   -0.1374   -0.0351   -0.0785
    0.2007    0.0458   -0.0028    0.1548   -0.1477    0.0057    0.0438    0.0909    0.0748    0.0430
   -0.0868    0.0205   -0.0417    0.0256   -0.0422    0.0276   -0.0552   -0.0847   -0.0232   -0.2039
   -0.1216    0.0675   -0.0875    0.1235    0.0901   -0.1173   -0.0160    0.0830    0.0038   -0.0977
   -0.0285    0.1016    0.1147    0.1425    0.0777   -0.0077    0.0442   -0.1699    0.0442   -0.0887
    0.0199   -0.1687   -0.0537   -0.1161   -0.0719   -0.0379    0.0703    0.1567   -0.0238   -0.1449
   -0.0494    0.1296    0.0147    0.0522    0.0769    0.1610    0.1178    0.0088    0.0377    0.0383
   -0.0089   -0.1105   -0.0072   -0.0620   -0.1367   -0.0515    0.0031   -0.0934    0.0920    0.0015
    0.0348    0.1416    0.0963   -0.0375   -0.0122   -0.0787   -0.1185   -0.1110    0.1129   -0.0573
   -0.0638   -0.0481    0.1279   -0.1465    0.0242    0.0633    0.0359   -0.0173   -0.1700    0.0826
    0.0467    0.0126   -0.0849   -0.0506    0.0291    0.0761    0.0060   -0.0475   -0.0444    0.0022
    0.1729   -0.1224    0.0173   -0.0154   -0.0495    0.0428    0.0800   -0.0154   -0.0320    0.1609
   -0.0448    0.0343    0.0444    0.0329   -0.1366    0.0706    0.0896    0.0706    0.0102   -0.0007
   -0.0497   -0.0389   -0.0185    0.0176    0.0534   -0.0450    0.1178    0.0332    0.0329    0.0220
   -0.0749   -0.0343    0.0447   -0.1317   -0.1114   -0.1917    0.0445   -0.0558   -0.0396   -0.0011
   -0.0714    0.0586   -0.0544    0.0054   -0.1777   -0.0776    0.0000    0.0000    0.0000    0.0000
    0.0000    0.0000    0.0000    0.0000    0.0000
   -0.0702   -0.0525    0.0032    0.0560   -0.0103   -0.0053   -0.0227    0.0098   -0.0020   -0.0007
   -0.1844   -0.0818   -0.1568   -0.0945    0.0092    0.0104    0.0874   -0.0172    0.0242    0.0346
   -0.0107    0.0232   -0.0538   -0.0222   -0.1562    0.0538    0.0123    0.0646    0.0669   -0.0585
    0.0405   -0.0703   -0.0934    0.0698    0.0414    0.0746   -0.0097    0.0118   -0.0456   -0.0013
    0.0003    0.1110   -0.1141    0.2069   -0.0996    0.0287   -0.0410    0.1129    0.1495    0.0267
    0.1134    0.0689   -0.1339    0.0844   -0.0348    0.0305    0.0478   -0.0866   -0.1833    0.0636
   -0.0228    0.0405   -0.0117    0.1942    0.0752    0.0696   -0.0966   -0.0664   -0.1191    0.1007
    0.1383    0.0205   -0.0201    0.0256    0.0154    0.1092   -0.0265   -0.0310   -0.0270    0.0287
   -0.0430   -0.1678    0.0355   -0.0620    0.0259   -0.0888    0.0513   -0.1878   -0.0802   -0.0128
    0.0255   -0.0079   -0.1803    0.1886    0.0501   -0.0437    0.0557    0.0446    0.1864    0.0430
    0.0617   -0.0270    0.0141   -0.0498    0.0408   -0.0987   -0.1679    0.0445   -0.0898    0.0559
    0.0558   -0.0244   -0.0852   -0.0051   -0.2418   -0.1171   -0.4214    0.0739   -0.0253   -0.1658
    0.2558    0.1620    0.1777    0.0354    0.2036    0.1591    0.1486   -0.0340    0.0201   -0.3431
   -0.0914   -0.0932    0.1091    0.0028   -0.0587   -0.1460    0.0439   -0.1457   -0.1125   -0.1564
   -0.6346    0.1467   -0.0031   -0.1794    0.4070    0.3440    0.3552    0.2062    0.3526    0.1083
    0.1094   -0.5824   -0.1579   -0.3088   -0.3082   -0.0836    0.3428   -0.0868    0.0394   -0.0459
   -0.0353   -0.1625   -0.2815   -0.3723   -0.0913    0.7119   -0.1562   -0.1431    0.0977    0.1904
    0.2486    0.1744    0.1934   -0.0141    0.1144   -0.2884    0.0426    0.0732   -0.0894   -0.0843
    0.1214   -0.1342   -0.0375   -0.1187   -0.0115   -0.1075   -0.2256   -0.3418   -0.4913    0.1783
   -0.1351   -0.1646    0.0590    0.1046    0.1596    0.0749    0.1306    0.0273    0.0476   -0.2003
    0.1060   -0.3868   -0.1307    0.0423   -0.0481   -0.0043   -0.0663    0.0245    0.0100    0.0000
    0.0266   -0.1244   -0.3144    0.0362   -0.0675   -0.1560   -0.0081    0.1346    0.0696    0.0597
    0.1571    0.0287    0.0266   -0.0132    0.0172   -0.3307   -0.1728   -0.0210   -0.0131    0.1035
   -0.0537   -0.0588   -0.0540    0.0908    0.0339   -0.1004   -0.2344    0.2421   -0.0298   -0.0371
   -0.0813   -0.0277    0.0415    0.0282    0.1822   -0.0094    0.1241   -0.0034    0.0959   -0.2680
   -0.0447   -0.0760   -0.1049   -0.0466    0.0474    0.0624    0.0477   -0.0560    0.0025   -0.0287
   -0.1570    0.0246   -0.1158   -0.1494   -0.1266   -0.0433   -0.0453   -0.0752   -0.0056    0.0530
    0.1740    0.1385    0.0010   -0.0889    0.1460    0.0307   -0.2188    0.0450   -0.0361   -0.0496
    0.0235   -0.0742    0.0419   -0.0993   -0.0358    0.0254   -0.0901   -0.0570   -0.2006    0.1370
    0.1559    0.0429    0.0137   -0.0151   -0.0001   -0.0078    0.0757   -0.1592   -0.0741    0.0728
   -0.0213    0.1242    0.0791    0.0745   -0.0546   -0.0177   -0.1141   -0.0719    0.0158   -0.0718
    0.1137    0.1018   -0.0358   -0.0102    0.0523   -0.0593    0.1294    0.0769    0.1649    0.1277
   -0.0300    0.1377    0.0803    0.1716   -0.0341    0.1621    0.0523    0.1043    0.0328   -0.0328
    0.0329    0.0347   -0.0031   -0.1892    0.1679   -0.1401    0.0254   -0.0906    0.0315    0.1149
   -0.0859   -0.2188   -0.0869    0.0100    0.0149   -0.3762    0.0000    0.0000    0.0000    0.0000
    0.0000    0.0000    0.0000    0.0000    0.0000
    0.0088    0.1392    0.1001   -0.0595   -0.0029   -0.0204   -0.1133   -0.1060   -0.0980   -0.0271
    0.0934    0.0601   -0.0965   -0.0175   -0.0153   -0.0911    0.0361   -0.0545    0.0741    0.2044
   -0.1380    0.1226    0.0283   -0.1536   -0.0511   -0.0220   -0.0018   -0.1317    0.1497    0.0103
   -0.0334   -0.1862   -0.0980    0.0447    0.0638    0.0475   -0.0866    0.0844   -0.0310    0.0113
    0.0081   -0.0594   -0.1543   -0.0084    0.1294    0.0838   -0.0227   -0.1389   -0.0657   -0.0507
   -0.0767   -0.1508   -0.0469   -0.0687   -0.1220   -0.1221   -0.0132    0.1571   -0.2446    0.0164
   -0.0483   -0.0010    0.1248    0.0707    0.0437    0.1569   -0.0589    0.0141    0.1408   -0.1582
   -0.1491   -0.1602   -0.0964    0.0055   -0.1160   -0.1491    0.0499   -0.1901   -0.0260   -0.0805
   -0.0544    0.1055    0.0581   -0.0029   -0.0304    0.0042    0.0468    0.0590    0.1662    0.0989
   -0.0498    0.1448    0.1250   -0.1770   -0.1977   -0.0528   -0.1554   -0.0908   -0.0689    0.1010
   -0.0460    0.0028   -0.1101   -0.0735    0.1041    0.1096    0.0607    0.1402    0.0043    0.0324
    0.0307   -0.0376   -0.0450   -0.0380    0.2114    0.0920    0.1044   -0.0831   -0.0101    0.0851
   -0.2399   -0.1165   -0.1783   -0.0947   -0.0085   -0.1947   -0.2253    0.0428    0.0746    0.2439
    0.1352   -0.0156   -0.0157   -0.0468    0.1613    0.2189    0.0384   -0.0399    0.0937    0.1684
    0.1044   -0.1970    0.0567    0.2811   -0.5849   -0.3017   -0.6663   -0.3736   -0.4768   -0.1529
   -0.2101   -0.0342   -0.5157    0.3367    0.0394    0.0260   -0.7708    0.1041    0.4711    1.0454
    0.3428    0.7876    0.4059    0.5708    0.0596   -1.2281    0.0863    0.2689   -0.1954   -0.1682
   -0.1287   -0.0124   -0.0179   -0.0648   -0.0759    0.3179   -0.0329    0.0779    0.0016   -0.0145
   -0.2846    0.0513    0.1315   -0.0101    0.0401    0.1510    0.0446    0.2644    0.2402   -0.1814
    0.0596    0.0530   -0.1651   -0.0570    0.0321   -0.1562    0.1134   -0.1272   -0.0453   -0.0041
    0.0425    0.0949    0.0194    0.1575   -0.2416   -0.0199    0.0652   -0.0337   -0.0178   -0.0514
   -0.0251    0.0033    0.1452   -0.1037    0.0424    0.0832    0.0504   -0.0423   -0.1231   -0.0648
   -0.1566   -0.0497   -0.1621   -0.0304   -0.1290    0.1402    0.0396   -0.0277   -0.0039   -0.1416
    0.1134    0.2791   -0.0095    0.1657    0.0384    0.2059    0.1008   -0.1836    0.0066    0.0928
   -0.0737   -0.1820   -0.1393   -0.1113   -0.1402   -0.1017   -0.0868   -0.2487    0.0209    0.0647
   -0.0172    0.1146   -0.1382   -0.0562   -0.0235    0.2616    0.1571    0.1989    0.0835    0.0109
    0.1769   -0.2995    0.0172    0.0844    0.2081    0.0956    0.0607    0.0718    0.0766   -0.0495
    0.0280   -0.0906    0.0612    0.1576    0.0372    0.0897    0.0257   -0.0804   -0.1175   -0.1511
   -0.0574    0.1126   -0.0283    0.0740   -0.0361   -0.0129    0.1453   -0.0151    0.1343    0.1261
    0.1097    0.0637    0.0242   -0.0253   -0.0168   -0.0611   -0.0896    0.0488    0.0202   -0.1082
    0.1482   -0.0687   -0.0089    0.0249   -0.0476    0.0819   -0.0854    0.1217   -0.0069    0.1645
   -0.0662   -0.0222    0.0852    0.0279   -0.2420   -0.0596    0.0144   -0.1212   -0.1067   -0.0915
   -0.0286   -0.0662   -0.1899   -0.1062   -0.0970   -0.1696   -0.1121   -0.1783   -0.1227   -0.1139
   -0.0824   -0.0013   -0.0816    0.0302   -0.1044   -0.2939   -0.1645    0.0157   -0.0002   -0.1268
   -0.0862    0.1450   -0.0383   -0.0598    0.0398    0.2318    0.0000    0.0000    0.0000    0.0000
    0.0000    0.0000    0.0000    0.0000    0.0000
   -0.0499    0.0123    0.1510    0.1139    0.0882   -0.1133   -0.1212    0.0050   -0.1476   -0.0715
   -0.1402    0.1144   -0.0002    0.0040   -0.0470    0.0945    0.0203   -0.0944    0.0483   -0.0183
   -0.1520   -0.2001   -0.0776    0.0688   -0.1209   -0.0558   -0.0565   -0.0516    0.0057    0.0138
    0.0754   -0.0069    0.0685    0.1093    0.1491    0.0566    0.0440    0.0341    0.0175   -0.0957
   -0.0601    0.0282    0.1556    0.0225   -0.2294   -0.0862    0.0265   -0.0194    0.0801    0.2754
    0.0667   -0.0298    0.1139    0.0514    0.0473   -0.0750    0.0927   -0.1164   -0.0769   -0.1676
    0.0327    0.0266   -0.0736   -0.2808   -0.1042   -0.1805   -0.0831   -0.0144   -0.1996   -0.1118
    0.0719    0.0487    0.0432    0.0417    0.1772    0.0445    0.1298    0.0691   -0.0789    0.1099
   -0.0967   -0.0794    0.0751    0.0717   -0.1458    0.0396   -0.1971   -0.1949   -0.1239   -0.1779
   -0.1181    0.0639   -0.0815   -0.0131    0.0153   -0.0343   -0.0324   -0.0359   -0.0971    0.0305
    0.0166    0.1315    0.0737   -0.0796    0.0424   -0.0943   -0.1581   -0.0931    0.0002   -0.0190
   -0.0480    0.0207   -0.2209    0.0591   -0.0300    0.0950   -0.1579   -0.1532    0.0193   -0.1403
    0.0691   -0.1143   -0.0734    0.0208    0.1455    0.1109    0.0614   -0.0117   -0.1521   -0.1999
   -0.1016   -0.0654    0.0814    0.0564   -0.0021   -0.1436   -0.1342    0.0283   -0.0173    0.0563
   -0.2206    0.1526    0.0817   -0.0485    0.4548    0.7207    0.6471    0.5306    0.7613    0.4344
    0.2039   -0.3031   -0.1570   -0.4178   -0.2268   -0.2500    0.4640   -0.0712   -0.4416   -0.9537
   -0.4378   -0.5814   -0.3583   -0.5747   -0.1443    1.5035   -0.1523   -0.0522   -0.0451   -0.0579
    0.1553   -0.0749    0.0909   -0.0374   -0.1346   -0.2141   -0.1775    0.1519    0.0826    0.0940
   -0.1551   -0.1194   -0.0603    0.0916   -0.0592   -0.1694    0.0212    0.1311   -0.1478    0.2924
   -0.0454   -0.1656    0.1025   -0.0091    0.0244   -0.0283    0.1463    0.1425   -0.0126    0.1304
    0.0413   -0.0993   -0.0633   -0.2356   -0.0390   -0.0119   -0.0401   -0.2147   -0.1188   -0.0844
    0.0061   -0.1337   -0.2120   -0.0273   -0.0519   -0.0812    0.0670    0.1416   -0.0551    0.0964
   -0.0511    0.1364   -0.0655   -0.0565   -0.0907   -0.0442    0.1342   -0.0098   -0.0894    0.0858
   -0.0419   -0.2317   -0.2033   -0.0792   -0.0888   -0.0964   -0.1679    0.0990   -0.0232   -0.0512
    0.0820    0.1456    0.0333    0.1198    0.1158    0.0391   -0.0213   -0.1128   -0.0551    0.0464
    0.0099   -0.0342   -0.0233   -0.0689   -0.0050   -0.1426   -0.0764   -0.2165   -0.0168   -0.0628
   -0.1495    0.1286    0.1068   -0.0381    0.0599   -0.1505   -0.0599    0.0992    0.0460    0.1702
   -0.0772   -0.1243   -0.0402    0.1321   -0.1269   -0.0693    0.0822    0.1010   -0.0794   -0.0988
   -0.0306    0.0124   -0.0840    0.0874   -0.0892   -0.1188    0.0693   -0.0654   -0.0267    0.1223
   -0.1466   -0.0769    0.1771   -0.1210   -0.1120    0.1025    0.0461    0.0831   -0.1108   -0.0524
   -0.0104    0.0232   -0.0327   -0.1142   -0.0630   -0.0467   -0.0038    0.0067   -0.1262   -0.0228
   -0.0089   -0.1047   -0.1480   -0.0962    0.0693    0.0932   -0.0155    0.1624    0.0389    0.0117
   -0.0070    0.1336   -0.1072   -0.0083   -0.0912    0.1058   -0.0986    0.0170    0.0011   -0.0975
   -0.0157   -0.1388   -0.0391   -0.4079   -0.0048    0.1350    0.1548   -0.1239   -0.1493   -0.1301
   -0.1670   -0.2193   -0.3624   -0.0437   -0.1559   -0.5460    0.0000    0.0000    0.0000    0.0000
    0.0000    0.0000    0.0000    0.0000    0.0000
    0.0382    0.0987    0.1568   -0.0181   -0.0626   -0.0676   -0.0731    0.0865   -0.1413   -0.0701
   -0.0470   -0.0287   -0.0692   -0.1001   -0.1410   -0.0696    0.0130   -0.1455   -0.1350    0.1060
   -0.1163    0.0421    0.0793   -0.0193    0.0271   -0.0495    0.1596   -0.1170   -0.0110   -0.1648
    0.1201   -0.1187   -0.0827   -0.0731   -0.1304    0.0712   -0.0119   -0.0269   -0.1303   -0.1263
    0.2011   -0.1059    0.1061   -0.1821    0.0002    0.0618   -0.1011   -0.1165   -0.0269   -0.0360
    0.0118   -0.0417   -0.0989   -0.1045    0.0450   -0.0097   -0.1099   -0.0551   -0.2093   -0.0548
   -0.0676   -0.0207    0.0212   -0.1298   -0.0766    0.1780   -0.0223   -0.1148    0.0866   -0.0968
    0.0158   -0.1565   -0.0292   -0.1274   -0.1034    0.0519    0.2001   -0.0184   -0.0725    0.1069
   -0.1515   -0.0096   -0.0987    0.0721   -0.2420   -0.0291    0.0143   -0.0361   -0.0564    0.0349
   -0.1274    0.0643    0.0243    0.1335   -0.0674   -0.0053   -0.2505   -0.0411   -0.1199    0.0326
   -0.1574   -0.0868   -0.1056   -0.0172    0.0715    0.1621    0.1017   -0.0892   -0.0868    0.0141
    0.0292    0.0124   -0.0170    0.0346    0.0379    0.0861   -0.0523   -0.1235    0.1657    0.1095
   -0.2371   -0.0665   -0.0943   -0.0726   -0.1458   -0.1196   -0.0837    0.0229   -0.0954    0.1202
   -0.0693    0.0037   -0.0585   -0.0023    0.0717    0.1735   -0.0700    0.0798    0.2426    0.0390
   -0.0265   -0.1889    0.0097    0.0425   -0.2621    0.1421   -0.1794   -0.0898    0.1045    0.0161
    0.2581   -0.3409   -0.6135   -0.0644   -0.3852   -0.1212   -0.2016    0.0761    0.3098    0.2352
    0.1926    0.2628    0.0943    0.1587    0.1184   -0.1558    0.0897    0.1420    0.0024   -0.0304
    0.0113    0.0511   -0.2084    0.0251   -0.0411   -0.0383   -0.0107    0.2160   -0.1130   -0.1084
   -0.1970   -0.0049    0.1339   -0.0462    0.0992    0.0914    0.1587    0.1658   -0.0395    0.0986
   -0.0436    0.0678   -0.0109    0.0136   -0.1023   -0.0025   -0.1446    0.1007   -0.1038   -0.0442
   -0.0049    0.0586    0.1660   -0.0944   -0.1585   -0.0979    0.0820   -0.0108   -0.0710    0.0021
   -0.0201   -0.0746   -0.0871   -0.1414    0.1013    0.0552   -0.0395   -0.1120    0.0305   -0.1209
   -0.0071   -0.0611   -0.0370   -0.1058   -0.1074    0.1557    0.0581    0.0264   -0.1483   -0.0721
    0.0867    0.1172   -0.1240    0.0325   -0.0287    0.2109    0.0153    0.0668    0.0840    0.0230
   -0.0474   -0.1650   -0.1586   -0.0183    0.0010   -0.0193   -0.1905   -0.1883   -0.0093    0.0964
   -0.0251   -0.0547   -0.1354    0.0692    0.0349    0.1724    0.1357    0.0173    0.0560    0.0323
   -0.0593   -0.1027    0.0075    0.0267    0.1053    0.0748   -0.0314    0.0301   -0.1039    0.0915
    0.0523   -0.0721   -0.0508   -0.0260    0.0131    0.0051   -0.0171   -0.0353   -0.0346   -0.0649
   -0.0133   -0.0876   -0.0508    0.0134   -0.0561    0.1249    0.0994   -0.1157    0.2270    0.0285
   -0.0289    0.0729    0.0567   -0.0368   -0.0659   -0.0951   -0.1675    0.1758    0.0886    0.0488
    0.1033    0.0239   -0.2027    0.0742    0.0126   -0.0207   -0.0736   -0.2166   -0.1166    0.0536
   -0.0207   -0.1593   -0.1292   -0.1765   -0.2872   -0.0947   -0.1920   -0.2092   -0.3161   -0.3295
   -0.1795   -0.2369   -0.2541   -0.1600   -0.2049   -0.2100   -0.2622   -0.3064   -0.2471   -0.1869
   -0.2150   -0.0284   -0.0528   -0.0693    0.0446   -0.2103   -0.0169   -0.0033   -0.0345    0.0410
    0.0007   -0.0766    0.0493   -0.1417   -0.0240   -0.0403    0.0000    0.0000    0.0000    0.0000
    0.0000    0.0000    0.0000    0.0000    0.0000
    0.3685    0.1592   -0.0505    0.0900   -0.0402   -0.0222    0.0677   -0.0660   -0.0113    0.0512
   -0.0974    0.1692   -0.0924   -0.0235    0.0552    0.1450    0.2691   -0.0853    0.0079   -0.0486
   -0.0710    0.2176   -0.1660   -0.2531    0.1084   -0.1940    0.0049   -0.3175   -0.1116   -0.0078
    0.0001    0.0730   -0.0068   -0.1653    0.1149    0.1401    0.0937    0.0321   -0.0057    0.0241
    0.2756   -0.1070   -0.0272    0.1371   -0.0306    0.2616   -0.3050   -0.1913    0.0810    0.0882
   -0.2306   -0.2400   -0.0988   -0.0539    0.0294    0.0350   -0.0751    0.1201   -0.2637   -0.0365
    0.1994    0.0332    0.2143    0.1610   -0.1131    0.4091    0.0557   -0.1295    0.1528   -0.3278
   -0.1420   -0.1329   -0.3001    0.0548   -0.1474    0.0465    0.0495   -0.1449   -0.1992    0.1637
    0.0363   -0.1065    0.1265    0.1731   -0.0813   -0.1638    0.1163   -0.0969    0.1446    0.0832
    0.2686    0.2310    0.2528    0.0147   -0.1807   -0.2000   -0.2875   -0.3362   -0.5491   -0.1198
   -0.1934   -0.0676   -0.0574    0.2263   -0.0037    0.2780   -0.0778    0.1194   -0.3196    0.1272
    0.1762    0.5326    0.1469    0.2500    0.1925    0.1349    0.1990   -0.1940    0.0819    0.0518
   -0.2103   -0.0966   -0.2096   -0.0480   -0.1015   -0.2222   -0.1190    0.5366   -0.1510    0.4790
    0.1303    0.1611   -0.1163   -0.2490   -0.0216    0.1086   -0.2040   -0.0381    0.2703    0.3249
    0.0994   -0.0074    0.0480    0.3638   -0.5945   -0.6006   -0.9076   -0.6653   -0.4601   -0.2065
    0.3993   -0.4555   -1.2869    0.2172   -0.4760   -0.1752   -0.8710    0.3839    1.4432    1.5547
    0.6557    1.1373    0.3353    0.7676    0.0224   -1.2015    0.0705    0.3623   -0.0615   -0.1625
   -0.2150   -0.1319   -0.0147   -0.1020   -0.3743    0.0764   -0.0028    0.7864    0.0613   -0.0629
   -0.3150    0.1644   -0.1967    0.1277   -0.0423   -0.0532    0.4120    0.3162    0.2071   -0.0516
    0.1125    0.2762   -0.1626   -0.2605   -0.2450   -0.3746   -0.0263   -0.0046   -0.0270    0.2109
   -0.0211    0.1715    0.1721    0.0706   -0.3602   -0.0984    0.1914    0.1544    0.2298    0.2365
    0.2560    0.4166    0.2451   -0.3107    0.2085    0.2755   -0.0298   -0.2115   -0.1552   -0.2549
   -0.1743    0.0244   -0.0487    0.2024   -0.0375    0.1527    0.0825   -0.0842   -0.0658   -0.0203
    0.3213    0.3325   -0.0337    0.3165    0.1548    0.1737    0.2258    0.0116    0.1001    0.0974
   -0.0162    0.0262   -0.1691   -0.3119   -0.1400    0.0125   -0.1597   -0.1761   -0.3181    0.1719
    0.0995   -0.1462   -0.3474    0.0396    0.2625    0.5843    0.1951    0.4156    0.2330    0.1567
    0.2431   -0.1705   -0.1841   -0.0193    0.0450    0.0298   -0.0610    0.0603   -0.0085    0.0644
   -0.0255   -0.0019    0.1132    0.1698    0.1204   -0.0091    0.0967   -0.0870    0.0375   -0.0059
   -0.0054    0.0064   -0.0296    0.0885    0.1063    0.1713   -0.0465   -0.0620    0.1187    0.1171
    0.0935    0.0242    0.1850   -0.0383   -0.0456    0.0271   -0.0073    0.1215   -0.1026   -0.0076
    0.0281   -0.1529   -0.1296   -0.0854   -0.1426    0.0364    0.1302   -0.0751    0.1121    0.3165
   -0.2327   -0.0782    0.0523    0.0400   -0.2378   -0.1490    0.0549   -0.1171   -0.1016   -0.2650
    0.0440    0.0333   -0.2359   -0.1248    0.1311   -0.1926    0.0907   -0.2555   -0.1337   -0.1002
   -0.0510    0.2200   -0.0565    0.4085   -0.1308   -0.3964   -0.2712   -0.0111    0.1972    0.0253
   -0.1140    0.1481    0.2490   -0.0958    0.0814    0.5092    0.0000    0.0000    0.0000    0.0000
    0.0000    0.0000    0.0000    0.0000    0.0000
   -0.0340    0.0485   -0.0582    0.0869   -0.0175   -0.0010    0.0355   -0.1278    0.0710   -0.1071
    0.1448   -0.0144    0.0971    0.0508    0.1613   -0.0867   -0.1035   -0.0008    0.0534    0.0615
    0.0971    0.0909    0.0680   -0.1311    0.1394    0.0486    0.0211    0.0665    0.1448   -0.0199
   -0.0233   -0.0611    0.1380    0.0048   -0.0308   -0.0924    0.0561    0.0424    0.0257   -0.0442
    0.0429    0.0638    0.1343   -0.1376    0.2072    0.1794   -0.0911    0.0100   -0.2239   -0.0705
   -0.1360   -0.1500    0.0721   -0.2243   -0.0472   -0.0496    0.0721   -0.0162    0.1958    0.0286
    0.1252   -0.0741   -0.0223    0.0613    0.0468    0.2108   -0.0326    0.0891    0.2987   -0.3239
   -0.1749   -0.1027   -0.0468    0.0086   -0.1196   -0.2433   -0.2740   -0.0123    0.0858   -0.2037
    0.0624    0.1620   -0.0051    0.0278    0.0319    0.0954    0.0082    0.2976    0.1505    0.2007
   -0.0508    0.0389    0.2522   -0.3243   -0.0715   -0.1053   -0.1797    0.1246   -0.1427   -0.1230
   -0.1677   -0.0561   -0.1871    0.1620   -0.0895    0.0580    0.1040    0.0213    0.0922   -0.0019
   -0.0795   -0.1073    0.0024   -0.2424    0.2326    0.3137    0.4841   -0.1144   -0.0634    0.0352
   -0.3954   -0.2630   -0.2406   -0.1143   -0.2000   -0.2122   -0.2927    0.0641    0.0606    0.5583
    0.1863   -0.0449   -0.0672   -0.0246    0.2025    0.1664   -0.0490    0.1217   -0.0243    0.1958
    0.5976   -0.2185   -0.0405    0.2010   -0.8079   -0.7758   -0.7432   -0.4807   -0.6208   -0.4360
   -0.4669    0.4904   -0.0811    0.4428    0.2806    0.0369   -0.8308   -0.0848    0.1704    1.0572
    0.3502    1.0231    0.4392    0.7971    0.1512   -1.5516    0.0659    0.1827   -0.1519   -0.2951
   -0.3487   -0.1731   -0.2506   -0.2234   -0.1196    0.3035    0.0449   -0.1503    0.1077   -0.0911
   -0.2043    0.0666    0.0857    0.0292    0.0849    0.2086    0.1531    0.2813    0.4741   -0.2531
    0.1350    0.1119   -0.0515   -0.1211   -0.2281   -0.1671   -0.1687   -0.1086   -0.0484    0.1557
   -0.2335    0.3330    0.1134    0.0946   -0.0552   -0.0768    0.0826   -0.0143    0.0722   -0.1110
   -0.0880    0.0054    0.4014   -0.1742    0.1151    0.1738    0.0231   -0.1936   -0.2660   -0.1070
   -0.1509   -0.1466   -0.1013   -0.0480   -0.0556    0.4322    0.1481    0.0443   -0.0644   -0.0824
    0.0188    0.2590    0.2333   -0.0393    0.0826    0.2286    0.3342   -0.2611    0.0791    0.1083
   -0.0721   -0.2019   -0.0988   -0.1890   -0.1434   -0.1497   -0.0864   -0.0694    0.1256    0.1013
    0.1261    0.1062    0.0076    0.0480   -0.0349    0.1914   -0.0099    0.1784   -0.0315    0.0938
    0.2214   -0.2878   -0.0757    0.0909    0.1012   -0.0839   -0.0983    0.0022    0.1003   -0.0406
    0.0177   -0.2151   -0.1122    0.0442    0.0730    0.0612    0.0121    0.0890   -0.0689   -0.0965
   -0.0877   -0.0047   -0.0979    0.0651   -0.0080    0.0800   -0.1012    0.1057    0.1854   -0.0934
    0.0536   -0.0062    0.0007    0.0966   -0.0671   -0.0903    0.0154   -0.0055    0.1917   -0.1163
    0.1545   -0.1560   -0.0756   -0.0472    0.1173    0.0182   -0.1071    0.0170    0.0159    0.1396
   -0.0173   -0.0558    0.0475    0.0115   -0.1530   -0.0508   -0.0887   -0.1538    0.0348   -0.0597
   -0.0856    0.0522    0.0479   -0.1156    0.1538   -0.1876   -0.0060   -0.0863   -0.0040    0.0451
   -0.1671    0.1504   -0.0891    0.1205   -0.1517   -0.1573   -0.2069    0.0862    0.0389    0.2043
    0.1664    0.2324    0.0775    0.0383    0.1160    0.2298    0.0000    0.0000    0.0000    0.0000
    0.0000    0.0000    0.0000    0.0000    0.0000
   -0.1354    0.0970   -0.0167   -0.0579   -0.1259   -0.0859    0.0503    0.0909    0.0630    0.0647
   -0.0636   -0.0989   -0.0545   -0.1031   -0.1775    0.0167    0.0204    0.0227   -0.2096    0.0286
   -0.0108    0.0126    0.0419   -0.0449   -0.0207   -0.0064   -0.1386   -0.1043   -0.2020   -0.1281
   -0.0583    0.0861    0.0629   -0.0924   -0.0325    0.0828    0.0609   -0.0986    0.0599   -0.0036
    0.1064    0.0561    0.0575   -0.1137   -0.1950   -0.1172    0.0666    0.0201    0.1144   -0.0588
    0.0467    0.0262    0.0290   -0.0363   -0.1063   -0.0076   -0.0959   -0.0713    0.0421   -0.0587
   -0.0587    0.0050   -0.0877   -0.0716   -0.0372    0.0207    0.1315   -0.1399   -0.1985    0.0665
    0.1632    0.0548   -0.0321   -0.1909   -0.0233    0.1221    0.2168    0.0171    0.0508    0.2135
   -0.0803   -0.0533    0.1287   -0.0194   -0.2055   -0.0941   -0.1296   -0.1630   -0.0096   -0.0570
   -0.0321    0.0213   -0.1715    0.1523    0.1021    0.0193    0.0344   -0.1657   -0.0089    0.1382
   -0.1138    0.0581    0.0148   -0.0976    0.0381   -0.0222   -0.0323   -0.0105    0.0228    0.0729
   -0.0311   -0.0092    0.0954    0.0511   -0.1172   -0.2474   -0.3001    0.0183    0.0736   -0.1300
    0.1048    0.2301    0.1010   -0.0570   -0.0830    0.0432    0.1479    0.0983   -0.1930   -0.2010
   -0.1681   -0.0247   -0.0046    0.0442   -0.0197   -0.2120   -0.0019    0.0671    0.0332   -0.0616
   -0.3087    0.0453    0.0725   -0.0460    0.5420    0.3803    0.3916    0.2408    0.4627    0.1376
    0.2637   -0.3482    0.1894   -0.3079   -0.3128   -0.2245    0.5903    0.0596   -0.1134   -0.6927
   -0.4292   -0.5224   -0.3892   -0.5663   -0.0600    1.0115    0.0067    0.0165    0.0292    0.1363
    0.2930   -0.0291    0.1270    0.0304    0.0402   -0.3374    0.0541    0.2049    0.1509   -0.1053
    0.0485    0.0546   -0.1691   -0.0985    0.0308   -0.0838   -0.0952   -0.1805   -0.3667    0.2264
    0.0607   -0.0548   -0.0710    0.0845    0.0405    0.0342    0.1078   -0.0110   -0.0975    0.0272
    0.0143   -0.2205   -0.0548   -0.1388    0.1003   -0.0096   -0.1320   -0.0464    0.0871   -0.0443
    0.0143   -0.1077   -0.2360   -0.0040   -0.0603   -0.0662   -0.1169    0.0062    0.0469    0.1593
    0.0308    0.0676   -0.0216   -0.0012    0.0826   -0.0650   -0.0752   -0.1070    0.0352    0.1611
   -0.1212   -0.0684   -0.0230   -0.0308   -0.1179   -0.0118   -0.1172    0.2415    0.0320    0.0002
   -0.0722    0.1752    0.0616    0.0865    0.0414    0.0036    0.0263    0.0147   -0.1094   -0.0790
   -0.0625   -0.0790   -0.0356    0.1037    0.0520   -0.1864   -0.1060   -0.0191   -0.0654   -0.0172
   -0.0196    0.1332    0.0629   -0.0635   -0.2061    0.0454   -0.0352    0.0099   -0.1359   -0.0840
    0.0119    0.1002   -0.0336    0.0062   -0.0222    0.0872   -0.1120   -0.1178   -0.0385    0.0798
    0.0888    0.0240   -0.0413   -0.0204   -0.1018   -0.1228    0.0155   -0.0278    0.0144   -0.1416
   -0.0093    0.0295    0.0073    0.0070    0.0115   -0.0179    0.0619    0.0860    0.0176    0.0814
   -0.2309    0.1548   -0.1133    0.0310   -0.1017    0.1389    0.0592   -0.2430    0.0681   -0.2948
    0.1263    0.0621   -0.0116   -0.0509    0.0963   -0.0674   -0.0627    0.1225    0.0770   -0.0968
   -0.0307    0.0027    0.0429   -0.0310   -0.1467    0.0091   -0.0090    0.0882   -0.0180   -0.0549
   -0.0347   -0.1066   -0.0655   -0.3977   -0.0394    0.1843    0.0456   -0.1284   -0.1108   -0.1082
   -0.1776    0.0071    0.0864    0.1388   -0.0372   -0.4261    0.0000    0.0000    0.0000    0.0000
    0.0000    0.0000    0.0000    0.0000    0.0000
   -0.0893   -0.1082    0.0227   -0.0060    0.0436    0.0905   -0.1220    0.0388   -0.1098   -0.0175
   -0.0062   -0.0344   -0.0395   -0.0449   -0.1137   -0.0460   -0.0682   -0.0570    0.0200   -0.1099
   -0.0161   -0.1311    0.0644    0.1449   -0.1024    0.0022   -0.0399    0.0523   -0.0186   -0.0594
    0.0157    0.0379   -0.2059    0.1148    0.1018    0.1554    0.0756    0.0748   -0.0470   -0.0956
    0.0143    0.0993   -0.0650    0.1150   -0.0049   -0.2222    0.1098    0.0819   -0.0637   -0.0545
   -0.0694    0.0467   -0.0307    0.0787    0.0209   -0.0662   -0.0251   -0.0729   -0.0094    0.1286
   -0.0990    0.0592    0.0214    0.0691    0.0782    0.0842   -0.0253    0.0407   -0.1362   -0.0160
    0.1757    0.1184   -0.0466    0.0240    0.0878    0.0635   -0.0791    0.0401   -0.0672   -0.0129
    0.0470   -0.0395   -0.1067   -0.0584   -0.0092   -0.0283    0.1225   -0.1034    0.0045   -0.1023
   -0.0197    0.0350   -0.0341    0.0001   -0.0643    0.0101    0.0917    0.0910    0.1698   -0.0559
    0.2018    0.0603    0.1107    0.1071   -0.0406   -0.0797   -0.1649   -0.0288    0.0252    0.0085
   -0.0199   -0.0413   -0.0523   -0.1344   -0.1737   -0.1147   -0.1808    0.1590   -0.1116   -0.0378
    0.2081    0.0679    0.2000    0.0552    0.0752    0.1738    0.1436   -0.2397   -0.0242   -0.2529
   -0.0082    0.0483    0.0781    0.0587   -0.1208   -0.0350   -0.0178   -0.0807   -0.1528   -0.2067
   -0.3411    0.1404    0.0190   -0.1343    0.2809    0.2215    0.3936    0.2365    0.2170    0.0660
   -0.1892   -0.2950    0.0266   -0.1178   -0.0437    0.0742    0.2711   -0.0055   -0.0150    0.0674
   -0.1204   -0.1674   -0.1645   -0.1530    0.0296    0.4759   -0.0155   -0.0657    0.2194    0.2573
    0.2149    0.0956    0.1458    0.0931    0.1519   -0.1831    0.0442   -0.0330   -0.2271    0.0545
    0.1869   -0.1140   -0.0905   -0.1474   -0.0686   -0.1093   -0.0743   -0.2902   -0.2420    0.0337
    0.0183    0.0036   -0.0940    0.0343    0.1363    0.1364    0.1135    0.0738    0.0064   -0.1838
    0.0221   -0.2425   -0.1008   -0.0669   -0.0298   -0.0276    0.0096   -0.0762    0.0188    0.0302
   -0.1322   -0.0710   -0.1449    0.0978    0.0525   -0.1766   -0.0653    0.0109    0.1375    0.0725
    0.0597   -0.0369    0.0859    0.0681    0.1694   -0.2914   -0.1266    0.0338    0.0078   -0.0657
   -0.0432   -0.1196   -0.1806    0.0276   -0.0648   -0.0227   -0.0499    0.0015    0.0219   -0.0351
   -0.0943    0.0912    0.1440   -0.0199    0.0680   -0.0426    0.0426    0.1852    0.1376   -0.1982
   -0.0674   -0.0752   -0.0849   -0.0986   -0.0094   -0.0418   -0.1228   -0.1127   -0.0286   -0.0601
   -0.1218    0.1280   -0.0123    0.0406   -0.1200    0.0244   -0.0510    0.0504    0.1358   -0.0016
    0.0601    0.1329   -0.0398   -0.0451    0.0163   -0.0809   -0.0693   -0.0417    0.0749   -0.0516
   -0.0862   -0.0203    0.1496   -0.1337   -0.0511   -0.0799   -0.0075   -0.0770   -0.1974    0.0006
    0.0439    0.0342    0.0344   -0.0667    0.1244    0.0550    0.0271   -0.1206   -0.0210   -0.0383
    0.0238    0.0874   -0.0007    0.1117    0.0270    0.0549    0.0400   -0.0560   -0.0654   -0.0777
    0.0247   -0.0274    0.0076    0.0557    0.1697   -0.0350    0.0548   -0.0493    0.1451    0.0957
   -0.0455   -0.0045    0.0477    0.1370   -0.1244    0.0724   -0.0004    0.0726    0.1022    0.0072
    0.1040   -0.0262   -0.0442   -0.3388   -0.0313    0.2494    0.0651   -0.0744    0.0416   -0.0543
   -0.1391   -0.1790   -0.0589   -0.0276   -0.2448   -0.3180    0.0000    0.0000    0.0000    0.0000
    0.0000    0.0000    0.0000    0.0000    0.0000
    0.0028   -0.0607   -0.0355    0.0956    0.0910   -0.0567   -0.0558   -0.0983    0.0235    0.0343
   -0.0761    0.0604    0.0497    0.0925    0.0048   -0.0452    0.0334    0.0582    0.0160   -0.0217
    0.0604   -0.0471   -0.0681    0.0032   -0.1143   -0.0228    0.1271   -0.0753   -0.0417    0.0547
    0.0587   -0.0378    0.0201    0.0159    0.0114    0.0009   -0.0530   -0.0743    0.0683   -0.0249
   -0.0662    0.0192    0.0366    0.0874   -0.0241   -0.0450   -0.0276   -0.0134   -0.0142    0.0158
    0.0607    0.0020   -0.1098    0.0264    0.0585   -0.0244   -0.0169   -0.0721   -0.1706    0.0608
    0.0939    0.0570    0.0021   -0.0624    0.0361    0.0885   -0.0673    0.0160   -0.0478    0.0272
   -0.0692    0.0673   -0.0524    0.0612    0.0585    0.1267    0.1192    0.0327   -0.1234   -0.0125
   -0.1077    0.0718    0.0445    0.1148   -0.0384    0.0506   -0.0904   -0.0310   -0.0504   -0.0711
   -0.0167    0.0314   -0.1182    0.1028   -0.0448   -0.0617   -0.0147    0.0057   -0.0122   -0.0272
    0.0528   -0.0081    0.0404    0.0366    0.0854   -0.0429   -0.0077   -0.1371   -0.0281   -0.0474
    0.0026    0.1106   -0.0311   -0.0225    0.0099    0.0232   -0.0358   -0.1264   -0.0110    0.0439
   -0.0307   -0.0076    0.0455   -0.0196    0.0193   -0.0737    0.0137    0.0057   -0.0310   -0.0431
    0.0000   -0.0672   -0.0175   -0.0511   -0.0837   -0.0362   -0.0456    0.0054   -0.0222    0.0515
   -0.1385   -0.0103    0.0717   -0.0631    0.2423    0.2546    0.2314    0.1808    0.1384    0.0528
    0.1755   -0.1281   -0.0843   -0.0591   -0.2673   -0.0894    0.0565   -0.0286    0.0055    0.0790
   -0.0310   -0.0677   -0.0482   -0.0423    0.0452    0.4459    0.0581   -0.0312   -0.1256    0.0098
    0.0451    0.1015    0.0615    0.0235    0.0053    0.0949    0.0169    0.0294    0.0709   -0.0185
   -0.0907   -0.0843    0.0617   -0.1063    0.0666   -0.1039    0.0230   -0.0829   -0.0052    0.0281
   -0.0343    0.0233    0.0732    0.0211    0.0759   -0.0789    0.0128   -0.0276    0.0401   -0.1011
   -0.0481   -0.1068   -0.0455   -0.0098   -0.0141    0.0231   -0.0373   -0.1042   -0.0144    0.0292
    0.0454   -0.0043   -0.0757   -0.1360   -0.0955   -0.0046    0.0085    0.0035    0.0434   -0.0657
    0.0414   -0.0070   -0.0830   -0.0139    0.0242    0.0453   -0.0455   -0.0584    0.0200    0.1209
    0.0494   -0.0160   -0.1352   -0.0509   -0.0382    0.0723   -0.0791    0.0104   -0.0166   -0.0367
    0.0448   -0.0836   -0.0266    0.0449   -0.0165   -0.0581    0.0549    0.0190   -0.0646    0.1036
   -0.0781   -0.1246   -0.0520    0.1079   -0.0399   -0.0221    0.0634   -0.0176   -0.0396   -0.0246
    0.0171    0.0535   -0.0906    0.0512    0.0449   -0.0023   -0.0039   -0.0457   -0.0079    0.0611
   -0.0396    0.0959    0.0470    0.0294   -0.0037    0.0582    0.0191   -0.0686   -0.0659    0.0668
   -0.0127    0.0091    0.0151    0.0671    0.0464    0.0060    0.0492   -0.0897   -0.0828    0.1028
   -0.1018   -0.0452   -0.0813    0.0989    0.0073   -0.0488    0.0070    0.0850   -0.1118   -0.0733
   -0.0749    0.0272   -0.0023   -0.1323   -0.0730    0.0769    0.0742   -0.0984   -0.0822   -0.0796
   -0.0767   -0.0746    0.0887    0.1270    0.0894   -0.0213    0.0254   -0.0822    0.1561    0.0945
   -0.0207    0.1753    0.0721    0.1541   -0.1177    0.1067    0.0475    0.0815    0.0848    0.1355
    0.1087    0.1481   -0.0064   -0.2605   -0.1654   -0.1514    0.1716    0.0324   -0.0554    0.0287
   -0.1462   -0.0507   -0.0645   -0.1029   -0.1375   -0.3118    0.0000    0.0000    0.0000    0.0000
    0.0000    0.0000    0.0000    0.0000    0.0000
    0.1167    0.0100   -0.0531    0.0372   -0.0133    0.0494   -0.0406   -0.0226    0.0676    0.1066
    0.0796    0.1179   -0.0734    0.0713    0.0249    0.0042   -0.1373    0.0720    0.0122   -0.0615
    0.0788    0.0185    0.0013    0.0439    0.1231   -0.0018    0.0351    0.1080    0.0259   -0.0051
   -0.0077   -0.0161   -0.0470   -0.0373   -0.0566   -0.1430    0.0952    0.0773    0.1053   -0.0344
   -0.1217   -0.1627    0.1221   -0.1222   -0.0182   -0.0308    0.1078   -0.0178    0.0112   -0.0669
    0.0306   -0.0761    0.1187   -0.0803    0.0912   -0.0919    0.0257    0.0024    0.0106   -0.0454
    0.0502   -0.0311   -0.0541   -0.2087   -0.0553    0.0796   -0.0617   -0.0538    0.1905   -0.1867
   -0.0677   -0.1249    0.0287    0.0197    0.0268   -0.0177   -0.0394   -0.1083   -0.0489   -0.1462
    0.0148    0.0926    0.1052   -0.0077    0.0495   -0.0235    0.0487    0.1563    0.1147    0.0615
   -0.0329   -0.1334    0.2745   -0.2762   -0.0201   -0.0988   -0.1373   -0.0826   -0.2293   -0.0761
   -0.1167    0.0329   -0.1490    0.0957   -0.1671    0.1419    0.1070   -0.0429    0.1042   -0.0020
   -0.0625    0.0730   -0.1200   -0.0614    0.0981    0.0526    0.4429   -0.1605   -0.0155    0.0609
   -0.3170   -0.1971   -0.1542   -0.0883   -0.1757   -0.0812   -0.2303    0.1291   -0.0133    0.4657
    0.1031    0.1118   -0.1035    0.0547    0.0789   -0.0339   -0.0345    0.0110    0.0442    0.2139
    0.4698   -0.0941    0.0375    0.0920   -0.4218   -0.1699   -0.3194   -0.2713   -0.2050   -0.1387
   -0.2294    0.3681   -0.0982    0.1595    0.1614   -0.1295   -0.2647    0.0213   -0.0122    0.4216
    0.0108    0.3446    0.2417    0.2982    0.0681   -0.3913    0.0840    0.2001   -0.1868   -0.1843
   -0.1790   -0.1233   -0.1982   -0.1589   -0.2572    0.3461   -0.1161   -0.0114    0.0491    0.0910
   -0.0655    0.1373    0.0421    0.0002    0.1043    0.0071    0.0236    0.3271    0.4275   -0.1941
   -0.0201    0.1677   -0.0934   -0.2574   -0.1335   -0.1019   -0.1828   -0.0569   -0.0534    0.3039
   -0.2071    0.3278    0.0445    0.1403   -0.0784    0.0645    0.0474   -0.0602   -0.0336   -0.1122
    0.1222    0.0135    0.3903   -0.1641    0.1575    0.1806    0.1108   -0.1612   -0.1976    0.0258
   -0.1281    0.0688   -0.0463   -0.0889   -0.0175    0.2043   -0.0081   -0.0233   -0.1324   -0.0847
    0.0184    0.0388    0.0900   -0.0352    0.0290    0.0387    0.2694   -0.0909   -0.0498    0.1075
   -0.0227    0.0076   -0.0950   -0.0436   -0.0611    0.0249   -0.0628   -0.0123   -0.1672    0.1353
   -0.0074    0.0258   -0.0159   -0.0219    0.0833    0.0374   -0.1085    0.0378    0.0315   -0.0801
    0.1580   -0.1242    0.0576    0.0228    0.0027    0.0620   -0.0373   -0.0629   -0.0622    0.0178
   -0.1393   -0.1088   -0.0383    0.0374   -0.2182   -0.0461    0.1972    0.0720   -0.0661    0.0395
    0.1788   -0.0694   -0.1242    0.1600    0.1107    0.0068   -0.0225   -0.0383    0.1025   -0.0381
   -0.0967    0.0664    0.0628    0.0624   -0.0770   -0.0218   -0.0138    0.0853    0.0065   -0.0285
    0.0944    0.0242    0.0184   -0.1180    0.1023   -0.0756    0.0750    0.0435    0.0729    0.0918
   -0.1083    0.0163    0.1109    0.0429   -0.0700    0.0249   -0.0009   -0.0420   -0.0385   -0.0245
    0.0447    0.0433   -0.0751   -0.0336    0.1639    0.0396    0.1394   -0.1130    0.0036    0.0441
    0.0708    0.1254   -0.0917   -0.1265   -0.1899   -0.1060   -0.0431    0.0804    0.1122    0.1004
    0.1606    0.1205   -0.0361   -0.0304    0.1029   -0.0591    0.0000    0.0000    0.0000    0.0000
    0.0000    0.0000    0.0000    0.0000    0.0000
    0.0811   -0.2375   -0.1161    0.0533    0.0303   -0.0582    0.0437   -0.0865   -0.0603    0.0737
   -0.0420   -0.0185    0.0695   -0.0001   -0.0418   -0.0260    0.0621    0.0266    0.0135   -0.2184
    0.0879   -0.1561    0.0514   -0.0185   -0.0117    0.0361    0.0351    0.1719    0.0653    0.0140
   -0.1148    0.0669    0.0014   -0.0992    0.0715   -0.1252   -0.0580    0.0501   -0.0215    0.0003
   -0.1402   -0.0543   -0.0944    0.1218    0.0438   -0.0587    0.0454    0.0357   -0.0845    0.0531
    0.1712   -0.0240   -0.0117    0.1469   -0.0114    0.0832   -0.1050    0.1145    0.0266   -0.0461
   -0.0305   -0.0084   -0.1273   -0.2475   -0.0610   -0.2847    0.0223   -0.0807    0.1263    0.0937
   -0.0888    0.1002    0.0867    0.0260   -0.0339    0.1631    0.0544   -0.0520    0.0564    0.0336
    0.0004    0.0410   -0.0533   -0.0060   -0.0466   -0.1168   -0.0752    0.0713   -0.0080   -0.1692
    0.0754   -0.0649    0.2424    0.1032    0.0161    0.1191    0.0661   -0.0072   -0.1184   -0.0334
    0.0759    0.0127    0.0276   -0.0997   -0.0972    0.0037   -0.0825   -0.1040    0.0357   -0.0365
   -0.0837   -0.0255    0.0637    0.1481   -0.0171   -0.1109    0.2970    0.0569    0.0528   -0.0242
   -0.0261   -0.1926   -0.0170    0.0304    0.0526   -0.0464   -0.0277   -0.0911   -0.0447    0.0655
    0.0993    0.0709    0.0838    0.0098   -0.0974   -0.1067   -0.0406   -0.1678   -0.1514   -0.0413
    0.2951   -0.0107   -0.0486   -0.0215    0.4725    0.5007    0.5097    0.3093    0.4655    0.2280
    0.0524   -0.0666    0.2761   -0.3529   -0.1528   -0.1790    0.5355   -0.1667   -0.4870   -0.5531
   -0.3213   -0.5879   -0.1919   -0.4689   -0.1639    1.1069    0.1406   -0.0863   -0.1242   -0.1436
    0.0581   -0.0306    0.0600   -0.0832   -0.1232   -0.0365   -0.0400   -0.0732   -0.0117    0.1046
   -0.0070   -0.1237    0.0016    0.1031   -0.1231   -0.2218    0.0264    0.1395    0.1954   -0.0258
   -0.0402    0.0826   -0.0300   -0.0818   -0.1517    0.0371   -0.0056    0.0393   -0.0326    0.0106
    0.0176   -0.0348   -0.1457    0.0264   -0.0105    0.0627   -0.1865   -0.1029    0.0028   -0.0115
    0.0035    0.1353    0.2508   -0.0034   -0.1172   -0.2025    0.0240    0.0479   -0.0670    0.0753
    0.1213    0.0037    0.0626    0.1256   -0.0925   -0.0339    0.0843   -0.0215    0.0903    0.0403
   -0.0617   -0.1314   -0.0933   -0.0908   -0.1050   -0.1502    0.1185    0.0946   -0.0954   -0.0803
    0.1298    0.0231    0.0889    0.0421    0.0446    0.0582   -0.0178   -0.0283   -0.1225    0.0477
   -0.0843   -0.1410    0.0768   -0.0516    0.0103   -0.1834   -0.0456   -0.1718    0.0693    0.0886
    0.1403    0.1432    0.0640   -0.0004   -0.1088   -0.0207    0.0059   -0.0116   -0.0364    0.0563
   -0.0698    0.0220   -0.0583   -0.0759   -0.0747   -0.0319    0.1295   -0.0048    0.0210   -0.0111
    0.0578    0.0195    0.0341    0.0538    0.0583   -0.0429   -0.0550    0.0116   -0.0541   -0.0307
   -0.0403   -0.1372   -0.0058   -0.0507    0.0162   -0.0436   -0.0916    0.0830   -0.1241   -0.0315
   -0.1537    0.0030   -0.0500   -0.0596   -0.0218   -0.1142    0.0092    0.0898    0.1634   -0.0963
   -0.0262    0.1326   -0.1198    0.0197    0.0966    0.0622    0.0209    0.1561    0.1427   -0.0473
   -0.0128    0.0535    0.0865    0.0843    0.0504    0.0581    0.0993    0.1600   -0.0285   -0.0617
    0.1224   -0.1514    0.0152   -0.3138   -0.1252    0.1336    0.2068    0.1419    0.0712   -0.0577
    0.0322   -0.0105    0.1055    0.2009    0.0949   -0.4419    0.0000    0.0000    0.0000    0.0000
    0.0000    0.0000    0.0000    0.0000    0.0000
   -0.0290   -0.0280   -0.0324    0.0133    0.0299   -0.0588   -0.0245    0.0512   -0.0999    0.0940
   -0.0344   -0.0861   -0.0401    0.0911    0.0374   -0.0900   -0.1258   -0.0382   -0.0481    0.0059
    0.2039    0.0173    0.1559   -0.0203    0.0377    0.0475    0.0568    0.1844   -0.0049    0.0560
    0.0342    0.0634   -0.0379    0.0052   -0.0308   -0.0126   -0.0788   -0.0687   -0.0443   -0.0307
    0.0460   -0.0408   -0.0409   -0.0288    0.0295   -0.2377    0.1585    0.0252    0.0698   -0.0999
    0.0060    0.0198   -0.0352    0.0799    0.0097   -0.0187   -0.1521   -0.0839    0.2318    0.0302
   -0.0506    0.0344   -0.1174   -0.0129   -0.0287   -0.2593    0.0458   -0.0532    0.0184    0.1103
    0.0205   -0.0156    0.0976   -0.0138    0.0536    0.0161    0.0651    0.1249    0.0035   -0.1724
   -0.1507    0.0892   -0.0645   -0.0338   -0.1544    0.0480   -0.0209    0.0961   -0.0813   -0.1017
    0.0043   -0.0368    0.1546   -0.0259    0.0669    0.0271    0.1450    0.0018    0.0962   -0.0551
    0.1122    0.1263    0.0129   -0.0816   -0.1000   -0.1436   -0.0846   -0.1392    0.1404   -0.0948
   -0.1127   -0.0530    0.0335   -0.0521   -0.0388   -0.1444    0.1455   -0.0532   -0.0323   -0.0525
   -0.0148    0.0557    0.0035    0.0242   -0.0517    0.1371    0.1042   -0.0842    0.0478   -0.0648
   -0.0472    0.0344   -0.0781   -0.0001   -0.1603   -0.0564   -0.0015    0.0252   -0.0745   -0.1785
    0.2345   -0.1024    0.0107   -0.1434    0.4940    0.3492    0.3871    0.1737    0.2216    0.1203
   -0.1066    0.1164    0.4437   -0.1157   -0.0106   -0.0649    0.4123   -0.1233   -0.4366   -0.3391
   -0.2440   -0.4796   -0.3056   -0.3313   -0.0731    0.6713    0.1063   -0.1103    0.0838   -0.0312
   -0.0236    0.0329   -0.0479    0.0785    0.0269   -0.0104    0.0075   -0.0593   -0.0391   -0.0320
    0.0806    0.0590    0.0471    0.0389   -0.1517   -0.1333   -0.1199   -0.0857    0.2584   -0.0070
    0.0091    0.0060    0.0469    0.0561   -0.0291    0.1323   -0.1363   -0.0437   -0.1239   -0.0601
   -0.0825    0.0054   -0.0768   -0.0812    0.1224    0.0774   -0.0901   -0.0825    0.0559   -0.1338
   -0.0003   -0.0028    0.2083    0.0644    0.0008   -0.1348    0.0320   -0.0855    0.0858    0.0622
    0.0705   -0.0458    0.0375   -0.0567    0.0586   -0.0548   -0.0456   -0.0290   -0.0448    0.0942
   -0.0869   -0.2559   -0.1517   -0.1262   -0.0931   -0.1370    0.0609   -0.1320   -0.0891   -0.0189
    0.0403    0.1607    0.0968    0.1922   -0.0453    0.0343    0.0449    0.0612   -0.0370    0.0732
   -0.1327   -0.0720    0.1282   -0.0327   -0.1736   -0.0828   -0.1267   -0.0783   -0.0033   -0.1027
    0.0368    0.0085    0.0128    0.0728   -0.0702   -0.1369   -0.0614   -0.0681    0.0383   -0.0188
   -0.1315   -0.0449   -0.0089   -0.1828   -0.0443   -0.1276   -0.0484    0.0005   -0.0065    0.0728
   -0.0087   -0.1167    0.0279   -0.0916    0.1629   -0.0951   -0.0213    0.0635   -0.0592   -0.0441
   -0.0911    0.0706   -0.1570   -0.0427   -0.0915   -0.0836    0.0628   -0.0154    0.0920   -0.0626
   -0.0635    0.0283   -0.1198    0.0084    0.0249   -0.0056   -0.1234    0.0516    0.1637   -0.2589
    0.0444    0.0224    0.0586   -0.0648    0.1027    0.1811    0.0544    0.2266    0.0950    0.0170
    0.0547    0.1431    0.1655    0.0384    0.1655    0.1333    0.1052    0.0438    0.2263   -0.0301
    0.0540   -0.0593    0.0378   -0.4281   -0.1227    0.3056    0.0845    0.0650    0.0848    0.0870
    0.2005    0.1143    0.1040    0.0313   -0.0095   -0.4095    0.0000    0.0000    0.0000    0.0000
    0.0000    0.0000    0.0000    0.0000    0.0000
 ***                         junction second layer: row=numhid+ (10F10.4)
    0.1081   -1.3631   -1.1099   -1.0414   -0.8304   -0.5699    0.2057    1.0782    1.0680    0.1228
    1.2600   -0.5488   -0.2546   -0.3525   -0.5058   -1.0587   -1.0637   -0.9421   -0.3598   -0.2854
   -0.5912   -1.1342   -0.7734   -0.7616   -0.5388    0.1573    0.4542    0.6639   -0.1565   -0.2476
    0.4984    0.2713   -0.0995   -0.1584   -0.1473   -0.1136    0.0315   -0.2908   -1.1350   -2.3944
   -2.0716   -0.7294   -0.7792   -0.7361   -0.4896   -0.3304    0.1517    0.3804    0.3403    0.2853
    0.1661    1.0506    0.6340   -0.1106   -0.5825   -0.8405   -1.0907   -1.7109   -1.1316   -1.0311
   -1.1619    0.1821   -0.1862   -0.0659    0.1466   -0.1190   -0.7502    0.0327   -0.0605   -0.4637
   -3.1528   -1.1613   -0.1821    0.0587    0.7440    0.8759    0.6839   -0.0081    0.3277   -0.1181
   -2.0216   -1.3980   -1.1923   -1.0855   -1.0050   -0.5435   -0.3395    0.3284    0.9084    1.5339
    0.4631    0.1075   -0.2503   -0.2375    0.2276    0.0889   -1.2021   -1.3297   -1.0113   -1.4269
    0.4460   -0.1207   -0.2564   -0.3755   -0.7017    0.0355   -0.0897   -0.1227   -1.0756   -1.3501
   -0.2335   -0.0212   -0.1251   -0.1153   -0.2747   -0.4655   -0.4203   -0.4941   -0.6237   -0.7022
   -1.0480   -0.6912   -0.6732   -0.1987   -0.6515   -0.5948   -0.5211   -0.6400    0.1090    1.3134
    0.4224   -0.1101    0.2531   -0.0808   -0.2387   -0.9907   -0.7322   -1.4621   -1.2626    0.1996
    0.6491   -0.1789   -0.3852   -0.3152   -0.4849   -0.4504   -0.8693   -0.8124   -0.9952    0.3118
   -0.2319   -0.6477   -0.8828   -0.6882   -0.5529   -0.5742   -0.3158   -0.4930   -0.4672   -0.9275
    0.0000    0.0000    0.0000    0.0000    0.0000    0.0000    0.0000    0.0000    0.0000    0.0000
    0.0000    0.0000    0.0000    0.0000    0.0000    0.0000    0.0000    0.0000    0.0000    0.0000
    0.0000    0.0000    0.0000    0.0000    0.0000    0.0000    0.0000    0.0000    0.0000    0.0000
    0.0000    0.0000    0.0000    0.0000    0.0000    0.0000    0.0000    0.0000    0.0000    0.0000
    0.0000    0.0000    0.0000    0.0000    0.0000    0.0000    0.0000    0.0000    0.0000    0.0000
    0.0000    0.0000    0.0000    0.0000    0.0000    0.0000    0.0000    0.0000    0.0000    0.0000
    0.0000    0.0000    0.0000    0.0000    0.0000    0.0000    0.0000    0.0000    0.0000    0.0000
    0.0000    0.0000    0.0000    0.0000    0.0000    0.0000    0.0000    0.0000    0.0000    0.0000
    0.0000    0.0000    0.0000    0.0000    0.0000    0.0000    0.0000    0.0000    0.0000    0.0000
END
