********************************************************************************
***                                                                          ***
*** Secondary Structure Prediction by a Layered Network                      ***
*** ~~~~~~~~~~~~~~~~~~~~~~~~~~~~~~~~~~~~~~~~~~~~~~~~~~~                      ***
***                                                                          ***
*** Burkhard Rost, EMBL, Heidelberg, FRG                                     ***
*** (Internet: rost@EMBL-Heidelberg.DE)                                      ***
*** file containing the architecture in PHD format                           ***
*** Mon Aug 22 19:50:34 1994                                                 ***
***                                                                          ***
*** cryptic:     Stm69c-pccld-rcicld-A                                       ***
***                                                                          ***
********************************************************************************
***                                                                          ***
 prediction type:   SECONDARY                     
 network type:      SECOND
 CASCACC:                8
 input type:        RR-CCLD           
 NUMIN:                117
 NUMHID:                15
 NUMOUT:                 2
 NCODEUNT:               4
 NUMNEIGH:              10
 *****
 *****
   number of layers: 2       junction first layer: row=numhid (10F10.4)
    0.3641   -0.3418   -0.1115   -0.0287    0.3314   -0.2327   -0.1949    0.0215    0.2654   -0.2175
   -0.1718    0.0366    0.2787   -0.0985    0.0001    0.0221    0.2394   -0.1439   -0.1475   -0.0170
    0.1410   -0.0281   -0.1301   -0.1213    0.0571   -0.0222   -0.1238    0.0891    0.0797   -0.1748
   -0.0554   -0.0691    0.1738   -0.2029    0.0308    0.1073    0.3033   -0.2105   -0.0123    0.1459
    0.4099   -0.3766    0.0147    0.1079    0.2625   -0.1710   -0.0330    0.0397    0.1192   -0.0690
   -0.1063   -0.0044    0.0981   -0.1265    0.0371    0.0062    0.2241   -0.1368    0.0562    0.0497
    0.1223   -0.1444    0.0259    0.0436    0.0969   -0.0561    0.0798    0.1323    0.0696   -0.2084
    0.0320    0.0110    0.2363   -0.1215   -0.0272    0.1145    0.2823   -0.1061   -0.0648    0.0687
    0.3480   -0.1648   -0.0923   -0.0777    0.2052    0.0491    0.1499    0.1201    0.0327   -0.0412
    0.1121   -0.0566    0.0292   -0.0064   -0.0288    0.0418   -0.0540   -0.0308   -0.0291    0.1523
   -0.0599   -0.0100   -0.1136   -0.1364    0.0699    0.0097   -0.0054    0.3827    0.2508   -0.1145
   -0.0775    0.0833    0.0066    0.0524   -0.0088    0.0156    0.0472    0.2485    0.0000
   -0.0822   -0.0906   -0.0151   -0.0019   -0.0188    0.0036   -0.0108   -0.0371   -0.0292   -0.0290
   -0.0267   -0.0943   -0.1535    0.0602   -0.0646   -0.0595   -0.0760   -0.0075   -0.0657   -0.0036
   -0.0954   -0.0442   -0.0122   -0.0354   -0.0337    0.0782    0.0124   -0.0238   -0.0708   -0.1022
    0.0301   -0.1237    0.0182    0.0018   -0.0537   -0.1087   -0.0089   -0.0881    0.0854   -0.0605
    0.1128   -0.0976    0.0252   -0.0779    0.0847   -0.0378    0.0000   -0.0223    0.0334   -0.0067
    0.0535   -0.0498    0.0150   -0.0780   -0.1054    0.0551    0.0399    0.0259   -0.0963   -0.0339
    0.0702   -0.0238    0.0444   -0.0471    0.0074   -0.0326    0.0641    0.0300   -0.0157   -0.1013
   -0.0901   -0.0674   -0.0025   -0.1033    0.0320    0.0046   -0.0251   -0.1200   -0.0040   -0.0963
   -0.0136   -0.0395   -0.0188   -0.1455   -0.0740   -0.0855    0.0934    0.0053   -0.0798   -0.0137
    0.0033   -0.0897   -0.0795   -0.1065    0.0480    0.0413    0.0363    0.0144   -0.0806    0.0496
   -0.0709    0.0507    0.0114   -0.0130   -0.0386   -0.1375   -0.0952    0.1135    0.0043   -0.0825
   -0.0599   -0.0476    0.0192    0.0110    0.0831   -0.0940   -0.0583    0.0566    0.0000
   -0.5496    0.3828    0.0501    0.0630   -0.5183    0.2821    0.1497    0.0285   -0.3142    0.2210
    0.0851    0.0848   -0.3192    0.1505    0.1621   -0.0652   -0.2523    0.1503   -0.0217   -0.0835
   -0.1888    0.0122    0.1086    0.0617   -0.1822    0.1129    0.1002   -0.0967   -0.2232    0.0190
   -0.0071   -0.0503   -0.2143    0.0550    0.0799   -0.1136   -0.2896    0.2421    0.0253   -0.1320
   -0.3158    0.2913   -0.0277   -0.0426   -0.3304    0.2520   -0.0768    0.0343   -0.2568    0.1724
    0.1048   -0.0440   -0.2102    0.1443    0.1106   -0.0395   -0.2127    0.0068    0.0176   -0.2065
   -0.2553    0.0550   -0.0797    0.0102   -0.1290    0.0603   -0.0337   -0.1249   -0.1843    0.0969
   -0.0292   -0.0379   -0.2389    0.2529   -0.0827   -0.0260   -0.2978    0.1682   -0.0943   -0.0662
   -0.3847    0.2836    0.0166   -0.0716   -0.0996    0.0613   -0.0789   -0.0270   -0.1760    0.0306
    0.0521    0.0106   -0.1749    0.0834   -0.1109   -0.0545   -0.0793    0.0254    0.0484   -0.1309
    0.1326    0.0930    0.1125    0.1792    0.0114   -0.0701   -0.0876   -0.3787   -0.0898   -0.0209
    0.1079    0.0050   -0.0668   -0.0609    0.0549   -0.0233    0.0796   -0.1278    0.0000
   -0.0366   -0.0712    0.0386    0.1293    0.1202    0.0140    0.0259    0.1199    0.1435    0.0294
    0.0839    0.1534    0.1707   -0.0214    0.0347    0.1156    0.0567    0.0036    0.1151    0.1302
    0.0155   -0.0778   -0.0154    0.0865    0.0049    0.0486    0.1112    0.1381    0.0190    0.1820
   -0.0307   -0.0132   -0.1940    0.2256   -0.0433    0.1124   -0.2079    0.4227    0.0540    0.0096
   -0.4139    0.5264    0.0215    0.0300   -0.3211    0.4153    0.0579    0.0856   -0.2339    0.3055
    0.1093    0.0307   -0.2539    0.2574    0.1263   -0.0076   -0.1050    0.1456   -0.0001   -0.1138
   -0.1803    0.2252   -0.0611    0.0632   -0.1532    0.1145   -0.0009    0.1210   -0.1594    0.1536
    0.0816   -0.0011   -0.0451    0.1558   -0.0136   -0.0001   -0.0292    0.1661    0.0844   -0.0677
   -0.1133    0.0971    0.1150   -0.0241   -0.0154    0.0251   -0.1591   -0.0931   -0.0079   -0.1002
   -0.0707   -0.0408    0.0084    0.0837    0.0417   -0.0520   -0.0612    0.0451   -0.0234   -0.1279
    0.1230    0.1434   -0.0136    0.1539   -0.0987   -0.0045    0.1396   -0.1801   -0.2509    0.0883
    0.0924   -0.0132   -0.0325    0.1021    0.0313   -0.0053    0.0811   -0.0497    0.0000
    0.0704   -0.1249   -0.1353   -0.1032    0.0158   -0.0819   -0.0435    0.0141    0.0549   -0.1071
    0.0041   -0.0967    0.0012    0.0513   -0.1476   -0.1457   -0.0066    0.0093    0.0437    0.0342
   -0.0249   -0.1289    0.0627   -0.0773    0.0468   -0.0942    0.0028   -0.0052   -0.0553   -0.0062
   -0.0255   -0.0495    0.0645   -0.1130   -0.1057   -0.0102    0.2489   -0.3602    0.0448   -0.0630
    0.3706   -0.3398    0.0965   -0.0099    0.3047   -0.2113    0.0587   -0.0168    0.1902   -0.2165
   -0.0601   -0.1626    0.1553   -0.0396   -0.0741   -0.0190    0.0949   -0.1381    0.0433   -0.0215
    0.0849   -0.0206    0.0480    0.0357   -0.0291   -0.1367   -0.0072   -0.0597   -0.0847   -0.0390
   -0.0264   -0.0482   -0.0732   -0.0707   -0.0274    0.1158   -0.0149   -0.1220   -0.1135    0.0264
    0.1304   -0.0172   -0.0424    0.0070    0.1236   -0.0617    0.1093   -0.0134    0.0328   -0.0187
    0.0896   -0.0286    0.0177    0.0272    0.0239   -0.0091    0.0889    0.0568    0.0575    0.0311
   -0.0423   -0.0315   -0.0821   -0.0536   -0.0450    0.0408   -0.1788    0.2252    0.2739    0.0336
   -0.0360    0.0773   -0.0124    0.0712    0.0132   -0.1486   -0.0396    0.0555    0.0000
   -0.5806    0.3752    0.1255    0.0149   -0.4857    0.3015    0.1244    0.0391   -0.3131    0.2013
    0.1083   -0.0266   -0.3293    0.1266    0.1649    0.0636   -0.1840    0.1718    0.1111    0.0277
   -0.2311    0.0893    0.0015    0.0013   -0.1861    0.1034    0.0152   -0.1436   -0.1117   -0.0028
    0.0565   -0.0964   -0.2136    0.1423   -0.0256   -0.1580   -0.3517    0.1495   -0.0412   -0.0276
   -0.3992    0.2292   -0.0620    0.0118   -0.3492    0.0946    0.0070    0.0912   -0.2253   -0.0302
    0.0957    0.0397   -0.1579    0.0651    0.0321   -0.0001   -0.1637   -0.0072   -0.0604   -0.0621
   -0.2724    0.0309    0.0914    0.0035   -0.2682    0.0376    0.0354   -0.1532   -0.2465    0.2220
   -0.0791   -0.1932   -0.3345    0.1746    0.0382   -0.0676   -0.3293    0.2789   -0.0532   -0.1474
   -0.2819    0.3098    0.0679    0.0528   -0.0487   -0.0522   -0.0984   -0.0711   -0.1430    0.0396
    0.0356   -0.0920   -0.0119   -0.0360   -0.0386   -0.0412    0.0875    0.1236   -0.0348   -0.0269
    0.1091    0.1601   -0.0063    0.0891    0.0061   -0.0935   -0.0619   -0.2637   -0.1267    0.0754
    0.1953   -0.0295    0.0011    0.0167    0.0913    0.0957   -0.0671   -0.1454    0.0000
    0.1238   -0.1543   -0.0309   -0.0950    0.1849   -0.1218   -0.0517   -0.1535    0.1188    0.0089
   -0.1230   -0.0523   -0.0044   -0.0553   -0.0480   -0.1418    0.1321   -0.0077   -0.0495   -0.0722
    0.0697   -0.0558   -0.0870   -0.1105    0.0287   -0.1457    0.0681   -0.0682    0.1227   -0.1664
    0.0549   -0.0148    0.0788   -0.1380    0.0694    0.0248    0.3241   -0.4043    0.0336   -0.0919
    0.4435   -0.4111   -0.0156   -0.0822    0.3284   -0.1991   -0.0812   -0.0568    0.2244   -0.1528
    0.0448   -0.0127    0.1927   -0.2073   -0.0112    0.0941    0.0710   -0.0641    0.0215    0.1255
   -0.0005   -0.0257    0.0489   -0.0291    0.0919   -0.0958   -0.0631    0.0663   -0.0721   -0.0426
   -0.0204    0.1184   -0.0797   -0.1383   -0.0837    0.0353    0.1220   -0.1947    0.0175   -0.0758
    0.0836   -0.1035    0.0444   -0.0630    0.0299    0.0525    0.0179    0.0281    0.0438    0.0238
    0.0390   -0.0999    0.1063   -0.0014   -0.0116   -0.0619   -0.0543   -0.0819   -0.0037    0.0743
    0.0292   -0.0516    0.0120   -0.0808    0.0760   -0.0119   -0.1007    0.1865    0.2630   -0.1241
   -0.1070   -0.0547    0.1100   -0.0583   -0.0311    0.0472    0.0742    0.0496    0.0000
   -0.0705   -0.0053    0.0530    0.0187   -0.0674    0.0708    0.0933    0.1499    0.0993    0.0692
    0.0234   -0.0137    0.1147   -0.0431    0.1084    0.0520   -0.0123    0.0902    0.1276    0.1334
   -0.0591   -0.0499    0.0285    0.0428   -0.0386   -0.0461   -0.0338    0.0401   -0.0403    0.0548
    0.0071    0.0694   -0.0521    0.0809   -0.0667   -0.0026   -0.2765    0.2918   -0.0486    0.0486
   -0.2646    0.3341    0.0858    0.0677   -0.1987    0.2303    0.0805   -0.0055   -0.1860    0.2168
   -0.0010    0.0729   -0.1685    0.0606    0.1019    0.0353   -0.0940    0.0982    0.0282   -0.0830
   -0.0927    0.0267    0.1068   -0.0137    0.0111    0.0559    0.1104   -0.0690    0.0150    0.1600
    0.0528   -0.0744    0.0496    0.0838   -0.0752   -0.0936    0.0493    0.1457    0.0200    0.0306
    0.0223   -0.0161    0.0921    0.0095   -0.0575    0.0674   -0.0102   -0.0972    0.0017   -0.0404
    0.0684   -0.0655   -0.0450   -0.0086   -0.0371    0.0029   -0.0674   -0.0507    0.1045   -0.1052
    0.1146    0.0501    0.0176    0.1541    0.0629    0.0303    0.0530   -0.2456   -0.1888    0.1049
    0.1341   -0.0633   -0.1007    0.0483    0.0779    0.1124   -0.0480    0.0592    0.0000
    0.0409   -0.0956   -0.1149   -0.1007    0.1438    0.0001   -0.1516   -0.1647   -0.0495    0.0550
   -0.0199   -0.0520    0.0840    0.0435    0.0054   -0.1276    0.0806   -0.0579   -0.1165    0.0187
    0.0392   -0.0773   -0.1251   -0.1302   -0.0474   -0.1239    0.0634    0.0290    0.0240   -0.0201
    0.0274   -0.0067    0.0524   -0.2627   -0.0314   -0.0943    0.3150   -0.3282   -0.0488   -0.0737
    0.4250   -0.4748   -0.0002    0.0315    0.3321   -0.3218   -0.1161   -0.0334    0.1064   -0.2088
   -0.0501   -0.1571    0.1089   -0.0568   -0.0062    0.0858    0.0021   -0.0745    0.0653   -0.0526
    0.0075   -0.1199   -0.1032   -0.0181    0.1216   -0.0719   -0.0545    0.0679   -0.0403   -0.0660
   -0.0106    0.0566   -0.0871   -0.0838    0.0495    0.1056    0.0184   -0.0652   -0.0693   -0.0344
    0.0539   -0.0688   -0.0251   -0.1072    0.1260    0.0731    0.0961    0.0339   -0.0085   -0.0656
    0.0514   -0.0367    0.1232   -0.1102    0.0880   -0.0887   -0.0615    0.0047    0.0225    0.0726
   -0.1220    0.0128   -0.1426   -0.1034    0.0042   -0.0851   -0.0005    0.2282    0.3361   -0.1066
   -0.1366   -0.0253    0.1506   -0.1103   -0.1261   -0.1053    0.0374   -0.0023    0.0000
    0.0438   -0.0320    0.0595    0.1023   -0.0354   -0.0689   -0.0763   -0.0674    0.0986   -0.0719
    0.0377    0.0058    0.0611    0.0260   -0.0831    0.0920   -0.0402   -0.0848   -0.0939    0.0459
    0.0625    0.0661    0.0794   -0.0194    0.0493   -0.0337    0.0716    0.0147    0.0218   -0.0492
   -0.0065    0.0021    0.0030    0.0603   -0.0131    0.0441   -0.0036    0.0813   -0.0990    0.0521
   -0.0712    0.0886    0.0965   -0.0737    0.1027   -0.0024    0.0123    0.0215    0.0226    0.0839
    0.0598   -0.0494   -0.0270   -0.0485    0.0843    0.0362   -0.0370    0.0848    0.0685   -0.0017
   -0.0274   -0.0165   -0.0296    0.0300    0.0658   -0.0584   -0.0099    0.0313   -0.0163    0.0455
   -0.0366   -0.0894    0.0940   -0.0751   -0.0877   -0.0159    0.0535   -0.0905    0.0435   -0.0564
    0.0343   -0.0747   -0.0937    0.0620    0.0032   -0.0848   -0.0159   -0.0297    0.0027   -0.0856
   -0.0134   -0.0477    0.0219   -0.0019   -0.0672   -0.0359   -0.0855   -0.0926   -0.0908    0.0543
   -0.0750    0.0551    0.0132    0.0189    0.0370    0.0216   -0.0369   -0.0977   -0.1267    0.0508
   -0.0855   -0.0450    0.0095   -0.0972    0.0139   -0.0358   -0.0525   -0.0816    0.0000
   -0.0053    0.0311    0.0604    0.0731    0.0188    0.0943   -0.0189    0.1867    0.0251    0.0193
   -0.0542    0.1101   -0.0139   -0.0506    0.0682   -0.0249    0.0861    0.0448   -0.0153    0.0746
    0.0753   -0.0191   -0.0397    0.1736    0.0068    0.0540   -0.0685    0.0966   -0.0147    0.0227
   -0.0321    0.0289   -0.1670    0.1886    0.0332    0.0873   -0.0926    0.2907   -0.0086   -0.0480
   -0.2337    0.2787   -0.0165   -0.0185   -0.2445    0.2459    0.0654    0.0663   -0.2041    0.1583
   -0.0663    0.0760   -0.1263    0.1773   -0.0646    0.0878   -0.1233    0.1150    0.0549    0.0234
   -0.0615    0.0343   -0.0282   -0.0003   -0.0521    0.0038   -0.0267    0.0532   -0.0623    0.1262
    0.0167    0.0065   -0.0269    0.0453    0.0622   -0.0921   -0.0792    0.0218    0.1120   -0.0275
   -0.0863   -0.0031    0.0254    0.0590   -0.0721    0.0716   -0.0978   -0.0104   -0.0460   -0.0022
   -0.0328    0.0242    0.0186   -0.0278   -0.0239    0.0943    0.0166    0.0977   -0.0189   -0.0320
    0.0350    0.0016    0.0036    0.0082    0.0842   -0.0514    0.0401   -0.1079   -0.1968    0.0649
    0.0810   -0.1269    0.0366    0.0839    0.1143   -0.0029    0.0660   -0.0520    0.0000
    0.1194   -0.0206    0.1060   -0.0128    0.1017   -0.0831    0.0563    0.1023    0.0449   -0.0838
    0.1240    0.0916    0.1621   -0.0013    0.1317    0.0286    0.0191   -0.0504   -0.0422   -0.0002
    0.0734   -0.0092   -0.0270    0.0169    0.0087    0.1067    0.0857    0.0903   -0.0923    0.0771
    0.0735    0.0713   -0.1798    0.2503   -0.0687    0.0130   -0.1675    0.3345   -0.0304    0.0519
   -0.4468    0.5164   -0.0694    0.0346   -0.3144    0.4346    0.0984    0.1923   -0.0916    0.2837
   -0.0320    0.0164   -0.0703    0.1167    0.0887    0.0178   -0.1525    0.2522    0.0739    0.0379
   -0.0927    0.0756   -0.0705    0.0207   -0.0942    0.0935    0.0851    0.0955   -0.1054    0.1586
   -0.0508   -0.1392   -0.0189    0.2153    0.1098    0.0073   -0.1115    0.2374    0.1116    0.0881
   -0.0071    0.2529    0.0623   -0.0042   -0.0901   -0.0563   -0.0998   -0.0033   -0.0313   -0.0329
    0.0798    0.0105   -0.0356    0.0071   -0.0141    0.1179   -0.0050   -0.0528   -0.0473   -0.1259
    0.0211    0.0142   -0.0173    0.1821   -0.0700    0.1379    0.0982   -0.2471   -0.3142   -0.0629
    0.1174   -0.0982    0.0100    0.0860    0.0333   -0.0117    0.0329   -0.1209    0.0000
   -0.0803    0.0286    0.1451    0.0832   -0.0669    0.0291    0.0030    0.0331    0.0263    0.0027
    0.1345    0.1004   -0.0585    0.0805    0.0866   -0.0098   -0.0379   -0.0943   -0.0107    0.0273
    0.0767    0.0650    0.0178    0.0035   -0.0193   -0.0510    0.0384    0.0266   -0.1139    0.1797
    0.0457    0.0853   -0.1532    0.1422   -0.0796   -0.0776   -0.1214    0.1790    0.0354   -0.0816
   -0.2991    0.2896    0.0221   -0.0308   -0.2074    0.2605   -0.0803    0.0347   -0.0490    0.2353
   -0.0691    0.0272   -0.1400    0.0915    0.0250    0.0287   -0.0153    0.0182   -0.0396   -0.1124
    0.0538    0.1817   -0.0406   -0.0124    0.0242    0.0605    0.0406   -0.0470    0.0846   -0.0154
    0.0411    0.0253   -0.0701    0.1363    0.0229   -0.0879   -0.0180    0.0092   -0.0666   -0.0016
    0.0375    0.0069   -0.0111    0.0537    0.0169   -0.0009   -0.1042    0.0355   -0.0660   -0.1020
    0.0412    0.1188   -0.0068    0.1149    0.0468   -0.0746    0.0984    0.0524   -0.0056    0.0600
    0.1104    0.0973    0.0149   -0.0139   -0.0262    0.0442    0.1297   -0.2457   -0.2543    0.1208
    0.0414    0.0044   -0.1311    0.0236   -0.0085   -0.0615    0.0436   -0.1109    0.0000
    0.3253   -0.4488   -0.1862   -0.0867    0.4278   -0.3455   -0.1740   -0.0785    0.2377   -0.2657
   -0.1605   -0.0537    0.2227   -0.3475   -0.1771   -0.0678    0.2824   -0.2541   -0.0865   -0.1877
    0.1631   -0.3474    0.0138   -0.2244    0.1301   -0.3320    0.0525    0.0159    0.2484   -0.4246
    0.0322    0.0015    0.2944   -0.5216   -0.1155    0.1225    0.4908   -0.6279   -0.1024    0.0619
    0.6237   -0.8201   -0.0521    0.0140    0.2452   -0.3185   -0.0132   -0.0835    0.0664   -0.1198
    0.0468   -0.0711   -0.1110   -0.1084   -0.0903    0.0661   -0.1908    0.0351   -0.0461   -0.0570
   -0.1364    0.1252   -0.0869   -0.0315   -0.3115    0.0364   -0.0265    0.0487   -0.3789    0.2031
   -0.0993    0.0480   -0.3256    0.1692   -0.0959   -0.0159   -0.2454    0.0455   -0.0318   -0.0752
   -0.3071    0.1588   -0.1438   -0.0993    0.0610   -0.0269    0.1938    0.0068    0.0024    0.0811
    0.1066   -0.0180    0.1675   -0.1114    0.0446   -0.1304   -0.0043   -0.1572   -0.0368    0.1038
   -0.1215   -0.0655   -0.1711   -0.1974    0.0830   -0.2078   -0.1636    0.2147    0.4444   -0.0815
   -0.2125   -0.0861    0.0294   -0.1288   -0.0477   -0.0978    0.0124   -0.0579    0.0000
   -0.0612   -0.0310    0.0027   -0.0331   -0.1243    0.0846    0.0890   -0.0308   -0.0863    0.0443
    0.1314    0.1094    0.0162   -0.0387    0.1268   -0.0125    0.0391    0.1067    0.1129    0.1278
    0.0535    0.1201    0.0446    0.0198   -0.0387    0.0322    0.0448    0.1030   -0.0659    0.1356
    0.0801   -0.0834   -0.2268    0.1241   -0.0143    0.0387   -0.2902    0.2978    0.0001   -0.1175
   -0.2341    0.3130    0.0714    0.0836   -0.1467    0.2579   -0.0454    0.0076   -0.0651    0.0594
   -0.0446    0.1264   -0.0756    0.0099    0.0270    0.0368   -0.0587    0.0541    0.0314    0.0362
   -0.1052    0.1379    0.0477   -0.0324   -0.0138    0.0728    0.0695   -0.0108   -0.0875    0.0737
    0.0805   -0.0085   -0.0182    0.1094   -0.0325   -0.0673   -0.1145    0.0102   -0.0375   -0.0199
   -0.1200    0.0101    0.0133   -0.0779   -0.0013   -0.0545   -0.1359   -0.0958   -0.0468   -0.1135
   -0.0032    0.0358   -0.0251   -0.0285    0.0359    0.0930   -0.0563    0.0822    0.0359    0.0489
    0.0098   -0.0103    0.0766    0.0146   -0.0376    0.0743    0.0781   -0.1763   -0.1573   -0.0578
    0.1212    0.0526    0.0046    0.1138   -0.0174   -0.0252   -0.0147   -0.1325    0.0000
 ***                         junction second layer: row=numhid+ (10F10.4)
    1.2554   -1.2417
    0.3144   -0.3163
   -1.3060    1.3139
   -1.0713    1.0865
    0.8725   -0.8469
   -1.2342    1.2863
    1.0436   -1.0848
   -0.7202    0.7360
    1.0151   -0.9706
   -0.0250    0.0208
   -0.7151    0.6403
   -0.9825    0.9579
   -0.6889    0.6240
    1.8003   -1.8578
   -0.7053    0.7241
    0.2508   -0.2000
    0.0000    0.0000
END
