********************************************************************************
***                                                                          ***
*** Secondary Structure Prediction by a Layered Network                      ***
*** ~~~~~~~~~~~~~~~~~~~~~~~~~~~~~~~~~~~~~~~~~~~~~~~~~~~                      ***
***                                                                          ***
*** Burkhard Rost, EMBL, Heidelberg, FRG                                     ***
*** (Internet: rost@EMBL-Heidelberg.DE)                                      ***
*** file containing the architecture in PHD format                           ***
*** Sun Aug 21 19:38:06 1994                                                 ***
***                                                                          ***
*** cryptic:     Tm69d-w21h3-rcicld-A                                        ***
***                                                                          ***
********************************************************************************
***                                                                          ***
 prediction type:   SECONDARY                     
 network type:      FIRST 

 input type:        P-REAL-CICLD
 NUMIN:                537
 NUMHID:                 3
 NUMOUT:                 2
 NCODEUNT:              24
 NUMNEIGH:              10
 *****
 *****
   number of layers: 2       junction first layer: row=numhid (10F10.4)
   -0.0873   -0.1619   -0.1631    0.0171   -0.1537   -0.1150   -0.0974    0.0067   -0.1755    0.0909
    0.0033    0.0705   -0.0155    0.0504    0.1423    0.0918    0.0944    0.0580   -0.0261    0.0717
    0.1350    0.0688   -0.0948   -0.0941   -0.0998   -0.1486   -0.2494    0.0581   -0.2154   -0.1886
   -0.0481   -0.0934   -0.1682    0.0118    0.0634    0.0099   -0.0174    0.0550    0.0789    0.1719
    0.0594    0.1505    0.0564    0.1677    0.1098    0.0443   -0.0098    0.0873   -0.1238   -0.1565
   -0.2799    0.0108   -0.2467   -0.1677    0.0972    0.0126   -0.0628    0.0082    0.1159   -0.0409
   -0.0549   -0.0199    0.1250    0.1210    0.0447    0.1902    0.1428    0.1941    0.0236   -0.0742
    0.0350   -0.0827   -0.0510   -0.1848   -0.2719   -0.0348   -0.1608    0.0008   -0.0387    0.0193
   -0.0293    0.0808    0.0025   -0.0623    0.0657    0.0598    0.1314    0.1905    0.0588    0.0884
    0.1670    0.0893    0.0237   -0.0033   -0.0560    0.0631   -0.2445   -0.1712   -0.2782    0.0287
   -0.2263    0.0097   -0.0795   -0.0247   -0.0091    0.0405    0.0390    0.0126    0.0271   -0.0333
    0.2144    0.1732    0.0484    0.2642    0.1212    0.2270    0.1271    0.0703   -0.0270   -0.0407
   -0.2963   -0.2263   -0.2835   -0.0746   -0.1821   -0.0461    0.0066    0.0434   -0.0991    0.0645
    0.0030   -0.1418    0.0589   -0.0155    0.1853    0.1613    0.1478    0.1880    0.1248    0.1624
    0.0118   -0.0127    0.0582    0.0392   -0.1631   -0.2861   -0.3789   -0.1258   -0.3239   -0.0123
   -0.1034    0.0604   -0.0747    0.0458   -0.0073   -0.0284   -0.0058    0.1136    0.1711    0.2503
    0.2063    0.2664    0.1097    0.2791    0.0989   -0.0251    0.0880    0.0458   -0.2440   -0.2465
   -0.3947   -0.0844   -0.2171   -0.1461    0.0256    0.0408   -0.0426    0.0393    0.0743    0.0639
    0.0272    0.0755    0.2126    0.2412    0.1933    0.3373    0.1837    0.2605   -0.0058   -0.1238
    0.0108    0.0403   -0.3673   -0.2950   -0.4206   -0.1112   -0.3055   -0.0910   -0.1615   -0.0245
   -0.0997    0.0770    0.0130   -0.0763   -0.0950    0.1452    0.2503    0.1888    0.1708    0.2547
    0.0666    0.2050   -0.0717   -0.0569    0.1272    0.0915   -0.3568   -0.3878   -0.4227   -0.1805
   -0.2574   -0.0410   -0.0986   -0.0269   -0.2635    0.0838    0.1134   -0.0433   -0.1112    0.0515
    0.2211    0.3097    0.2087    0.3863    0.1296    0.2709    0.0851   -0.1363    0.0186    0.0865
   -0.4239   -0.4192   -0.5996   -0.1601   -0.3245   -0.1269   -0.0852    0.0115   -0.2283    0.2428
    0.0518   -0.0226    0.0384    0.0306    0.4255    0.3903    0.1041    0.2661    0.2557    0.2502
    0.0565   -0.0489    0.0630    0.1006   -0.3071   -0.4186   -0.4800   -0.1830   -0.3429   -0.1058
   -0.0847   -0.0407   -0.1626    0.1944    0.0223    0.0455   -0.0516    0.0323    0.3823    0.2340
    0.1375    0.3181    0.1529    0.3437   -0.0830   -0.0931    0.0088    0.1448   -0.2329   -0.4296
   -0.4951   -0.0728   -0.1944   -0.0474   -0.1214   -0.0464   -0.1534    0.1526   -0.0379   -0.0226
   -0.1455    0.1474    0.3013    0.1721    0.1254    0.2365    0.1446    0.1834    0.0014   -0.0292
    0.0821    0.1048   -0.3282   -0.2969   -0.4061   -0.1712   -0.3112   -0.0883   -0.1594    0.0469
   -0.1063    0.1646    0.0099    0.1065   -0.0107    0.1132    0.1075    0.2937    0.2514    0.3199
    0.0645    0.2801   -0.0322   -0.1693    0.0143    0.0059   -0.2388   -0.3479   -0.3028   -0.0735
   -0.1956   -0.0082   -0.0580   -0.0319   -0.1762    0.1616    0.1027   -0.0041   -0.0722    0.1000
    0.1489    0.1253    0.1565    0.2043    0.1349    0.2628   -0.0149   -0.1584   -0.0137   -0.0187
   -0.2414   -0.1871   -0.2993   -0.1684   -0.2568    0.0185   -0.0239    0.0298   -0.0395    0.2807
   -0.0053   -0.0009   -0.0298    0.0895    0.1444    0.2258    0.1583    0.1985    0.0010    0.1446
   -0.0085   -0.1037    0.0930    0.1059   -0.1914   -0.1736   -0.2266   -0.1259   -0.2611   -0.1187
   -0.0080   -0.0249   -0.0575    0.2678    0.0573    0.0633   -0.0415    0.0932    0.0752    0.1449
    0.1298    0.2327    0.0852    0.2070    0.0071   -0.0693    0.1142    0.0951   -0.2623   -0.2928
   -0.2410   -0.0406   -0.1971    0.0092   -0.0849   -0.0022   -0.1728    0.0738    0.0382   -0.0251
    0.0003    0.0187   -0.0074    0.0646    0.1983    0.1055    0.0255    0.2261    0.1000   -0.0609
    0.0776   -0.0209   -0.1486   -0.1650   -0.2424   -0.0419   -0.2450   -0.0242   -0.0676    0.0761
   -0.1541    0.1454    0.0259   -0.0487   -0.0993    0.1183   -0.0113    0.0050    0.0360    0.2018
    0.1096    0.2213   -0.0373   -0.1069    0.0670   -0.0379   -0.2529   -0.1427   -0.1218   -0.1364
   -0.1699   -0.0899   -0.0749    0.0590   -0.0116    0.1142    0.0403    0.0276    0.0016    0.1322
    0.0698    0.0102    0.0113    0.1777    0.0437    0.1831    0.0734   -0.0586   -0.0021   -0.0394
   -0.2112   -0.1767   -0.1179    0.0037   -0.1081   -0.0830    0.0429    0.0228   -0.0346    0.1669
   -0.0354   -0.0538   -0.0181    0.0538    0.0777    0.1376    0.0880    0.0720    0.1173    0.1328
    0.1271   -0.0522    0.0745    0.0068   -0.2763   -0.0748   -0.2654   -0.1079   -0.3353   -0.0492
   -0.2299   -0.2253   -0.2254   -0.2073   -0.0330   -0.1747   -0.0208    0.0059   -0.0343   -0.1022
    0.0207    0.0294   -0.0165    0.0247    0.0684    0.2966    0.3468    0.2236    0.5444    0.1560
    0.2179    0.2136    0.0902    0.0155    0.0999   -0.0626    0.0712    0.3671    0.0000
   -0.0081   -0.1987   -0.2401    0.0684   -0.2299   -0.2921    0.0178   -0.1072   -0.3073    0.1109
    0.1387   -0.0118   -0.0157   -0.0016    0.0659   -0.0036    0.1281    0.2076    0.1152    0.1024
    0.2987    0.0973   -0.0745    0.0256   -0.0488   -0.2298   -0.2523    0.1014   -0.2113   -0.1751
    0.0282    0.0036   -0.2027    0.1766    0.1326    0.0498   -0.0362    0.0375    0.1498    0.1116
    0.1623    0.1799    0.1209    0.0444    0.2199    0.0813    0.0640    0.0482   -0.0455   -0.2859
   -0.2205    0.0590   -0.3518   -0.1997    0.0585   -0.0038   -0.2719    0.1187    0.0821    0.0574
   -0.1172    0.0842    0.1657    0.1935    0.1752    0.1891    0.0948    0.1067    0.1313    0.0128
    0.0850    0.0916   -0.0761   -0.2520   -0.3127    0.0103   -0.3418   -0.0888    0.0052    0.0021
   -0.1604    0.1015    0.1193   -0.0596    0.0029   -0.0018    0.1946    0.1430    0.1256    0.2986
    0.0822    0.1419    0.0449   -0.0062   -0.0415    0.0646   -0.2836   -0.2644   -0.4437   -0.0194
   -0.3526   -0.1224   -0.0292    0.0403   -0.1289    0.0203    0.0913   -0.0277    0.0007    0.0416
    0.2391    0.2516    0.1876    0.2144    0.0448    0.3160    0.0040   -0.0458    0.1016    0.0950
   -0.4040   -0.3353   -0.4587   -0.2079   -0.3159   -0.0199   -0.0982   -0.0247   -0.1555    0.0738
    0.0919   -0.0034   -0.0394    0.0863    0.2249    0.1920    0.2748    0.4003    0.1392    0.3796
    0.1152   -0.0200    0.0573    0.0086   -0.4098   -0.3491   -0.5297   -0.2000   -0.3112   -0.0985
   -0.0328    0.0107   -0.0887    0.2172    0.0593    0.0527    0.0523    0.1261    0.2413    0.2885
    0.2522    0.3608    0.1722    0.3926    0.0595    0.0013    0.1130   -0.0095   -0.4289   -0.3806
   -0.5529   -0.0916   -0.3830   -0.0418   -0.1739   -0.0056   -0.1894    0.2218    0.1126    0.0491
   -0.0136    0.0712    0.2525    0.3842    0.3362    0.3531    0.1939    0.3305    0.0378    0.0009
    0.0024    0.1360   -0.4385   -0.3806   -0.6614   -0.0991   -0.3686   -0.1802   -0.1955   -0.0181
   -0.2407    0.2116    0.1386    0.0647   -0.0838    0.1664    0.3743    0.3420    0.3488    0.4387
    0.2236    0.4658   -0.0618   -0.0878   -0.0024    0.1127   -0.4990   -0.3976   -0.7046   -0.1167
   -0.3860   -0.1620   -0.1506    0.0964   -0.2567    0.2240    0.1369    0.0801   -0.1529    0.1399
    0.5238    0.4862    0.3537    0.4718    0.4025    0.4319    0.0894   -0.0560    0.1062    0.1533
   -0.5526   -0.6450   -0.7144   -0.2993   -0.5052   -0.2068   -0.1709   -0.0601   -0.3641    0.2065
    0.0575    0.0658   -0.1307    0.1619    0.5678    0.5982    0.3211    0.5680    0.3454    0.4464
    0.0512   -0.1508    0.1129    0.0829   -0.5329   -0.4986   -0.7154   -0.1372   -0.4306   -0.1844
   -0.1698   -0.0182   -0.3504    0.3797    0.0488    0.0634   -0.0728    0.2078    0.4803    0.4976
    0.2866    0.4851    0.2870    0.4066   -0.0517   -0.0937    0.0209    0.1220   -0.4630   -0.4889
   -0.6023   -0.1361   -0.3706   -0.1601   -0.2143    0.0065   -0.2319    0.3158   -0.0095    0.0776
   -0.0574    0.1836    0.4062    0.4190    0.2242    0.3746    0.2487    0.3196    0.0885   -0.1420
    0.0762    0.1528   -0.3006   -0.4621   -0.6598   -0.2448   -0.3346   -0.1610   -0.2297   -0.0374
   -0.1926    0.3544   -0.0160    0.0049   -0.0940    0.1567    0.3419    0.2531    0.1769    0.4081
    0.1361    0.3287   -0.0179   -0.1161    0.1748    0.0000   -0.2947   -0.3740   -0.5602   -0.1784
   -0.3238   -0.1933   -0.1787   -0.0066   -0.1600    0.3368   -0.0322    0.0464    0.0034    0.1559
    0.2174    0.2710    0.2173    0.3317    0.0616    0.2435    0.1346   -0.1348    0.1565    0.0010
   -0.3008   -0.3982   -0.3824   -0.1155   -0.3302   -0.1116   -0.0520    0.0222   -0.1955    0.2455
    0.0509    0.1007   -0.0705    0.1731    0.2443    0.1655    0.2718    0.3333    0.1063    0.3259
    0.0845   -0.1319    0.1478   -0.0036   -0.3052   -0.3492   -0.4097   -0.1554   -0.2899   -0.0897
   -0.0992   -0.0382   -0.1160    0.2278    0.1048    0.0301   -0.0644    0.1676    0.1893    0.1553
    0.1935    0.2656    0.1102    0.3167    0.1239   -0.0482    0.0965    0.0497   -0.2365   -0.2404
   -0.4059   -0.1069   -0.3135   -0.0554   -0.0179    0.0367   -0.1145    0.2971    0.1024    0.0321
   -0.0994    0.0712    0.1588    0.1805    0.1872    0.3681    0.1097    0.3142    0.0071   -0.0199
    0.1023   -0.0295   -0.2131   -0.2295   -0.3571   -0.2049   -0.2792   -0.0469   -0.0611    0.1089
   -0.0785    0.1581    0.1212    0.1010   -0.0090    0.0781    0.0266    0.0680    0.0718    0.3134
    0.0614    0.2011    0.0013    0.0016    0.0922    0.0231   -0.1631   -0.2469   -0.2798   -0.1947
   -0.2336    0.0033   -0.0432    0.0243   -0.1036    0.1846    0.0838    0.0613    0.0350    0.0699
    0.0448    0.1431    0.0605    0.2172    0.0890    0.1799    0.0958    0.0887    0.1115   -0.0326
   -0.1891   -0.2370   -0.1734   -0.1357   -0.2017   -0.0829   -0.0158    0.0971   -0.0019    0.1517
    0.0927    0.0015   -0.0456    0.0603    0.0160    0.0729    0.0940    0.3064    0.1250    0.2067
    0.1150   -0.0216   -0.0089    0.0236   -0.1743   -0.0675   -0.3859   -0.0460   -0.4141   -0.2023
   -0.0933   -0.1544   -0.2404   -0.1796    0.0699   -0.1540   -0.0304   -0.0542   -0.1717   -0.0062
   -0.0266    0.1607   -0.1329   -0.0226   -0.0536    0.5587    0.4228    0.3055    0.4940    0.1734
    0.3981    0.4151    0.1551    0.0513    0.1047    0.0596   -0.0254    0.3230    0.0000
   -0.1173   -0.0663   -0.1908    0.0701   -0.1417   -0.1163    0.0412   -0.1265   -0.0905    0.0695
    0.0298   -0.0872   -0.0040    0.0585    0.1465    0.1354    0.0449    0.1224    0.0279    0.1626
    0.1798    0.0261   -0.0487   -0.0250   -0.0276   -0.1798   -0.0926   -0.0108   -0.1172   -0.1246
    0.0679   -0.0865   -0.1175    0.0161    0.0990    0.0620   -0.0982    0.1279    0.0745    0.1026
    0.0973    0.1708    0.1299    0.1640    0.0809   -0.0159   -0.0433    0.0776   -0.0455   -0.2239
   -0.1285    0.0545   -0.2057   -0.1682    0.0240    0.0239   -0.1236    0.1081    0.0027    0.0034
   -0.0145    0.0069    0.1542    0.0865    0.0171    0.2157    0.0068    0.0258    0.0967    0.0462
   -0.0642    0.0492   -0.1535   -0.2174   -0.3047   -0.1283   -0.1834   -0.0780   -0.0496   -0.0234
   -0.1591    0.0394    0.0087   -0.0079   -0.0738    0.0541    0.1117    0.0579    0.0668    0.0953
    0.0092    0.0662    0.1410   -0.0733    0.0712    0.0242   -0.1885   -0.1440   -0.2650   -0.0945
   -0.2841   -0.1540    0.0268   -0.0833   -0.1213    0.1063   -0.0603   -0.0395   -0.0502   -0.0327
    0.0964    0.1978    0.0945    0.2105    0.1030    0.1761    0.0542    0.0624   -0.0481    0.1102
   -0.2851   -0.2201   -0.4370   -0.0720   -0.2683   -0.1149    0.0003   -0.0563   -0.0558    0.0929
   -0.0133   -0.0460    0.0235   -0.0177    0.1389    0.2750    0.1251    0.2594   -0.0098    0.2671
    0.0445   -0.0688   -0.0134   -0.0020   -0.3468   -0.2881   -0.3956   -0.0286   -0.1855   -0.0138
   -0.0468   -0.0286   -0.0888    0.0215    0.0536   -0.0579   -0.0675    0.0184    0.2524    0.2001
    0.0793    0.2442    0.0632    0.2511   -0.0097    0.0180   -0.0450    0.0917   -0.3959   -0.3374
   -0.4051   -0.0782   -0.2582   -0.1275   -0.1097   -0.0169   -0.1689    0.0412    0.0356    0.0211
   -0.0739    0.0688    0.2263    0.2765    0.1464    0.2495    0.1650    0.2377   -0.0413   -0.0849
    0.1440   -0.0033   -0.4195   -0.3885   -0.4697   -0.0725   -0.3096   -0.0473   -0.1657   -0.0267
   -0.1714    0.1068    0.0849    0.0023   -0.0005    0.0280    0.2510    0.3601    0.2130    0.3303
    0.1141    0.2815    0.0330   -0.1505    0.0390   -0.0231   -0.3219   -0.4059   -0.5102   -0.0955
   -0.3294   -0.0421   -0.0937   -0.0673   -0.1105    0.1768    0.1061   -0.0548   -0.0283    0.0552
    0.2352    0.4188    0.1720    0.3439    0.1217    0.3901   -0.0798   -0.0913    0.0806    0.0285
   -0.4519   -0.4261   -0.5574   -0.0717   -0.3671   -0.0547   -0.1999   -0.0415   -0.2595    0.1273
   -0.0238    0.0074   -0.0483    0.0489    0.3372    0.3461    0.2967    0.4355    0.2744    0.2699
   -0.0123   -0.0082    0.0967   -0.0267   -0.3176   -0.4610   -0.4571   -0.0611   -0.2946   -0.1382
   -0.0488   -0.0360   -0.1946    0.1925    0.0026   -0.0181    0.0274    0.1861    0.4002    0.3826
    0.2249    0.2828    0.1575    0.3657   -0.0745   -0.0299    0.0971    0.0324   -0.2680   -0.3320
   -0.4395   -0.1423   -0.3494   -0.1568   -0.1010    0.0301   -0.2232    0.3059    0.1092   -0.0006
   -0.0586    0.0192    0.1609    0.3047    0.2364    0.4241    0.2004    0.2394    0.1032   -0.0221
    0.1770    0.1437   -0.1954   -0.3743   -0.4405   -0.1675   -0.3122   -0.1293   -0.1083    0.0127
   -0.1245    0.3206   -0.0096    0.0172   -0.0793    0.0928    0.2944    0.2273    0.0753    0.2224
    0.0558    0.2094   -0.0231   -0.1803    0.1663   -0.0405   -0.1955   -0.3005   -0.4559   -0.1965
   -0.3600   -0.0410   -0.1204    0.0444   -0.0438    0.1996   -0.0477    0.0505   -0.1287    0.0085
    0.1081    0.1994    0.2420    0.3109    0.0194    0.2266   -0.0146   -0.1206    0.0882    0.0251
   -0.2049   -0.2400   -0.3718   -0.0501   -0.2308   -0.1125   -0.1254   -0.0759   -0.1359    0.1783
    0.0452    0.0706   -0.0490    0.0395    0.1249    0.0968    0.1790    0.2651    0.0147    0.2996
    0.0775    0.0082    0.0308    0.0128   -0.3546   -0.2715   -0.2345   -0.1453   -0.1795   -0.1200
   -0.0325   -0.0299   -0.1372    0.1659   -0.0070    0.0631   -0.1207    0.0392    0.1583    0.2138
    0.0727    0.2285    0.0163    0.1597    0.0462   -0.0086    0.1345   -0.0736   -0.2534   -0.3060
   -0.1851   -0.0464   -0.2351   -0.0508    0.0226    0.0223   -0.0496    0.1008    0.0953   -0.0076
    0.0160    0.1488   -0.0055    0.1709    0.1338    0.1731    0.0388    0.1251   -0.0312   -0.0821
    0.1491   -0.0248   -0.2470   -0.1925   -0.1850   -0.0980   -0.2295    0.0213   -0.0406   -0.0538
   -0.0549    0.2160    0.0323    0.1474    0.0372   -0.0027    0.1675    0.0930    0.0942    0.2584
    0.1397    0.2103    0.0359   -0.1293    0.0547    0.0367   -0.1123   -0.2877   -0.2375    0.0226
   -0.2229    0.0592   -0.0699    0.0419   -0.0771    0.0230    0.0174   -0.0277   -0.1233    0.0200
    0.0312    0.0163    0.1424    0.2581    0.1537    0.1460    0.1377   -0.0183    0.1566   -0.0463
   -0.1031   -0.1477   -0.1678   -0.1595   -0.1145    0.0860    0.0394    0.0270   -0.1135    0.1226
    0.0100    0.0852   -0.0973    0.0231   -0.0390    0.1252    0.1509    0.2335   -0.0318    0.1759
    0.1066    0.0274   -0.0191   -0.1156   -0.1020   -0.0987   -0.2954   -0.1703   -0.2694   -0.0382
   -0.2169   -0.2634   -0.2191   -0.1207   -0.0126   -0.0847    0.0185    0.0099   -0.1262   -0.0242
   -0.0030   -0.0339   -0.1766   -0.0551    0.0975    0.3511    0.4224    0.3506    0.4215    0.1546
    0.3332    0.2232    0.0673   -0.0225   -0.0280    0.0024    0.0936    0.2294    0.0000
 ***                         junction second layer: row=numhid+ (10F10.4)
   -2.2366    2.1285
   -3.5808    3.6662
   -2.3869    2.3514
    2.9026   -2.8853
    0.0000    0.0000
END
