********************************************************************************
***                                                                          ***
*** Secondary Structure Prediction by a Layered Network                      ***
*** ~~~~~~~~~~~~~~~~~~~~~~~~~~~~~~~~~~~~~~~~~~~~~~~~~~~                      ***
***                                                                          ***
*** Burkhard Rost, EMBL, Heidelberg, FRG                                     ***
*** (Internet: rost@EMBL-Heidelberg.DE)                                      ***
*** file containing the architecture in PHD format                           ***
*** Mon Aug 15 18:27:10 1994                                                 ***
***                                                                          ***
*** cryptic:     Tm69a-w21h3-rcicld-A                                        ***
***                                                                          ***
********************************************************************************
***                                                                          ***
 prediction type:   SECONDARY                     
 network type:      FIRST 

 input type:        P-REAL-CICLD
 NUMIN:                537
 NUMHID:                 3
 NUMOUT:                 2
 NCODEUNT:              24
 NUMNEIGH:              10
 *****
 *****
   number of layers: 2       junction first layer: row=numhid (10F10.4)
   -0.0450   -0.1941   -0.1686   -0.0683   -0.1867   -0.0485   -0.0241   -0.0054   -0.1613    0.0422
    0.0027    0.0707    0.0409    0.0408    0.1326    0.0520    0.0903    0.0610   -0.0058    0.0952
    0.1048    0.0194   -0.0207   -0.0767   -0.0674   -0.1666   -0.2360   -0.0039   -0.2394   -0.1462
    0.0375   -0.1104   -0.1667   -0.0267    0.0848    0.0433   -0.0094    0.0372    0.0674    0.1194
    0.0551    0.1271    0.0692    0.2054    0.0936    0.0093    0.0489    0.0883   -0.1002   -0.1631
   -0.2545   -0.0314   -0.2130   -0.0982    0.0992   -0.0299   -0.0765   -0.0262    0.1368   -0.0285
   -0.0568   -0.0281    0.1079    0.0579    0.0621    0.1747    0.1682    0.2227    0.0154   -0.0818
    0.0826   -0.0932    0.0085   -0.2089   -0.2220   -0.0683   -0.1038    0.0152   -0.0309    0.0176
   -0.0811    0.0430    0.0323   -0.0500    0.0527    0.0566    0.1034    0.1739    0.0756    0.0612
    0.1870    0.0724    0.0207   -0.0186   -0.0129    0.0528   -0.1349   -0.2118   -0.2170    0.0025
   -0.1574    0.0130   -0.0384   -0.0413   -0.0707   -0.0171    0.0883    0.0354    0.0030    0.0003
    0.1800    0.1609    0.0654    0.1905    0.1289    0.1872    0.1322    0.0505    0.0095   -0.0497
   -0.1814   -0.2216   -0.2245   -0.0907   -0.1422   -0.0411    0.0431    0.0060   -0.1302    0.0060
    0.0573   -0.1191    0.0347    0.0054    0.1562    0.1258    0.1408    0.1210    0.1412    0.1286
    0.0217   -0.0066    0.0910    0.0348   -0.0775   -0.2758   -0.3079   -0.1179   -0.2411   -0.0029
   -0.0478    0.0418   -0.1174    0.0040    0.0184   -0.0482   -0.0336    0.1378    0.1664    0.2135
    0.2046    0.1948    0.0876    0.2278    0.1103   -0.0378    0.1049    0.0389   -0.1667   -0.2342
   -0.3251   -0.0905   -0.1811   -0.1298    0.0707    0.0363   -0.0833   -0.0083    0.0829    0.0827
    0.0338    0.1085    0.1973    0.1987    0.1845    0.2740    0.1848    0.2123    0.0032   -0.1144
    0.0126    0.0172   -0.2676   -0.2829   -0.3654   -0.1374   -0.2557   -0.0669   -0.1116   -0.0443
   -0.1346    0.0886    0.0209   -0.0619   -0.0839    0.1666    0.2205    0.1176    0.1420    0.2222
    0.0580    0.1540   -0.0650   -0.0167    0.1193    0.0539   -0.2272   -0.3555   -0.3624   -0.1879
   -0.1661   -0.0600   -0.0427   -0.0645   -0.2723    0.0776    0.1525   -0.0157   -0.0876    0.0632
    0.1803    0.2148    0.1797    0.3376    0.0725    0.2018    0.0871   -0.0837    0.0061    0.0530
   -0.3257   -0.3287   -0.5131   -0.1508   -0.2329   -0.1072   -0.0395   -0.0068   -0.2486    0.1716
    0.0757    0.0100    0.0429    0.0550    0.3290    0.2995    0.0704    0.2055    0.2213    0.1877
    0.0565   -0.0114    0.0515    0.0769   -0.2218   -0.3624   -0.4253   -0.1816   -0.3071   -0.0725
   -0.0351   -0.0287   -0.1454    0.1256    0.0643    0.0419   -0.0271    0.0246    0.3067    0.1794
    0.1320    0.2567    0.1182    0.2877   -0.0871   -0.0548   -0.0073    0.1203   -0.1658   -0.3491
   -0.4169   -0.0693   -0.1723   -0.0394   -0.0761   -0.0540   -0.1713    0.0710   -0.0083   -0.0258
   -0.1138    0.1495    0.2312    0.1226    0.1181    0.1757    0.1552    0.1493    0.0000    0.0104
    0.0611    0.0901   -0.2752   -0.1829   -0.3441   -0.1604   -0.2964   -0.0914   -0.1288    0.0588
   -0.1316    0.0848    0.0636    0.0843    0.0299    0.0963    0.0601    0.2451    0.2214    0.2838
    0.0706    0.2590   -0.0323   -0.1058   -0.0113    0.0077   -0.1545   -0.2352   -0.2354   -0.0689
   -0.2006   -0.0144   -0.0654    0.0237   -0.2040    0.0592    0.1387   -0.0471   -0.0421    0.0645
    0.1281    0.0998    0.1506    0.1655    0.1654    0.2431   -0.0102   -0.1266   -0.0342   -0.0178
   -0.1759   -0.0768   -0.2616   -0.1051   -0.2756   -0.0026   -0.0415    0.0746   -0.0822    0.2083
    0.0358    0.0025    0.0042    0.0450    0.1026    0.1587    0.1599    0.1489    0.0490    0.1344
    0.0001   -0.0959    0.0734    0.1081   -0.1051   -0.0894   -0.1823   -0.0942   -0.3111   -0.1326
   -0.0417   -0.0043   -0.0517    0.1800    0.0650    0.0810   -0.0152    0.0725    0.0695    0.0876
    0.1060    0.1749    0.1374    0.2095    0.0206   -0.0771    0.0912    0.0971   -0.2159   -0.2572
   -0.2056   -0.0036   -0.2194   -0.0196   -0.1244    0.0172   -0.1636    0.0299    0.0618    0.0026
    0.0021   -0.0104    0.0112    0.0309    0.1800    0.0697    0.0713    0.2133    0.1117   -0.0650
    0.0538   -0.0270   -0.0830   -0.1255   -0.1995   -0.0077   -0.2415   -0.0636   -0.0925    0.1048
   -0.1243    0.1199    0.0344   -0.0108   -0.0976    0.0700   -0.0473   -0.0288    0.0058    0.1738
    0.1364    0.2128   -0.0289   -0.1578    0.0502   -0.0368   -0.2055   -0.0980   -0.1096   -0.1145
   -0.1216   -0.1112   -0.0876    0.0574    0.0041    0.0507    0.0796    0.0430    0.0306    0.1012
    0.0739   -0.0224   -0.0090    0.1358    0.0548    0.1600    0.0794   -0.1651   -0.0048   -0.0263
   -0.1608   -0.1545   -0.1331    0.0180   -0.0122   -0.1005    0.0282    0.0061   -0.0152    0.0904
   -0.0435   -0.0157    0.0102    0.0570    0.0802    0.0894    0.0427    0.0277    0.1527    0.1565
    0.1309   -0.1625    0.0776    0.0303   -0.2572   -0.0523   -0.1967   -0.1159   -0.2492   -0.0215
   -0.2164   -0.1838   -0.1676   -0.2176   -0.0783   -0.2003   -0.0267    0.0223    0.0033   -0.1094
   -0.0136   -0.0345   -0.0182    0.0033    0.0684    0.1084    0.1567    0.0823    0.8369    0.1547
    0.1584    0.1886    0.0977    0.0211    0.1333   -0.0490    0.0745    0.1976    0.0000
    0.0529   -0.2683   -0.2716   -0.0676   -0.2836   -0.1888    0.1671   -0.1184   -0.2908    0.0476
    0.1276   -0.0227    0.0734   -0.0262    0.0394   -0.0616    0.1130    0.2198    0.1534    0.1387
    0.2365    0.0529    0.0519    0.0517    0.0072   -0.2782   -0.2269   -0.0118   -0.2637   -0.1102
    0.1737   -0.0125   -0.1981    0.1348    0.1719    0.0876   -0.0189    0.0026    0.1288    0.0188
    0.1521    0.1392    0.1492    0.0920    0.1869    0.0418    0.1661    0.0487   -0.0115   -0.3134
   -0.1777   -0.0145   -0.3012   -0.0932    0.0663   -0.0547   -0.2993    0.0817    0.1184    0.0505
   -0.1289    0.0674    0.1248    0.0859    0.2070    0.1740    0.1467    0.1417    0.1147    0.0201
    0.1670    0.0735    0.0023   -0.2888   -0.2340   -0.0528   -0.2502   -0.0762    0.0186   -0.0108
   -0.2641    0.0556    0.1641   -0.0512   -0.0274   -0.0090    0.1420    0.1190    0.1575    0.2481
    0.1353    0.1283    0.0386   -0.0057    0.0340    0.0469   -0.1231   -0.3639   -0.3402   -0.0650
   -0.2587   -0.1292    0.0242    0.0257   -0.2335   -0.0549    0.1746   -0.0170   -0.0343    0.0973
    0.1864    0.2453    0.2150    0.1056    0.0687    0.2438    0.0121   -0.0731    0.1679    0.0775
   -0.2360   -0.3709   -0.3659   -0.2376   -0.2623   -0.0160   -0.0339   -0.0810   -0.2352   -0.0172
    0.1677    0.0094   -0.0783    0.1271    0.1947    0.1586    0.2755    0.3002    0.1747    0.3227
    0.1331   -0.0027    0.1198   -0.0018   -0.2895   -0.3575   -0.4371   -0.1890   -0.1920   -0.0866
    0.0661   -0.0088   -0.1724    0.1329    0.0930   -0.0064    0.0059    0.1710    0.2577    0.2516
    0.2455    0.2429    0.1625    0.3143    0.0795   -0.0163    0.1463   -0.0226   -0.3210   -0.4084
   -0.4638   -0.1164   -0.3332   -0.0212   -0.0939   -0.0238   -0.2577    0.1502    0.1232    0.0523
   -0.0056    0.1319    0.2621    0.3305    0.3255    0.2648    0.2077    0.2596    0.0567    0.0212
    0.0099    0.0971   -0.3018   -0.4248   -0.5748   -0.1476   -0.3040   -0.1463   -0.1049   -0.0362
   -0.3070    0.2335    0.1370    0.0605   -0.0621    0.2055    0.3501    0.2503    0.3000    0.3965
    0.2092    0.3979   -0.0480   -0.0178   -0.0079    0.0511   -0.3175   -0.3919   -0.6277   -0.1326
   -0.2528   -0.1973   -0.0638    0.0315   -0.2928    0.2251    0.1833    0.1157   -0.1107    0.1683
    0.4801    0.3539    0.3063    0.4084    0.3241    0.3343    0.0937    0.0281    0.0920    0.0953
   -0.4254   -0.5693   -0.6114   -0.2915   -0.3845   -0.1728   -0.0770   -0.0832   -0.4213    0.1047
    0.0940    0.1027   -0.1240    0.2216    0.4412    0.4688    0.2688    0.4824    0.3009    0.3653
    0.0512   -0.0909    0.1021    0.0382   -0.4403   -0.4220   -0.6446   -0.1509   -0.3986   -0.1423
   -0.0728   -0.0059   -0.3280    0.2777    0.0931    0.0510   -0.0270    0.2076    0.3701    0.4259
    0.2780    0.4061    0.2351    0.3276   -0.0587   -0.0288    0.0033    0.0768   -0.3807   -0.4080
   -0.5243   -0.1279   -0.3609   -0.1511   -0.1393    0.0132   -0.2658    0.1901    0.0233    0.0710
    0.0042    0.1897    0.3108    0.3673    0.2170    0.2853    0.2742    0.2753    0.0855   -0.0694
    0.0490    0.1238   -0.2427   -0.3310   -0.5738   -0.2122   -0.3114   -0.1540   -0.1763   -0.0099
   -0.2527    0.2150    0.0499   -0.0366   -0.0339    0.1300    0.2728    0.1961    0.1371    0.3703
    0.1481    0.3043   -0.0202   -0.0191    0.1366   -0.0009   -0.1927   -0.1977   -0.4684   -0.1577
   -0.3572   -0.2025   -0.1945    0.0800   -0.2255    0.1784    0.0047   -0.0184    0.0605    0.0987
    0.1889    0.2350    0.2142    0.2832    0.1170    0.2248    0.1400   -0.0917    0.1285    0.0026
   -0.2203   -0.2585   -0.3538   -0.0001   -0.3956   -0.1488   -0.0921    0.1193   -0.2539    0.1363
    0.1047    0.1129   -0.0146    0.1038    0.1869    0.0673    0.2721    0.2583    0.2017    0.3169
    0.0956   -0.1189    0.1205    0.0003   -0.1984   -0.2151   -0.3754   -0.1008   -0.3751   -0.1146
   -0.1564    0.0070   -0.1382    0.1015    0.1002    0.0652   -0.0154    0.1299    0.1798    0.0766
    0.1593    0.1782    0.2107    0.3255    0.1422   -0.0568    0.0642    0.0510   -0.1930   -0.1740
   -0.3835   -0.0414   -0.3624   -0.1022   -0.0845    0.0627   -0.1112    0.2509    0.1149    0.0824
   -0.0885    0.0274    0.2008    0.1296    0.1557    0.3088    0.1926    0.3057    0.0244   -0.0347
    0.0683   -0.0418   -0.1305   -0.2017   -0.3085   -0.1447   -0.2759   -0.1118   -0.1008    0.1657
   -0.0270    0.1173    0.1318    0.1770    0.0007    0.0013   -0.0284    0.0156    0.0223    0.2641
    0.1004    0.1898    0.0093   -0.0753    0.0691    0.0214   -0.1167   -0.1860   -0.2658   -0.1522
   -0.1494   -0.0451   -0.0729    0.0400   -0.0981    0.0969    0.1265    0.0973    0.0915    0.0128
    0.0515    0.0966    0.0314    0.1592    0.1058    0.1381    0.0988   -0.0755    0.1102   -0.0161
   -0.1297   -0.2224   -0.2044   -0.1179   -0.0478   -0.1180   -0.0394    0.0909    0.0244    0.0311
    0.0648    0.0638    0.0130    0.0597    0.0144    0.0013    0.0197    0.2423    0.1814    0.2526
    0.1166   -0.1982   -0.0004    0.0595   -0.1648   -0.0141   -0.2819   -0.0614   -0.2950   -0.1665
   -0.0773   -0.0948   -0.1466   -0.2069   -0.0186   -0.2078   -0.0430   -0.0492   -0.1129   -0.0205
   -0.0919    0.0538   -0.1428   -0.0720   -0.0536    0.3330    0.1979    0.1679    1.0041    0.1695
    0.2784    0.3497    0.1373    0.0569    0.1570    0.0757   -0.0382    0.1255    0.0000
   -0.0804   -0.1030   -0.2006   -0.0233   -0.1723   -0.0398    0.1235   -0.1343   -0.0732    0.0177
    0.0202   -0.0879    0.0516    0.0443    0.1365    0.1011    0.0400    0.1247    0.0541    0.1833
    0.1412   -0.0232    0.0297   -0.0059    0.0073   -0.2039   -0.0860   -0.0795   -0.1441   -0.0715
    0.1559   -0.1056   -0.1039   -0.0214    0.1309    0.0911   -0.0885    0.1090    0.0647    0.0520
    0.0898    0.1419    0.1431    0.1894    0.0583   -0.0519    0.0185    0.0792   -0.0120   -0.2294
   -0.1048    0.0025   -0.1655   -0.0939    0.0286   -0.0198   -0.1256    0.0748    0.0247    0.0094
   -0.0118   -0.0033    0.1313    0.0163    0.0316    0.1998    0.0294    0.0433    0.0831    0.0387
   -0.0146    0.0383   -0.1066   -0.2324   -0.2524   -0.1686   -0.1106   -0.0569   -0.0462   -0.0293
   -0.1996    0.0019    0.0345    0.0070   -0.0946    0.0492    0.0772    0.0376    0.0888    0.0558
    0.0239    0.0543    0.1334   -0.0837    0.1160    0.0125   -0.0598   -0.1954   -0.1951   -0.1251
   -0.2189   -0.1473    0.0745   -0.0993   -0.1680    0.0431   -0.0139   -0.0185   -0.0728    0.0009
    0.0528    0.1850    0.1041    0.1262    0.1104    0.1288    0.0573    0.0475   -0.0091    0.1007
   -0.1534   -0.2154   -0.3702   -0.0842   -0.2297   -0.1047    0.0359   -0.1065   -0.0867    0.0377
    0.0380   -0.0299   -0.0041    0.0056    0.1054    0.2372    0.1150    0.1855    0.0128    0.2225
    0.0545   -0.0645    0.0215   -0.0064   -0.2379   -0.2727   -0.3146   -0.0135   -0.1041   -0.0039
    0.0091   -0.0479   -0.1278   -0.0331    0.0783   -0.0744   -0.0928    0.0412    0.2487    0.1537
    0.0665    0.1610    0.0366    0.1898    0.0019    0.0002   -0.0281    0.0848   -0.3061   -0.3138
   -0.3284   -0.0834   -0.2106   -0.1118   -0.0638   -0.0277   -0.1997   -0.0115    0.0462    0.0344
   -0.0676    0.1062    0.2086    0.2224    0.1286    0.1772    0.1641    0.1719   -0.0311   -0.0737
    0.1446   -0.0280   -0.3103   -0.3841   -0.3988   -0.0987   -0.2533   -0.0216   -0.1102   -0.0387
   -0.2002    0.1126    0.0901    0.0136    0.0171    0.0407    0.2134    0.2732    0.1773    0.2859
    0.1080    0.2279    0.0396   -0.0996    0.0294   -0.0611   -0.1789   -0.3662   -0.4352   -0.0875
   -0.2317   -0.0585   -0.0378   -0.1133   -0.1144    0.1661    0.1408   -0.0270   -0.0029    0.0625
    0.1869    0.3127    0.1337    0.2850    0.0583    0.3104   -0.0777   -0.0479    0.0644   -0.0061
   -0.3411   -0.3207   -0.4556   -0.0540   -0.2595   -0.0266   -0.1472   -0.0497   -0.2789    0.0480
   -0.0068    0.0275   -0.0427    0.0718    0.2246    0.2410    0.2559    0.3566    0.2317    0.1958
   -0.0123    0.0387    0.0831   -0.0549   -0.2150   -0.3819   -0.3843   -0.0635   -0.2553   -0.1103
    0.0110   -0.0229   -0.1687    0.1060    0.0399   -0.0295    0.0612    0.1744    0.3099    0.3191
    0.2100    0.2144    0.1146    0.3019   -0.0797    0.0236    0.0775    0.0026   -0.1885   -0.2449
   -0.3498   -0.1309   -0.3287   -0.1478   -0.0493    0.0262   -0.2391    0.2138    0.1455   -0.0170
   -0.0192    0.0177    0.0826    0.2539    0.2254    0.3460    0.2089    0.1957    0.1008    0.0271
    0.1520    0.1237   -0.1279   -0.2548   -0.3715   -0.1468   -0.2848   -0.1222   -0.0665    0.0334
   -0.1604    0.2182    0.0327   -0.0091   -0.0398    0.0690    0.2369    0.1684    0.0433    0.1856
    0.0575    0.1855   -0.0250   -0.1162    0.1355   -0.0417   -0.0998   -0.1760   -0.3705   -0.1794
   -0.3679   -0.0447   -0.1233    0.1136   -0.0926    0.0867   -0.0203    0.0076   -0.0952   -0.0345
    0.0840    0.1633    0.2290    0.2628    0.0500    0.2042   -0.0105   -0.0849    0.0639    0.0256
   -0.1265   -0.1216   -0.3349    0.0255   -0.2566   -0.1311   -0.1385   -0.0293   -0.1640    0.0952
    0.0917    0.0798   -0.0109   -0.0118    0.0720    0.0183    0.1689    0.2023    0.0678    0.2810
    0.0847    0.0204    0.0074    0.0156   -0.2604   -0.1802   -0.1813   -0.1091   -0.2197   -0.1357
   -0.0682   -0.0001   -0.1327    0.0694    0.0030    0.0808   -0.0874    0.0101    0.1400    0.1581
    0.0417    0.1584    0.0705    0.1496    0.0574   -0.0201    0.1071   -0.0706   -0.2063   -0.2535
   -0.1423   -0.0004   -0.2486   -0.0801   -0.0153    0.0352   -0.0473    0.0572    0.1148    0.0129
    0.0239    0.1184    0.0109    0.1366    0.1054    0.1257    0.0811    0.1100   -0.0203   -0.0904
    0.1196   -0.0326   -0.1768   -0.1545   -0.1434   -0.0597   -0.2232   -0.0182   -0.0693   -0.0263
   -0.0216    0.1871    0.0469    0.1803    0.0430   -0.0532    0.1297    0.0521    0.0590    0.2291
    0.1674    0.1996    0.0420   -0.1845    0.0339    0.0349   -0.0615   -0.2495   -0.2154    0.0446
   -0.1648    0.0304   -0.0837    0.0448   -0.0695   -0.0365    0.0541   -0.0067   -0.0882   -0.0178
    0.0364   -0.0190    0.1186    0.2087    0.1677    0.1161    0.1384   -0.1252    0.1518   -0.0339
   -0.0579   -0.1209   -0.1810   -0.1438   -0.0063    0.0676    0.0258    0.0144   -0.1022    0.0459
   -0.0105    0.1281   -0.0592    0.0294   -0.0442    0.0784    0.0974    0.1848    0.0014    0.2010
    0.1059   -0.0936   -0.0169   -0.0910   -0.0863   -0.0752   -0.2215   -0.1776   -0.1780   -0.0067
   -0.2002   -0.2182   -0.1565   -0.1327   -0.0661   -0.1140    0.0115    0.0263   -0.0856   -0.0310
   -0.0400   -0.1030   -0.1806   -0.0823    0.0975    0.1491    0.2173    0.2016    0.7037    0.1506
    0.2557    0.1779    0.0661   -0.0189    0.0045    0.0164    0.0929    0.0494    0.0000
 ***                         junction second layer: row=numhid+ (10F10.4)
   -1.9168    1.8001
   -3.1914    3.2690
   -1.9671    1.9220
    2.3817   -2.3581
    0.0000    0.0000
END
