********************************************************************************
***                                                                          ***
*** Secondary Structure Prediction by a Layered Network                      ***
*** ~~~~~~~~~~~~~~~~~~~~~~~~~~~~~~~~~~~~~~~~~~~~~~~~~~~                      ***
***                                                                          ***
*** Burkhard Rost, EMBL, Heidelberg, FRG                                     ***
*** (Internet: rost@EMBL-Heidelberg.DE)                                      ***
*** file containing the architecture in PHD format                           ***
*** Mon Aug 15 19:09:09 1994                                                 ***
***                                                                          ***
*** cryptic:     Tm69d-w21h3-15pcicld-A                                      ***
***                                                                          ***
********************************************************************************
***                                                                          ***
 prediction type:   SECONDARY                     
 network type:      FIRST 

 input type:        P-REAL-CICLD
 NUMIN:                537
 NUMHID:                 3
 NUMOUT:                 2
 NCODEUNT:              24
 NUMNEIGH:              10
 *****
 *****
   number of layers: 2       junction first layer: row=numhid (10F10.4)
    0.0673    0.1720    0.2797   -0.0807    0.4706    0.2948   -0.0945    0.0657    0.2757   -0.0562
   -0.0747   -0.0215    0.1047   -0.1515   -0.2479   -0.1719   -0.2531   -0.3003   -0.1537   -0.3513
   -0.2495    0.0890    0.0784   -0.0148    0.0360    0.3078    0.2549   -0.0002    0.3868    0.2975
   -0.0281    0.0016    0.2335    0.0015   -0.0499   -0.0525    0.0310   -0.1541   -0.2769   -0.2574
   -0.2501   -0.3984   -0.1151   -0.3134   -0.1406    0.0394    0.1211    0.1269    0.1408    0.2705
    0.3019    0.0606    0.4000    0.3660   -0.1229   -0.1019    0.2173   -0.0007   -0.1358   -0.1028
    0.1089   -0.1964   -0.2507   -0.3204   -0.2286   -0.2815   -0.0827   -0.2303   -0.1472   -0.0167
    0.1303   -0.1003    0.1864    0.2263    0.4371    0.0673    0.4857    0.2572   -0.1174   -0.0041
    0.2274   -0.0153   -0.1341   -0.1367    0.1860   -0.1195   -0.1911   -0.3063   -0.2349   -0.3375
   -0.1233   -0.3334   -0.1227    0.0309    0.0445    0.0364    0.3189    0.1858    0.4514    0.1950
    0.4057    0.2130   -0.0374    0.0048    0.1369   -0.0770    0.0015   -0.0060    0.1352   -0.0819
   -0.2499   -0.3086   -0.2904   -0.3852   -0.2275   -0.3701    0.0343    0.0397    0.0630   -0.0601
    0.3640    0.1934    0.6412    0.1274    0.4431    0.1568   -0.0167    0.0059    0.0962   -0.0251
   -0.0214   -0.0060    0.0855   -0.1150   -0.3788   -0.4214   -0.3901   -0.5050   -0.1257   -0.4513
   -0.0103   -0.0109    0.1066    0.0447    0.3797    0.2667    0.6603    0.1428    0.4630    0.1036
    0.0353   -0.0033    0.1957   -0.0444   -0.1008    0.0106    0.0867   -0.0438   -0.2852   -0.3194
   -0.4519   -0.4486   -0.2102   -0.5096    0.0777    0.0155    0.0485    0.0638    0.4254    0.3226
    0.6509    0.2007    0.4535    0.0845    0.2548    0.0234    0.2379   -0.0113   -0.0768    0.0169
    0.0689   -0.0591   -0.2012   -0.3477   -0.4195   -0.4494   -0.1661   -0.6186   -0.0577    0.0060
   -0.0882   -0.0258    0.3271    0.2877    0.6825    0.1239    0.4789    0.1487    0.2206   -0.1031
    0.2093   -0.1166   -0.2119   -0.0254   -0.0259   -0.1080   -0.2642   -0.5104   -0.4639   -0.4359
   -0.2320   -0.7030   -0.1074    0.1165   -0.0131   -0.0463    0.4049    0.3158    0.7464    0.2104
    0.6324    0.1530    0.2403   -0.0534    0.2257   -0.1950   -0.1339   -0.0158    0.0103   -0.2133
   -0.2513   -0.4347   -0.3910   -0.5157   -0.3257   -0.8533    0.0389    0.0952   -0.1538   -0.0676
    0.4570    0.4546    0.8124    0.2958    0.6888    0.3105    0.3615   -0.0751    0.2975   -0.2557
   -0.0826    0.0143    0.0195   -0.2417   -0.5864   -0.5576   -0.3805   -0.7052   -0.3917   -0.8021
    0.0565   -0.0313   -0.0969   -0.0676    0.4415    0.3900    0.6206    0.1722    0.5571    0.2881
    0.2865   -0.0958    0.3017   -0.4358   -0.0422    0.0026    0.0742   -0.2714   -0.3424   -0.3291
   -0.2837   -0.6183   -0.4090   -0.6267   -0.1531    0.0162   -0.1540   -0.0605    0.3513    0.3263
    0.6093    0.2684    0.4442    0.2393    0.2324   -0.0970    0.2380   -0.5090   -0.1827   -0.0610
    0.0149   -0.1487   -0.2813   -0.2858   -0.3057   -0.6030   -0.2260   -0.5534   -0.0559    0.0175
   -0.0997   -0.0593    0.3051    0.3326    0.6042    0.2170    0.3589    0.2363    0.2580   -0.0792
    0.1532   -0.5419   -0.0302   -0.0150    0.1247   -0.1442   -0.3118   -0.2049   -0.2688   -0.4448
   -0.2576   -0.3593   -0.1030    0.0904   -0.1653   -0.0795    0.3591    0.2553    0.6184    0.2015
    0.3879    0.1811    0.2237    0.0541    0.1210   -0.4363   -0.0949   -0.1718    0.0903   -0.1415
   -0.2310   -0.1828   -0.2351   -0.5537   -0.1165   -0.4078   -0.0497    0.0347   -0.1439   -0.1068
    0.3918    0.2625    0.4473    0.2235    0.3423    0.1791    0.1646    0.0397    0.1899   -0.3517
   -0.0749   -0.0883    0.1332   -0.1681   -0.1914   -0.0948   -0.2500   -0.4745   -0.2463   -0.4081
   -0.0271    0.0200   -0.0157    0.0397    0.4631    0.2612    0.3776    0.1202    0.1890    0.0363
    0.0274    0.0139    0.3044   -0.3317   -0.0275   -0.0210    0.0928   -0.0417   -0.0924   -0.1095
   -0.2526   -0.4558   -0.2261   -0.3030    0.0189    0.0713    0.0115    0.0519    0.2422    0.2156
    0.3347    0.1895    0.2123    0.0290   -0.0574   -0.1085    0.0824   -0.3090   -0.0244   -0.0719
    0.0055   -0.1805   -0.0692   -0.1059   -0.2181   -0.3584   -0.2352   -0.2904    0.1164    0.1822
   -0.0217   -0.1060    0.2890    0.2437    0.3740    0.0561    0.2990    0.0153   -0.0504   -0.0288
    0.1557   -0.2365   -0.0115   -0.0703   -0.0648   -0.1464   -0.1634   -0.0946   -0.3135   -0.2614
   -0.2100   -0.2689   -0.0021    0.1224    0.0184   -0.0892    0.1592    0.2146    0.3195    0.0873
    0.3670   -0.1555    0.0246   -0.0500    0.0908   -0.1583    0.0200    0.0050    0.1336   -0.1295
   -0.0139   -0.0743   -0.3324   -0.2937   -0.2715   -0.2616    0.0726    0.0258    0.0336   -0.0306
    0.1466    0.1606    0.2502    0.2782    0.3299   -0.0921   -0.0017   -0.0550    0.1465   -0.1701
   -0.0409   -0.0092    0.0458    0.0111    0.0280   -0.0826   -0.3362   -0.3549   -0.1357   -0.1710
    0.0688   -0.0197    0.1303    0.0314    0.2903    0.5490    0.5670    0.1988    0.7069    0.2414
   -0.0371    0.2463    0.5611   -0.2083   -0.1209   -0.1438   -0.0919   -0.0434    0.0255   -0.0132
   -0.1554   -0.6379   -0.2106   -0.5024    0.0684   -0.6640   -0.8377   -0.0681   -0.6831    0.0300
   -0.5903   -0.2552    0.0035   -0.0064   -0.0806   -0.0838    0.0259   -0.0180    0.0000
   -0.0635   -0.2398   -0.3317    0.0848   -0.5092   -0.3410    0.0476   -0.0418   -0.3601   -0.0428
    0.0164    0.0585   -0.0363    0.1270    0.2719    0.1232    0.2904    0.3358    0.1262    0.3088
    0.2857    0.0327   -0.1926   -0.0119   -0.1175   -0.2865   -0.3397    0.1497   -0.4176   -0.3784
    0.0349   -0.0670   -0.2321    0.0395    0.1581    0.1514   -0.0348    0.1605    0.3044    0.2978
    0.2686    0.3525    0.1767    0.2677    0.1538    0.0422   -0.0459    0.0152   -0.1463   -0.2766
   -0.3019    0.0294   -0.4994   -0.3878    0.1745    0.0242   -0.2323    0.0253    0.1893    0.0762
   -0.1615    0.1714    0.2792    0.3404    0.2153    0.3263    0.1595    0.2556    0.0565   -0.0325
   -0.0233    0.0839   -0.0934   -0.1600   -0.4155   -0.0246   -0.4222   -0.1440    0.0296    0.0184
   -0.1731    0.1078    0.0718   -0.0077   -0.0572    0.0921    0.2497    0.3288    0.1836    0.3225
    0.1565    0.2071   -0.0003   -0.0252   -0.1641    0.0631   -0.3502   -0.2140   -0.4870   -0.0513
   -0.4636   -0.1809   -0.0138    0.0264   -0.1047   -0.0294    0.0572    0.0669   -0.0754    0.0427
    0.3047    0.4113    0.2549    0.3476    0.1668    0.4540   -0.0423   -0.0128   -0.0206    0.0796
   -0.4425   -0.2510   -0.5477   -0.1932   -0.4143   -0.0622   -0.0175   -0.0421   -0.1620    0.0037
    0.0425   -0.0258   -0.0391    0.1125    0.2965    0.3188    0.4347    0.4866    0.2198    0.4756
    0.0492   -0.0141   -0.0412   -0.0300   -0.3393   -0.2184   -0.5647   -0.2102   -0.4304   -0.0984
   -0.0847    0.0067   -0.0768    0.0701    0.0208    0.0021    0.0022    0.2052    0.2288    0.3425
    0.4766    0.4675    0.1800    0.5889    0.0176    0.0179    0.0573   -0.0630   -0.3482   -0.2732
   -0.5847   -0.1253   -0.5008   -0.1142   -0.2269    0.0158   -0.1522    0.0149    0.0957    0.0937
   -0.0139    0.1351    0.1461    0.4139    0.5351    0.4544    0.2469    0.5468    0.0404   -0.0369
   -0.0280    0.1167   -0.2999   -0.2702   -0.6604   -0.1187   -0.4857   -0.1825   -0.2988    0.1060
   -0.2224    0.1766    0.1069   -0.0022   -0.0751    0.2367    0.2788    0.3422    0.4937    0.5034
    0.1538    0.6706   -0.0589   -0.0422   -0.0213    0.1228   -0.3382   -0.3243   -0.7227   -0.1925
   -0.4740   -0.1800   -0.1931    0.1210   -0.2782    0.2211    0.2309    0.0613   -0.1324    0.2042
    0.2899    0.4303    0.4366    0.6247    0.3481    0.7445    0.1104   -0.0620    0.0980    0.1649
   -0.4908   -0.4711   -0.7836   -0.3568   -0.5888   -0.3313   -0.2650    0.0100   -0.3142    0.2247
    0.0509    0.0453   -0.0401    0.1982    0.5241    0.5946    0.2916    0.6648    0.3997    0.6575
    0.0512    0.0064    0.0883    0.1076   -0.4004   -0.3836   -0.7017   -0.1777   -0.5526   -0.3254
   -0.3105    0.0016   -0.2786    0.4013    0.0929    0.0603   -0.0439    0.2605    0.4610    0.3633
    0.2796    0.5986    0.3213    0.6727   -0.0183   -0.0035   -0.0137    0.1816   -0.3521   -0.3518
   -0.5602   -0.1244   -0.3822   -0.2770   -0.3199    0.0126   -0.2354    0.3732    0.0700    0.0513
   -0.0642    0.2530    0.3666    0.2780    0.2527    0.4328    0.2802    0.4337    0.0983    0.0197
    0.0467    0.1988   -0.2792   -0.2643   -0.6513   -0.3290   -0.4112   -0.2808   -0.3529    0.0421
   -0.1875    0.4733    0.0308    0.0531   -0.0849    0.1934    0.2527    0.1942    0.2769    0.4518
    0.1182    0.4346   -0.0077   -0.1095    0.1342    0.0116   -0.2482   -0.2682   -0.5118   -0.2095
   -0.2764   -0.1941   -0.2789   -0.0062   -0.2008    0.3976    0.0910    0.0315   -0.0485    0.1701
    0.1700    0.1140    0.2484    0.4206    0.1112    0.3694    0.1098   -0.1187    0.0838    0.0282
   -0.2749   -0.2532   -0.4204   -0.1866   -0.2852   -0.1374   -0.0779   -0.0132   -0.2167    0.3887
    0.1078    0.1169   -0.1222    0.1800    0.2329    0.0713    0.3177    0.3976    0.1581    0.3938
    0.0368   -0.1366    0.0554    0.0242   -0.3231   -0.2759   -0.3507   -0.1822   -0.2417   -0.1198
   -0.0578   -0.0878   -0.1542    0.3085    0.1525    0.0454   -0.1248    0.1277    0.1186    0.1095
    0.2006    0.3497    0.2542    0.3898    0.0454   -0.0894   -0.0120    0.0611   -0.2615   -0.1883
   -0.3683   -0.0165   -0.2690   -0.0261    0.0060    0.0471   -0.1788    0.3119    0.0978   -0.0454
   -0.0435    0.0704    0.0826    0.1097    0.3195    0.3387    0.2661    0.3685   -0.0830   -0.0732
   -0.0116   -0.0030   -0.1576   -0.1296   -0.4033   -0.1016   -0.3756   -0.0420   -0.0741    0.1213
   -0.1576    0.2474    0.0766    0.0065    0.0161    0.1106    0.0390    0.0186    0.1612    0.3500
    0.2533    0.2722   -0.1294   -0.1200   -0.0485    0.0376   -0.1634   -0.1069   -0.2569   -0.2408
   -0.2956    0.0482   -0.0975    0.0645   -0.1341    0.1663    0.0913    0.0274   -0.0076    0.1290
    0.0975    0.1124    0.1889    0.2600    0.2515    0.2013   -0.0202    0.0213   -0.0667   -0.0367
   -0.1036   -0.1956   -0.1778   -0.1849   -0.2663   -0.0587    0.0579    0.1029   -0.0844    0.2265
   -0.0107   -0.0680   -0.0678    0.0274    0.0633    0.1572    0.2595    0.3190    0.2745    0.2018
    0.0263   -0.0658   -0.1848    0.0376   -0.3740   -0.3478   -0.6371   -0.1434   -0.7767   -0.2451
    0.0017   -0.1908   -0.4744    0.0213    0.2600   -0.0036    0.1294    0.1044    0.0194    0.1295
    0.2327    0.7594    0.2123    0.5147   -0.0536    0.7003    0.6979   -0.0829    0.6626    0.1388
    0.5019    0.2979    0.0847   -0.0008    0.2136    0.1316   -0.0615    0.0783    0.0000
   -0.0795    0.0457   -0.0664    0.0499   -0.0398    0.0008    0.0542   -0.0774    0.0625   -0.0694
   -0.0575   -0.0794    0.0347    0.0488    0.1140    0.1005   -0.0005    0.0460   -0.0096    0.1050
    0.0316   -0.0067   -0.0509   -0.0097   -0.0053   -0.0325    0.0437   -0.0055    0.0068   -0.0476
    0.0826   -0.1029    0.0267   -0.0756    0.0914    0.1052   -0.0786    0.1130    0.0190    0.0403
    0.0356    0.0519    0.0994    0.0944   -0.0426   -0.0426   -0.0567    0.0809    0.0219   -0.0664
    0.0585    0.0662   -0.0402   -0.0759    0.0061   -0.0190    0.0172    0.0527   -0.0303   -0.0054
    0.0227   -0.0156    0.0799   -0.0104   -0.0689    0.1120   -0.0455   -0.0601   -0.0042    0.0329
   -0.0882    0.0428   -0.0600    0.0017   -0.0980   -0.1013    0.0274   -0.0138   -0.0760   -0.0122
   -0.0426    0.0046   -0.0762   -0.0050   -0.0547    0.0343    0.0174   -0.0349   -0.0187   -0.0621
   -0.0719   -0.0663    0.0615   -0.0795    0.0428    0.0161   -0.0112    0.0226   -0.0163   -0.0446
   -0.1189   -0.1063    0.0523   -0.0779   -0.0372    0.0292   -0.0953    0.0182   -0.0446   -0.0526
   -0.0523    0.1059   -0.0059    0.0324    0.0317    0.0323   -0.0048    0.0649   -0.0815    0.0988
   -0.0599   -0.0057   -0.1460    0.0193   -0.0944   -0.0662    0.0264   -0.0916    0.0329    0.0318
   -0.0511   -0.0002    0.0335   -0.0402   -0.0333    0.1230    0.0067    0.0511   -0.0679    0.0926
    0.0007   -0.0733   -0.0506   -0.0163   -0.1079    0.0032   -0.0280    0.0672    0.0489    0.0291
   -0.0279   -0.0521    0.0428   -0.0946   -0.0119   -0.0570   -0.0559   -0.0024    0.0737    0.0176
   -0.0517    0.0285   -0.0659    0.0622   -0.0413    0.0306   -0.0915    0.0739   -0.0950   -0.0415
   -0.0220    0.0195   -0.0619   -0.0905   -0.0580   -0.0234   -0.0389   -0.0960   -0.0375    0.0381
   -0.0579    0.0506    0.0184    0.0709    0.0144    0.0102    0.0657    0.0081   -0.0627   -0.0673
    0.0883   -0.0342   -0.0960   -0.1041   -0.0646    0.0131   -0.0841    0.0356   -0.0858    0.0053
   -0.0376    0.0193   -0.0194   -0.0047    0.0303   -0.0303    0.0124    0.1032    0.0517    0.1055
   -0.0231    0.0479    0.0183   -0.0629   -0.0271   -0.0643    0.0522   -0.1263   -0.0956    0.0189
   -0.0403    0.0235    0.0021   -0.0901    0.0717    0.0775    0.0800   -0.0595    0.0181   -0.0148
   -0.0444    0.1227   -0.0045    0.0900   -0.0750    0.1341   -0.0867   -0.0252    0.0069   -0.0169
   -0.1055    0.0264   -0.0803    0.0700   -0.0301    0.0453   -0.0854   -0.0369   -0.0650   -0.0540
   -0.0863    0.0068   -0.0073   -0.0365   -0.0450    0.0040    0.1066    0.1281    0.0670   -0.0185
   -0.0123    0.0699    0.0215   -0.0717    0.0456   -0.1180   -0.0547    0.0552   -0.0257   -0.0671
    0.0137   -0.0522    0.0222   -0.0334   -0.0048   -0.0321    0.0905    0.0994    0.1290    0.1128
    0.0646   -0.0022   -0.0313    0.1470   -0.0846    0.0498    0.0161   -0.0100    0.0347    0.0099
   -0.0027   -0.0045   -0.1291   -0.1130   -0.0376    0.0044   -0.0901    0.0959    0.0902   -0.0321
   -0.0010   -0.0513   -0.0626    0.0715    0.0849    0.1401    0.0905    0.0234    0.0865    0.0794
    0.0916    0.1079    0.0702   -0.0111   -0.0896   -0.0699   -0.1146   -0.0728   -0.0238    0.0092
   -0.0260    0.1248   -0.0178   -0.0021   -0.0204    0.0193    0.0979    0.0171   -0.0700   -0.0286
   -0.0804    0.0335   -0.0478   -0.0868    0.0777   -0.0641    0.0642   -0.0274   -0.0966   -0.1074
   -0.1248    0.0268   -0.0681    0.0976    0.0430    0.0017   -0.0620   -0.0150   -0.0889   -0.0709
   -0.0545    0.0039    0.1157    0.0666   -0.0526    0.0458   -0.0445   -0.0505    0.0017    0.0082
    0.0613    0.0186   -0.1191    0.0619    0.0130   -0.0701   -0.0704   -0.0984   -0.0583    0.0190
    0.0617    0.0532   -0.0098   -0.0496   -0.0135   -0.0687    0.0510    0.0416   -0.0658    0.1295
    0.0408    0.0513   -0.0556    0.0049   -0.1202   -0.0862    0.0478   -0.0702    0.0065   -0.0857
   -0.0029   -0.0579    0.0010   -0.0113   -0.0041    0.0418   -0.1010   -0.0263    0.0676    0.1036
   -0.0635    0.0173   -0.0329    0.0059    0.0027    0.0166    0.0439   -0.0806   -0.0796   -0.1150
    0.0607    0.0869   -0.0672   -0.0277    0.0478   -0.0067    0.0151   -0.0353    0.0912   -0.0775
    0.0437    0.0789   -0.0681    0.0807    0.0494   -0.0116    0.0144   -0.0213   -0.0797   -0.0216
    0.0562   -0.0408   -0.0486    0.0055    0.0221   -0.0125   -0.0903    0.0421   -0.0443   -0.0826
    0.0260    0.1238    0.0097    0.0992    0.0629   -0.0787    0.1076    0.0242    0.0039    0.1136
    0.1178    0.0762   -0.0228   -0.1143   -0.0308    0.0279    0.0472   -0.0994   -0.0605    0.0830
   -0.0466    0.0586   -0.0638    0.0185   -0.0481   -0.0833    0.0223   -0.0565   -0.0921   -0.0461
    0.0385   -0.0292    0.0736    0.1125    0.1193   -0.0067    0.0717   -0.0193    0.0839   -0.0420
    0.0764   -0.0103   -0.0384   -0.0832    0.0267    0.1011    0.0688   -0.0068   -0.0929    0.0396
   -0.0469    0.0634   -0.0858    0.0034   -0.0320    0.0982    0.0772    0.0825   -0.0464    0.0679
    0.0347    0.0142   -0.0837   -0.0986    0.0429    0.0220   -0.0825   -0.0909   -0.0253    0.0563
   -0.0852   -0.0723   -0.0065   -0.0005    0.0790    0.0204    0.0697    0.0668    0.0000    0.0831
    0.0568    0.0190   -0.0756    0.0081    0.0975    0.0254    0.0819    0.0079   -0.0147    0.0894
    0.0958   -0.0111   -0.0089   -0.0623   -0.0455    0.0356    0.0762   -0.0775    0.0000
 ***                         junction second layer: row=numhid+ (10F10.4)
    5.1160   -5.1804
   -4.9358    4.8851
   -0.4888    0.4115
    0.1453   -0.0550
    0.0000    0.0000
END
