********************************************************************************
***                                                                          ***
*** Secondary Structure Prediction by a Layered Network                      ***
*** ~~~~~~~~~~~~~~~~~~~~~~~~~~~~~~~~~~~~~~~~~~~~~~~~~~~                      ***
***                                                                          ***
*** Burkhard Rost, EMBL, Heidelberg, FRG                                     ***
*** (Internet: rost@EMBL-Heidelberg.DE)                                      ***
*** file containing the architecture in PHD format                           ***
*** Wed Apr  6 13:57:27 1994                                                 ***
***                                                                          ***
*** cryptic:     Exp252x-15rcic-A                                            ***
***                                                                          ***
********************************************************************************
***                                                                          ***
 prediction type:   EXPOSURE                      
 network type:      FIRST 

 input type:        P-REAL-CIC
 NUMIN:                333
 NUMHID:                15
 NUMOUT:                10
 NCODEUNT:              24
 NUMNEIGH:               6
 *****
 *****
   number of layers: 2       junction first layer: row=numhid (10F10.4)
   -0.0775    0.1341    0.0984   -0.0045    0.0554    0.0208   -0.0727    0.1165    0.1166   -0.0389
    0.0884    0.1220    0.0521    0.0601    0.0457    0.0719    0.0909    0.0344   -0.0732   -0.0310
    0.0653    0.1229   -0.0406   -0.0251    0.1196    0.1120   -0.1216    0.1485    0.0353   -0.0489
    0.0580    0.0595    0.0006   -0.0051    0.0878    0.1218   -0.0077    0.0433   -0.1098    0.1682
    0.0476    0.1061   -0.1158    0.0574    0.0906   -0.1101    0.0375    0.1234    0.0455    0.0863
    0.0262    0.0431   -0.0496   -0.1200   -0.0391    0.1425    0.1215   -0.0421   -0.0158    0.0990
   -0.0680   -0.0656    0.1244    0.1294    0.0671    0.1358    0.0948    0.2174    0.0096   -0.1257
    0.0580    0.0531    0.0054    0.0886    0.0170    0.0034    0.1496    0.1270    0.2141    0.1621
    0.2094   -0.1875   -0.0725   -0.0315    0.0401    0.0659    0.1294    0.0497   -0.0374    0.1961
    0.1298    0.0981   -0.1487   -0.1178   -0.0456    0.1551    0.1459    0.2099    0.2131    0.0815
    0.1743    0.0175    0.0151    0.0207    0.3086   -0.1268    0.2094    0.1875   -0.0836    0.1093
    0.0775   -0.1108    0.0198   -0.0860    0.0133    0.0887   -0.0600    0.2911   -0.0602   -0.0513
    0.2131    0.2933    0.3627   -0.0033    0.1778    0.1182    0.1358   -0.0521    0.1281   -0.1797
    0.0555   -0.1410    0.0056    0.0163    0.1279    0.1073    0.1477    0.0158    0.1489   -0.0951
   -0.6598    0.0325   -0.0105   -0.0523    0.3717    0.0421    0.2328   -0.1125   -0.1125   -0.1243
   -0.2064   -0.2873    0.3295    0.0067    0.0531    0.0678    0.1437   -0.1241   -0.2272    0.4343
    0.2005    0.4131   -0.1353    0.1652    0.2296   -0.1871    0.0320   -0.1017    0.3629    0.4012
    0.2210    0.0258    0.2021   -0.0001    0.3995    0.0322    0.1181   -0.2337   -0.2038    0.1059
    0.1766    0.1441    0.1027    0.0448    0.1512    0.1295    0.0244   -0.0645   -0.6233    0.1250
   -0.0866   -0.0916    0.0995    0.2333    0.1150    0.2839    0.0647    0.0176   -0.0620   -0.0302
    0.1778   -0.1003   -0.1609    0.0187    0.0361    0.1805    0.0733    0.0472   -0.1070   -0.0619
   -0.1005   -0.0494   -0.3026    0.0567    0.0232    0.0580   -0.0020   -0.0018    0.1756    0.0697
    0.2449    0.1205    0.0562    0.0524    0.0004   -0.1629    0.1071    0.0087   -0.1097    0.1345
   -0.0720    0.0732    0.1773    0.0166    0.0704    0.0174    0.0104    0.0041   -0.0578    0.0407
   -0.0848    0.1279   -0.0638    0.0963    0.0792    0.0697    0.1093    0.0690    0.1166   -0.1416
    0.1840    0.1618    0.0570   -0.0725   -0.0141    0.0857   -0.0455   -0.0639    0.0345    0.1007
    0.1145    0.0719    0.0164   -0.0067    0.0698    0.0720   -0.0037    0.0210    0.0186   -0.0356
    0.0949    0.0423    0.1058   -0.2133    0.0861    0.1120   -0.1009   -0.0348    0.1427    0.0825
    0.0663    0.0329    0.1511    0.0661   -0.0581   -0.1621   -0.0234    0.0707    0.1794    0.0448
    0.1257    0.1848   -0.0388    0.0791    0.1130   -0.0532    0.1218   -0.1808   -0.0502   -0.0677
   -0.1023   -0.0761    0.0739   -0.0632    0.1406    0.1221    0.1484   -0.0608   -0.0403    0.1347
    0.0723    0.1388    0.9982    0.9824    1.0847    0.2734    0.7769    0.0971    0.7324    1.0402
    0.7986    0.8670    1.1908    1.0808    0.0522    0.3678    0.8477    1.0049    0.9181    1.0665
    0.9454    1.2339   -0.0610   -0.6717    0.0000    0.0000    0.0000    0.0000    0.0000    0.0000
    0.0000    0.0000    0.0000
   -0.0198   -0.0817   -0.1142   -0.0315   -0.0906   -0.0093   -0.0299    0.0078   -0.0523   -0.0631
   -0.0318    0.1044    0.0819    0.0635    0.0696   -0.0452    0.0249    0.0405    0.1708   -0.0423
    0.0869   -0.1309    0.0773    0.0929   -0.0214    0.2050    0.0076    0.0747    0.0659    0.0967
    0.0649    0.0761   -0.0325    0.0160   -0.0602   -0.0178   -0.0857   -0.1035   -0.1205    0.0467
    0.0370    0.1408   -0.0163    0.0419    0.0599   -0.1324   -0.0923    0.0330   -0.0577   -0.0272
    0.0469    0.0948    0.1702   -0.0058    0.0273   -0.0767    0.1546   -0.0174   -0.0132    0.0961
    0.0257   -0.0717   -0.0009   -0.0402    0.0796   -0.1249   -0.0137    0.0678    0.2538    0.0596
    0.0557    0.0982    0.0438   -0.2125   -0.1093    0.0343   -0.0879    0.0671    0.0773   -0.0221
    0.1597    0.0498   -0.1051   -0.0534   -0.0054    0.0319    0.1525    0.0583   -0.0788    0.0406
    0.0061    0.0313    0.0926   -0.2547    0.0166    0.0424    0.2189    0.0455    0.2846   -0.0127
    0.0354   -0.0544   -0.0110   -0.0835   -0.0480   -0.1423   -0.0029    0.1001    0.1481   -0.0096
   -0.1744   -0.1091    0.0046   -0.3062   -0.0156    0.1205   -0.0221    0.0720   -0.1078   -0.0870
    0.1550    0.1797    0.1824    0.0841    0.2429    0.0919    0.0784   -0.0903    0.1058   -0.2391
    0.1066    0.0854   -0.0450   -0.0668   -0.0298   -0.1593    0.0067    0.0713   -0.2464   -0.0579
   -0.0650    0.1511   -0.1169    0.0128    0.2222    0.1530    0.4160   -0.0210   -0.1209   -0.2674
   -0.5058    0.2999    0.5191   -0.0366    0.1233    0.1069    0.1148   -0.2781   -0.5515    0.3615
   -0.0218    0.0463   -0.0673    0.1068   -0.0539   -0.1467    0.0376   -0.1483    0.1009    0.0909
   -0.0532    0.0529    0.1882    0.0245    0.2675    0.1798    0.2136   -0.2966   -0.1014    0.0815
    0.1230    0.0115    0.1217    0.0337   -0.0395    0.0709   -0.0827   -0.2458   -0.1174    0.0204
   -0.0609   -0.0037    0.0474    0.0360    0.1863    0.2005    0.0475   -0.1174   -0.0934   -0.1139
   -0.0399   -0.1410    0.0538    0.0424    0.0741    0.0629   -0.1725    0.0828    0.0050   -0.1031
   -0.0817    0.0360   -0.0134    0.2377    0.0453   -0.1065    0.0160    0.1669    0.1542    0.1496
    0.0106    0.0422   -0.0526    0.0093    0.1771   -0.0994    0.0002    0.0557    0.0114    0.2121
    0.0687   -0.0717    0.0016    0.0306    0.0023   -0.0415    0.0524    0.0023    0.0496   -0.1635
   -0.0077    0.2670    0.1837    0.1362    0.1295   -0.0338    0.1420    0.0855    0.0881   -0.1472
    0.0535    0.0206    0.0336   -0.0232   -0.1340   -0.1131   -0.0463   -0.1078   -0.1512    0.1304
    0.1095    0.0859    0.0095   -0.0929   -0.0108    0.1188    0.1350    0.1308    0.0776   -0.0038
    0.0224    0.0432   -0.0624   -0.1155   -0.0623   -0.0527   -0.0355    0.0793    0.0418   -0.1383
    0.1566   -0.0055    0.1931    0.0069    0.0916   -0.0974   -0.0177   -0.0834   -0.2448    0.1237
   -0.0129    0.1527   -0.1862   -0.0565   -0.0712    0.2149    0.0064   -0.1756   -0.1030   -0.0011
    0.0015   -0.1613    0.1060    0.0671    0.1187    0.0463   -0.0461    0.2116    0.1268   -0.1230
   -0.0313    0.2050    0.6732    0.4987    1.0019    0.5524    0.7277    0.1626    0.8382    0.6636
    0.4940    0.8980    0.9286    0.6128   -0.0027    0.4479    0.8871    0.7739    0.8546    0.7891
    0.8363    0.7980    0.0676   -0.7569    0.0000    0.0000    0.0000    0.0000    0.0000    0.0000
    0.0000    0.0000    0.0000
   -0.1773    0.0107   -0.0260    0.0587   -0.0915    0.1625    0.0570    0.1066   -0.0320    0.2355
    0.1162   -0.0763   -0.1438   -0.0935    0.0033   -0.1066   -0.1260    0.1756   -0.0425   -0.0075
    0.0910   -0.0488   -0.0334    0.1057   -0.0507   -0.1534    0.0905    0.0238   -0.0212   -0.1031
   -0.0209   -0.0079   -0.0847    0.0798   -0.1009   -0.1120    0.1287    0.1366   -0.1430    0.1149
    0.0127    0.0228   -0.0125   -0.1011    0.1229   -0.2375   -0.0178   -0.0030    0.0827   -0.0534
   -0.0173    0.0127   -0.0024   -0.1176    0.0543    0.0066    0.0528   -0.0083    0.1281   -0.1359
   -0.0528   -0.0182    0.0035    0.0160   -0.0496   -0.1933    0.0519   -0.0258    0.1944    0.1666
   -0.0540    0.0485   -0.0454    0.1455    0.0300    0.1261   -0.1120   -0.0093    0.1505    0.1874
    0.1102   -0.0972   -0.1137    0.1010   -0.0577    0.0444    0.0854    0.1172   -0.0952    0.1585
   -0.0205   -0.1072    0.1292   -0.0999   -0.0828    0.1524   -0.0346    0.0696   -0.1482    0.1439
   -0.0608   -0.0762   -0.1145   -0.1028    0.1992   -0.1160    0.0985   -0.1793    0.1232   -0.0839
    0.0377    0.0313   -0.0743    0.0502   -0.1551    0.0389    0.0304    0.0687   -0.0807   -0.1494
   -0.1159   -0.0071   -0.0809   -0.0591   -0.1188    0.0697   -0.0046   -0.1060    0.1429    0.1439
   -0.1169   -0.0091    0.0642    0.1465    0.0603   -0.0365   -0.0472   -0.0588   -0.0294   -0.1653
    0.2466   -0.4165    0.0104    0.0350    0.5906    0.2227    0.3323    0.0661    0.2997    0.1630
    0.1296   -0.0278    0.6868   -0.0846    0.0691   -0.1603    0.4604   -0.2308   -0.7283   -0.3287
   -0.5213   -0.2617   -0.2093   -0.4046   -0.0576    0.7750    0.0979   -0.0173   -0.0069    0.0448
    0.0420   -0.0327   -0.1550   -0.1111    0.0341   -0.0295   -0.1242   -0.0697   -0.0484   -0.0619
   -0.1927   -0.0103    0.1175   -0.0905    0.0591   -0.2510   -0.0089   -0.1492    0.3125   -0.0410
    0.1150    0.0480    0.1172    0.0658   -0.2086    0.0613    0.1176   -0.0211   -0.1280    0.0493
   -0.0346   -0.0571   -0.1742   -0.1802    0.1521   -0.1054   -0.1983   -0.1253   -0.1005    0.0801
   -0.0377    0.0562    0.1902   -0.0593    0.0052   -0.0713    0.1577    0.0091    0.1753    0.1326
    0.1402   -0.0488   -0.0284    0.1913    0.0086   -0.0579   -0.0162   -0.0105   -0.1050    0.1001
   -0.1293    0.1084   -0.0758   -0.2913   -0.0965   -0.1870    0.0488    0.0411   -0.1247   -0.0797
    0.1120    0.0248   -0.0541    0.0405   -0.2029    0.0669   -0.1116    0.1760    0.0241   -0.1531
    0.1032    0.1594    0.1701   -0.0441   -0.0937   -0.2573   -0.0662    0.0016   -0.0539   -0.0530
    0.0218    0.0487    0.0670   -0.1005    0.0580   -0.2203   -0.0883   -0.0050   -0.0557   -0.0405
    0.0063    0.2307   -0.1863   -0.0047    0.0624   -0.1280    0.0624    0.1583    0.1515    0.0840
    0.1186   -0.0467    0.1956   -0.1555   -0.0014   -0.0948    0.0328   -0.0760   -0.0775   -0.0657
   -0.1469   -0.1478   -0.0097    0.1277    0.0972    0.0237   -0.0064   -0.0678    0.0512   -0.0257
   -0.0184   -0.1977    0.0250   -0.2600    0.0209   -0.0654    0.0912   -0.0224    0.0467    0.0125
    0.0461   -0.0149    0.2739    0.2353    0.6838    0.4172    0.5263    0.1530    0.6687    0.5284
    0.3016    0.6838    0.4884    0.2289   -0.0813    0.3781    0.6046    0.3636    0.6152    0.4512
    0.6655    0.5036   -0.0327   -0.9241    0.0000    0.0000    0.0000    0.0000    0.0000    0.0000
    0.0000    0.0000    0.0000
    0.0153   -0.1230   -0.0438   -0.0639    0.0161    0.1024   -0.1136    0.0236    0.1018   -0.0238
   -0.0787   -0.0055   -0.0693    0.0780   -0.0126    0.0594   -0.0626   -0.0201   -0.1067   -0.1616
    0.0689   -0.0001   -0.0712   -0.1537   -0.0064   -0.0738   -0.0161    0.0149    0.0120    0.1602
   -0.0507    0.0426   -0.1749   -0.0708   -0.0975    0.0531   -0.0732   -0.0975   -0.0372    0.0090
   -0.1105   -0.0122    0.0708   -0.0524    0.1418    0.1131   -0.1674   -0.0645   -0.1525   -0.1620
   -0.0699   -0.0719    0.0278   -0.0005    0.0512   -0.0143   -0.0360    0.0882   -0.1270   -0.0477
   -0.0451    0.0078   -0.0144    0.0294    0.0404   -0.0315    0.0051   -0.0315    0.0768   -0.0505
   -0.0852   -0.1454    0.0060   -0.1492   -0.1251   -0.0013   -0.0656   -0.0489   -0.0835    0.0372
   -0.1023    0.1772   -0.0773    0.0539    0.1289   -0.1129    0.0518    0.0399   -0.0009   -0.0233
   -0.0019   -0.0071    0.1596   -0.1252   -0.1179   -0.0980   -0.0784   -0.0717   -0.1601    0.0978
   -0.0660   -0.0360   -0.1789    0.0645   -0.1848    0.1154   -0.0111   -0.1443    0.0783    0.0141
   -0.1195    0.0794   -0.0407   -0.0848    0.0754   -0.0403    0.1922   -0.0269    0.0129   -0.0233
   -0.1808   -0.1794   -0.1750   -0.0576   -0.1750   -0.0560   -0.1229   -0.0307   -0.1027    0.1453
   -0.0649   -0.0695   -0.0546   -0.1866   -0.0451   -0.0006   -0.0562   -0.0960   -0.1399   -0.1032
    0.5410   -0.0725   -0.0497    0.1663   -0.2230   -0.3661   -0.3291   -0.2005   -0.4252   -0.3522
   -0.4000    0.2796   -0.1656    0.0894    0.0217   -0.1422   -0.3767   -0.1311    0.0465    0.5380
    0.1354    0.3046    0.1863    0.2948    0.0860   -0.7146    0.1296    0.0747   -0.0735   -0.0639
   -0.1826   -0.1914   -0.0846   -0.1754   -0.2362    0.1823   -0.0704   -0.0953    0.0071   -0.1132
   -0.0199   -0.0009    0.0123   -0.0248   -0.0139   -0.0930   -0.0417   -0.1064    0.7291   -0.1033
    0.0492    0.1396   -0.1545   -0.2127   -0.1566   -0.1031   -0.0818    0.0181   -0.0145   -0.0888
   -0.2107    0.2162   -0.0779    0.0270   -0.0559   -0.0822   -0.0674    0.1320    0.0424   -0.0092
   -0.0020   -0.0249    0.3052   -0.0754    0.0886    0.0572   -0.0058   -0.1762   -0.0892   -0.0474
   -0.1371   -0.0978   -0.1069   -0.0546   -0.0318    0.0572   -0.0998   -0.0582    0.0370   -0.1735
    0.0181   -0.0625    0.0120    0.0607   -0.0139    0.0525    0.0955   -0.1666    0.0018    0.1542
   -0.0955    0.0563   -0.1311   -0.0435    0.0006   -0.0519    0.0409   -0.1706   -0.0415    0.0101
   -0.1682   -0.0195    0.0311   -0.0326   -0.0429   -0.0420    0.0226   -0.0373    0.0428   -0.1157
    0.1260   -0.1405   -0.0403   -0.0069   -0.1032    0.0071   -0.1228   -0.0765    0.0014   -0.0218
   -0.0438   -0.0066   -0.1299    0.0963    0.0304    0.0066    0.0243    0.0151   -0.0413   -0.1411
    0.0914   -0.0711    0.0372   -0.0873    0.1409   -0.0512   -0.0838    0.0138   -0.1296   -0.0998
   -0.0172    0.0046    0.0214    0.0125    0.0447   -0.0847   -0.0036   -0.0582   -0.1654   -0.0465
    0.1103   -0.0202   -0.1161   -0.1075   -0.0541    0.0074    0.0268    0.0380    0.0449   -0.0482
   -0.0370    0.0083   -0.3422    0.0276   -0.4974   -0.0834   -0.1190    0.0167   -0.2597   -0.2789
   -0.1665   -0.1862   -0.3824   -0.1075    0.2219    0.0014   -0.1219   -0.1475   -0.0739   -0.2716
   -0.3642   -0.3951    0.0863   -0.0791    0.0000    0.0000    0.0000    0.0000    0.0000    0.0000
    0.0000    0.0000    0.0000
   -0.0810   -0.1149    0.0550    0.2343    0.0844    0.0181   -0.0059   -0.0675   -0.1299    0.1667
   -0.0578   -0.0953    0.0039   -0.0949   -0.0454    0.0414   -0.0064    0.0749   -0.0002   -0.0225
   -0.0460   -0.1520   -0.0739   -0.1045   -0.0774   -0.1910    0.0547   -0.0249   -0.1380   -0.0872
   -0.1722    0.0404    0.1915   -0.1155   -0.1207   -0.0759    0.0040    0.1738    0.0802   -0.1149
   -0.0170   -0.1447    0.1071   -0.1152   -0.1562   -0.0684   -0.1498   -0.0309   -0.1134    0.1712
    0.1002   -0.0307    0.0075   -0.0181   -0.0285   -0.0203   -0.1544   -0.0643    0.1056   -0.1660
   -0.0583    0.1070   -0.1955   -0.1830   -0.0853    0.1519    0.0496   -0.1702   -0.1373    0.0430
   -0.0445   -0.3085   -0.2402   -0.0532    0.0204   -0.0126    0.0596   -0.0013   -0.1855   -0.0036
   -0.2744   -0.1000    0.0619   -0.0077   -0.0482    0.0689   -0.1781   -0.0386    0.1165   -0.1077
   -0.0875   -0.0155    0.2616    0.1220   -0.0119   -0.2498   -0.3613   -0.3565   -0.2504    0.0152
   -0.0729    0.0274   -0.0810   -0.0757   -0.0796    0.2446   -0.0673   -0.0364   -0.0999   -0.2080
    0.1545    0.1316   -0.0898    0.2103   -0.0332   -0.1522    0.2598   -0.0610   -0.0620   -0.0960
   -0.2019   -0.1590   -0.4018   -0.0875   -0.2133   -0.1862   -0.1406    0.2345   -0.3430    0.3108
   -0.1984   -0.1569    0.1281    0.0429   -0.0717    0.1587   -0.1149   -0.0872    0.1629    0.1655
    0.6138   -0.1129    0.0204    0.0889   -0.0659    0.0750    0.2470    0.2441    0.5530    0.5320
    0.5978   -0.5616   -0.4811   -0.2166   -0.5629   -0.2823    0.3355    0.2988    0.4547   -0.3227
   -0.3057   -0.1417    0.0031   -0.4782   -0.3613    1.1504    0.0335    0.3596   -0.3947   -0.2792
   -0.1628   -0.0034   -0.2493   -0.0682   -0.4363   -0.1208   -0.1722    0.5504    0.2289    0.1348
   -0.1265   -0.0240   -0.1693   -0.1078   -0.0131   -0.1466    0.1763    0.2530    0.5430   -0.1800
    0.1547    0.3461   -0.0689   -0.2358   -0.3574   -0.2381   -0.0506    0.1180   -0.1158    0.1579
    0.0240    0.2455   -0.0596    0.0158   -0.2120   -0.0687    0.1297   -0.1832    0.0596   -0.1126
    0.1325    0.0284    0.3593   -0.2254    0.1533    0.0718   -0.0767   -0.0960   -0.1529   -0.0551
   -0.1503    0.0226    0.0436    0.0983   -0.0899    0.2550    0.0769   -0.0772   -0.1487   -0.1027
    0.0254    0.0249   -0.1922   -0.0170   -0.1611    0.0693    0.2668   -0.0049    0.0154   -0.0338
   -0.0427   -0.2077   -0.0974   -0.0753    0.0132   -0.1988   -0.0863    0.0178   -0.2694    0.0619
   -0.2057   -0.1764   -0.1589    0.1624    0.1008   -0.0386    0.0469    0.0938    0.1879   -0.2025
    0.0214   -0.1010   -0.0620    0.0166    0.0948   -0.0007   -0.0598    0.0500   -0.0823   -0.0041
   -0.0949   -0.0441   -0.1215    0.2209    0.0065   -0.0675    0.0839   -0.0859   -0.1124    0.0859
   -0.1368    0.0903   -0.2503    0.0320   -0.0393    0.0558   -0.1089    0.0071    0.2022   -0.0822
    0.0410   -0.0734    0.0467   -0.1079   -0.0072   -0.1799   -0.2234    0.0738   -0.0336    0.0933
    0.0650    0.1037   -0.1466   -0.1230   -0.0852   -0.1812   -0.0393   -0.1918    0.0495    0.0269
   -0.0956   -0.1095   -0.4346   -0.3122   -0.3690   -0.3393   -0.4416   -0.2801   -0.5036   -0.4487
   -0.1562   -0.3225   -0.7875   -0.3582   -0.2136   -0.4757   -0.6144   -0.4920   -0.7373   -0.4216
   -0.6506   -0.5082   -0.0091   -0.0534    0.0000    0.0000    0.0000    0.0000    0.0000    0.0000
    0.0000    0.0000    0.0000
   -0.1277   -0.0940    0.0910   -0.0103   -0.1016    0.0908    0.0460   -0.0584   -0.0831    0.0697
    0.0132    0.0033    0.0057    0.0891    0.0070   -0.0054   -0.1047    0.0477   -0.0091   -0.0115
   -0.0516   -0.0145   -0.0192   -0.0221    0.0556   -0.1420    0.0116    0.0654    0.0429   -0.0645
   -0.1308   -0.0273   -0.1342    0.0232   -0.2664   -0.0041    0.0508   -0.0886    0.0515   -0.0022
   -0.1974   -0.0769    0.1459   -0.2150   -0.0705    0.0140    0.0078   -0.0587    0.0137    0.0107
   -0.0061    0.0202    0.0380   -0.0127   -0.1207   -0.1027    0.1020    0.0810    0.2228   -0.0612
    0.0260    0.0216    0.0093   -0.0748    0.0121   -0.1181   -0.1358    0.0127   -0.0564    0.0895
    0.0153    0.0156    0.0716   -0.1450    0.0292    0.0121   -0.1035   -0.0040    0.2957   -0.0680
   -0.2208   -0.0140   -0.1604    0.0400   -0.0416    0.1197   -0.0139    0.1489    0.0279    0.0191
   -0.1001   -0.1071    0.0671   -0.1459   -0.0502    0.0566   -0.0170    0.0641   -0.0554    0.0534
   -0.2339   -0.0471   -0.0924   -0.1264    0.0914   -0.0152    0.1054   -0.1509    0.1190   -0.0413
   -0.0847   -0.2352   -0.0332   -0.1325    0.0882    0.2076    0.2292   -0.0130   -0.0233    0.0012
   -0.2672   -0.0865   -0.1464   -0.0152    0.0097   -0.1232   -0.1852   -0.1459   -0.1249    0.2227
   -0.0497    0.0082   -0.1443    0.0120    0.0768    0.0820   -0.0767   -0.0216   -0.1417   -0.0760
    0.7283   -0.3589    0.0122    0.1825    0.0169    0.0133   -0.0409   -0.0818   -0.1177   -0.2135
   -0.7386    0.5606    0.4575    0.1919    0.1403   -0.1813   -0.1886   -0.3386   -0.7108    0.2001
   -0.2393    0.1539    0.2720    0.1926    0.1114   -0.1388    0.0444    0.2169   -0.1947   -0.0723
   -0.0957   -0.0151   -0.2858   -0.2284   -0.0733    0.3693   -0.0771   -0.5203   -0.1333   -0.1751
   -0.0976    0.0470    0.1575   -0.0337    0.0941   -0.0785    0.0307   -0.0669    0.8763   -0.2015
    0.1939    0.1825   -0.0658   -0.0413   -0.2554   -0.0258   -0.1670   -0.1005   -0.1297    0.1841
   -0.0381    0.2343    0.1974    0.0688    0.1410   -0.0780   -0.0896   -0.0017    0.0690   -0.0283
   -0.0264   -0.0832    0.2777   -0.0835    0.1342    0.1623    0.0024   -0.0814    0.0211   -0.1342
   -0.1365   -0.0640   -0.0794   -0.0550   -0.0164    0.2975   -0.1686   -0.0448   -0.0046   -0.0449
   -0.0122    0.0369    0.0479   -0.2044   -0.0896   -0.0869   -0.0892   -0.0570    0.0560    0.0969
    0.0927   -0.0561   -0.0313    0.0677   -0.1305   -0.0631   -0.1094    0.0761    0.1661    0.1719
    0.1247   -0.1078    0.0333    0.0408    0.0132   -0.0876   -0.1728    0.0480   -0.1276   -0.0876
    0.0520   -0.0699   -0.0249   -0.0452   -0.1056   -0.1803   -0.0023   -0.0884   -0.0515   -0.0577
    0.0214   -0.0764   -0.1970    0.0939    0.1706   -0.1748    0.1321    0.2696   -0.0809   -0.1168
   -0.1541    0.0621   -0.0276   -0.0050   -0.0119   -0.0512   -0.0436    0.0668   -0.0758   -0.0978
   -0.1211   -0.0380   -0.0295    0.1486    0.0419   -0.1296    0.0049   -0.0566    0.0401    0.0402
    0.1856    0.1228   -0.1476   -0.1072    0.0496   -0.0527   -0.2294   -0.0923    0.0094   -0.1055
   -0.1563    0.1286    0.1220    0.0670    0.1844    0.1897    0.2530    0.0905    0.1794    0.0424
    0.1878    0.1569    0.2257    0.0960    0.3186    0.1541    0.3421    0.1821    0.3311    0.1874
    0.0821   -0.0168    0.0308   -0.5345    0.0000    0.0000    0.0000    0.0000    0.0000    0.0000
    0.0000    0.0000    0.0000
   -0.0455    0.2504    0.0601    0.0748    0.0775   -0.0199    0.1143   -0.0425   -0.0195    0.0640
    0.0326    0.0631   -0.0002    0.1527   -0.0111   -0.0242   -0.0178    0.1505   -0.0583    0.1399
    0.0600   -0.0067    0.0631    0.0561   -0.0309    0.1863    0.1071    0.1846    0.0729   -0.0730
   -0.0024    0.0273    0.0620    0.0349    0.0732    0.1139    0.0327    0.0795    0.0317   -0.0899
    0.0013   -0.0007   -0.0007   -0.0013    0.0291   -0.1896   -0.0271   -0.0708   -0.0754    0.0135
    0.1415    0.0622   -0.0417   -0.0670   -0.0456    0.0192    0.0558   -0.0496    0.0445    0.0842
   -0.0175   -0.0083    0.0785    0.0518    0.0152    0.0357    0.0714    0.0911    0.2436   -0.0462
   -0.0002    0.0455    0.0475   -0.0682    0.1768    0.0840   -0.0448    0.0508    0.1009    0.0402
   -0.0067   -0.1644    0.0368   -0.0128   -0.0436   -0.0419    0.0883    0.0694    0.0739    0.1468
   -0.0605    0.0458   -0.0200   -0.0625    0.1426    0.1232    0.2733    0.1811    0.1746    0.0369
    0.1526   -0.0418    0.1081   -0.0052    0.0712   -0.1432    0.0571    0.0924   -0.0045    0.0211
   -0.0510   -0.0904    0.0412   -0.1739    0.0372   -0.0069   -0.0333    0.0042   -0.0260   -0.1316
    0.2297    0.0369    0.2292    0.1241    0.0809    0.0379    0.1526   -0.1166    0.1197   -0.0020
    0.0605   -0.0465   -0.0919    0.0002    0.0681   -0.0860    0.0564    0.0396   -0.0961   -0.1234
   -0.1684    0.1249    0.0795   -0.1288    0.4232    0.2171    0.3368    0.2455    0.2919   -0.0081
   -0.2577   -0.0587    0.2089   -0.0210   -0.0362    0.0105    0.1529   -0.1857   -0.2843    0.1965
   -0.1121    0.1319   -0.2141   -0.0165   -0.0110    0.3406   -0.0077    0.0338    0.1474    0.1800
    0.1517    0.0621    0.0868    0.0444    0.1350    0.0473    0.1184   -0.0642   -0.0474    0.0481
    0.0612    0.0287    0.0197   -0.0997    0.1716    0.0580   -0.0411   -0.0851   -0.1310    0.1022
    0.1009    0.0190    0.0649    0.1725    0.1097    0.1425   -0.0180    0.0195   -0.0682   -0.1608
    0.2202   -0.1113    0.0474    0.0808    0.0764    0.0967    0.0508    0.1343   -0.0619   -0.1012
    0.0580   -0.0146    0.1094   -0.1424    0.0144   -0.1263   -0.0609    0.1070    0.1317    0.1054
    0.2003   -0.0097    0.0830   -0.0158    0.1191   -0.1123   -0.0675    0.0646    0.0452    0.0808
    0.0852    0.0773    0.1518   -0.1133    0.0840    0.0728    0.1520   -0.0443    0.1052   -0.0029
    0.1203    0.0065    0.1025    0.1451   -0.0689    0.0185    0.1396    0.0030    0.1986    0.0308
    0.0904    0.0493    0.0221    0.0024    0.1107    0.0543    0.0691    0.0246    0.0990    0.1323
    0.0728    0.0054   -0.0164    0.0095    0.0513   -0.0138    0.0265    0.1616   -0.0306    0.0635
    0.0136   -0.0775    0.0828   -0.0153    0.0860    0.0133   -0.0765   -0.0167    0.0657    0.0720
    0.0097    0.0191    0.1392    0.0460    0.0547   -0.0842    0.1242   -0.0626   -0.0124    0.0493
    0.1416    0.0183    0.0388    0.0263    0.1812    0.0373    0.0052    0.0708    0.1135    0.0490
   -0.0428   -0.0668    0.0882   -0.0170   -0.0139    0.1360   -0.0391    0.0706    0.0324    0.0133
    0.0943   -0.0524    1.1583    0.7308    1.3624    0.5287    1.2142    0.2120    1.0431    0.9262
    0.9009    1.2639    1.1907    1.0493    0.0238    0.4894    1.2059    1.0511    1.1620    1.0993
    1.2061    1.3953   -0.0979   -0.7018    0.0000    0.0000    0.0000    0.0000    0.0000    0.0000
    0.0000    0.0000    0.0000
   -0.1222    0.0359    0.0391   -0.0274    0.0608    0.0346   -0.0245    0.0102    0.0346   -0.0931
    0.0257    0.0057    0.0151   -0.0205   -0.1156    0.0938    0.0393    0.0232    0.0607    0.0175
    0.0133    0.0171   -0.1247   -0.0265   -0.0410    0.1456   -0.0336    0.0927    0.1358    0.0977
    0.0672    0.0208   -0.0327    0.1099   -0.0039   -0.0539   -0.0834   -0.0661   -0.1377   -0.0576
    0.0584    0.0441   -0.1009   -0.0597    0.1645   -0.1526   -0.1004   -0.0404    0.0060   -0.1068
   -0.0511   -0.0006   -0.1323   -0.1168   -0.0405    0.0298   -0.0718   -0.0393   -0.1723    0.1768
    0.0234   -0.1476   -0.0476    0.2815    0.0561    0.1560    0.0610   -0.0084   -0.1040   -0.3086
   -0.1203    0.0534   -0.1600   -0.1296   -0.0224   -0.0073    0.0194   -0.1480   -0.1109    0.0308
    0.0279    0.0228    0.0686    0.0782    0.1377    0.0385   -0.0741    0.0447   -0.0304    0.3351
    0.1638   -0.0395   -0.0614   -0.1485   -0.1085    0.0152    0.0408    0.0434   -0.0702   -0.0232
    0.0248   -0.0238   -0.0128    0.1134   -0.0186    0.0064   -0.0134    0.0187   -0.0532    0.0529
   -0.0501   -0.1913    0.0495    0.0286   -0.1571    0.0669   -0.0677   -0.0880   -0.0008    0.0734
    0.2420    0.1462    0.2716   -0.0523    0.0298   -0.0100    0.1190   -0.0268   -0.0739   -0.0546
   -0.1934   -0.1651    0.0511   -0.0074   -0.0851   -0.1598    0.0452   -0.1088    0.0479   -0.0833
   -0.0597    0.0533   -0.0309   -0.0084    0.0066   -0.4021   -0.1745   -0.4382   -0.5677   -0.2920
   -0.1590   -0.3961   -0.0775    0.0917   -0.0553    0.2113   -0.3924   -0.1329    0.4258    0.9159
    0.2248    0.6025    0.1848    0.3493    0.3021   -1.1868   -0.0585   -0.0117    0.1766    0.2019
   -0.0005   -0.1918    0.1019    0.0299    0.1376    0.0676    0.0515   -0.1168   -0.2098   -0.1335
    0.1541    0.0375    0.0114   -0.1469   -0.0392   -0.0080    0.0191   -0.1103   -0.2254    0.0036
   -0.1091   -0.0579   -0.0114    0.2651    0.0555    0.2543   -0.1288    0.0736   -0.0001   -0.1480
    0.1358   -0.1773   -0.1361   -0.0636   -0.0582   -0.1210   -0.0305    0.0764   -0.0541    0.0553
    0.0191    0.0650   -0.0980   -0.0878    0.0083    0.1349   -0.2582   -0.2092   -0.0744   -0.0402
   -0.0114    0.0544    0.0415    0.0447    0.0237   -0.2263    0.1029    0.0496    0.0115   -0.1846
   -0.0527    0.1361    0.1707    0.0618    0.0891    0.1642   -0.0887   -0.3414   -0.0390    0.0468
   -0.0649    0.0427   -0.1158    0.0599    0.0663    0.0341   -0.0237    0.0568   -0.1088   -0.1761
    0.0314    0.0489   -0.0389   -0.0333   -0.0433    0.1112    0.0785   -0.0679    0.0107    0.0639
    0.0998   -0.3228    0.0090   -0.0507    0.0183   -0.0013    0.0331   -0.0714   -0.0206   -0.0209
    0.0135   -0.0945    0.0135   -0.2533    0.1018    0.1463    0.0527   -0.0525   -0.0773   -0.0566
    0.0267    0.0269    0.1750   -0.0048   -0.0359   -0.1379   -0.0016   -0.0939    0.0428   -0.0890
   -0.0111    0.0745   -0.1147    0.0660    0.1716    0.0136    0.0686    0.0340    0.0943   -0.0058
   -0.0566   -0.1027   -0.0138    0.0758    0.1225    0.2868    0.1909   -0.0342   -0.0364   -0.1307
    0.0425   -0.0767    0.0228    0.0693   -0.0450    0.2074    0.2016    0.1836    0.1802   -0.1405
   -0.0403    0.0145    0.0517    0.1700    0.3747    0.1866    0.1908    0.0067    0.2550    0.0526
    0.1569    0.0532    0.0180   -0.0052    0.0000    0.0000    0.0000    0.0000    0.0000    0.0000
    0.0000    0.0000    0.0000
    0.1609   -0.1184    0.0529   -0.1217   -0.1069    0.0130   -0.0729    0.0042    0.1485    0.0325
    0.0073   -0.1188    0.0664    0.0744    0.1230    0.1282   -0.0209   -0.0347    0.0888   -0.0486
   -0.0249   -0.1986   -0.0323   -0.0345    0.0610   -0.1258   -0.0925   -0.1147    0.0061   -0.0035
   -0.0013    0.1520   -0.0436   -0.1028    0.1298    0.1597   -0.0114   -0.0787    0.0542   -0.1074
   -0.0028   -0.0091    0.0247   -0.0467   -0.0457   -0.0993   -0.0945   -0.0612    0.0885   -0.0090
   -0.0609    0.0575    0.1740    0.0111    0.0833    0.0439   -0.1211    0.1319   -0.0872    0.0065
    0.0214    0.0290    0.0088   -0.1469   -0.0490    0.0382    0.0177   -0.1205   -0.0222   -0.1358
   -0.1250    0.0162    0.1334   -0.1075   -0.0692   -0.0178    0.2711    0.0743   -0.1142   -0.0303
   -0.0908   -0.0606   -0.0080    0.0154    0.1288    0.0183   -0.1243   -0.1204   -0.0079   -0.3068
    0.0003   -0.0181    0.1969    0.0867   -0.0733    0.0201   -0.1576   -0.2162   -0.0045    0.1377
   -0.0470    0.0231   -0.0685    0.0753   -0.0415   -0.0551   -0.0331   -0.0483    0.0629    0.0802
    0.0607    0.0738    0.0017    0.1348    0.1374   -0.2263    0.1892   -0.0550    0.1028   -0.0917
   -0.0288    0.1077   -0.0791    0.1617    0.1051   -0.0697    0.0263    0.0118    0.0022   -0.1297
    0.1894    0.2591    0.1215    0.0007    0.0066   -0.0677   -0.0578    0.0647    0.1273   -0.1370
    0.0089    0.2564   -0.0177    0.0451   -0.1299    0.3395    0.2463    0.1498    0.1733   -0.1074
   -0.0832   -0.0954   -0.4539   -0.2609   -0.1461   -0.1139    0.1852   -0.0715    0.3737    0.3708
    0.0909    0.1368   -0.1922   -0.1318   -0.1608    0.1310   -0.0677    0.0859    0.0044    0.0821
   -0.0230   -0.0116    0.0685    0.1530    0.0370    0.0475    0.1899    0.0952    0.0679    0.0055
    0.1195   -0.1484   -0.1428    0.2010   -0.0805   -0.1185   -0.1513   -0.0248   -0.0625    0.1315
    0.0295    0.0293   -0.2042   -0.1035    0.0690   -0.2786   -0.1421   -0.0686    0.1494   -0.1142
   -0.0208    0.0275    0.0592    0.1315    0.0044    0.1998    0.0057   -0.0800    0.0999    0.0127
    0.1163    0.0844    0.0461    0.0724   -0.0213   -0.0970   -0.1903   -0.0991    0.1515   -0.0078
   -0.1532    0.0499    0.0242    0.1276    0.2449    0.0303    0.0096   -0.0727    0.0667   -0.0382
    0.0249   -0.4094   -0.1363    0.2717   -0.1298    0.0262    0.1399    0.1524   -0.0364   -0.0537
   -0.1313    0.1246   -0.0239    0.0914    0.1774   -0.1512   -0.0147    0.1032   -0.1537    0.0185
   -0.1572   -0.1637   -0.0399    0.0304   -0.0164   -0.1643    0.0681    0.0538   -0.0891    0.0769
    0.0674   -0.0291   -0.0659   -0.0568    0.1469    0.0439   -0.0742    0.0834    0.0108   -0.1103
   -0.0177   -0.0088    0.1492    0.0163    0.0343   -0.0075   -0.0979   -0.1516   -0.0617   -0.0778
    0.0055   -0.0764   -0.0906    0.0362   -0.0991   -0.1084    0.0340   -0.0605   -0.0080   -0.0126
   -0.0224   -0.0109   -0.1713   -0.0965   -0.1097    0.0841    0.0067   -0.0542   -0.0361    0.0822
    0.0563    0.0862   -0.1116    0.0283    0.0503   -0.1574   -0.0976    0.0780    0.0152   -0.1013
   -0.0032   -0.0576   -0.2175   -0.0891   -0.2359   -0.0271   -0.1334   -0.1161   -0.0917   -0.0297
    0.0246   -0.0500   -0.1765   -0.0612   -0.0358   -0.0589   -0.1773   -0.1047   -0.0289   -0.2453
   -0.1045   -0.1123    0.0752   -0.1712    0.0000    0.0000    0.0000    0.0000    0.0000    0.0000
    0.0000    0.0000    0.0000
    0.1180    0.1200   -0.1936   -0.0605    0.0300    0.1019   -0.0523   -0.0513    0.1326   -0.1394
   -0.0766    0.0600    0.1775   -0.0333   -0.0053   -0.0010   -0.0727   -0.0641   -0.1559   -0.1650
    0.1105    0.0713   -0.3098   -0.0213    0.0327   -0.1012   -0.0807    0.0939    0.0695    0.0241
   -0.0603   -0.2113   -0.0539   -0.0233   -0.1206   -0.2103    0.0890   -0.0219    0.0372    0.1827
   -0.0559    0.0006    0.1046   -0.2191    0.1156    0.1011   -0.2090   -0.0088   -0.1822   -0.0790
   -0.2155   -0.0228   -0.0202   -0.0405   -0.1363   -0.1241    0.0633    0.1607    0.2698   -0.1319
    0.1536   -0.0455   -0.0213    0.1940    0.0126    0.2122   -0.2026    0.1014    0.0240   -0.2190
   -0.2475   -0.1945    0.0338   -0.0536   -0.1834   -0.0990   -0.2563   -0.1234    0.0152   -0.2216
    0.1064    0.1167    0.0783   -0.1710    0.0076   -0.0578    0.0537    0.3123    0.1817   -0.0370
   -0.0870   -0.0543    0.2568   -0.2648   -0.1183   -0.0937   -0.1907    0.1726   -0.1462   -0.0874
   -0.1537   -0.0179   -0.0899    0.0150   -0.0806    0.1620    0.0018    0.0896    0.0405   -0.1116
   -0.2021   -0.0479   -0.1053   -0.3088    0.2000    0.1661    0.6434    0.0375    0.0805    0.1392
   -0.5358   -0.4708   -0.4829   -0.2598   -0.3153   -0.2423   -0.3769    0.1005   -0.0508    0.5236
    0.0784   -0.0936   -0.1602   -0.1583   -0.0326    0.2964    0.1073    0.1307    0.0138    0.1620
    1.2097   -0.5558    0.1748    0.3673   -0.8078   -1.3122   -1.0371   -0.5259   -0.7199   -0.5057
   -0.6420    0.5461   -0.0149    0.5669    0.3416   -0.0327   -0.9229   -0.1606    0.1836    1.5016
    0.4374    0.9852    0.6156    0.8907    0.1586   -1.7565    0.2560    0.3938   -0.3126   -0.1344
   -0.3240   -0.1934   -0.3978   -0.1344   -0.1790    0.1577   -0.0458   -0.2627    0.1405    0.0366
   -0.1684    0.0576   -0.0297    0.1957    0.1004    0.1209    0.2596    0.2985    0.9915   -0.3531
    0.4448    0.4479   -0.1882   -0.1400   -0.3629   -0.2811   -0.0734   -0.0530   -0.1112    0.2797
   -0.3647    0.5055    0.1566    0.1569    0.1180   -0.1633   -0.0208    0.2190    0.0203   -0.0081
   -0.0147   -0.1439    0.4849   -0.0843    0.2369    0.4888    0.0722   -0.2549   -0.2727   -0.3063
   -0.2041   -0.1957   -0.1186   -0.1875   -0.1746    0.3817    0.2265    0.0125   -0.1042   -0.0683
    0.0209    0.2064    0.0846    0.0795    0.1421    0.1428    0.1278   -0.2937    0.1980    0.1877
    0.0144   -0.1650   -0.1469   -0.3190   -0.0825   -0.0356   -0.2468   -0.1085    0.0191    0.2200
    0.1091    0.0985   -0.0121   -0.0396   -0.1189    0.2390   -0.0914    0.1764    0.0598    0.0325
    0.2992   -0.2001   -0.0382    0.0334    0.1491    0.0681    0.0182   -0.1555   -0.0049    0.0314
    0.0525   -0.1809   -0.0369    0.1513   -0.0740   -0.0236    0.1536    0.0008    0.0780   -0.0704
    0.0056    0.0152   -0.1848    0.0010    0.0900    0.2356   -0.0733    0.0344    0.1638    0.1701
    0.0801   -0.0711    0.0761    0.0791   -0.0713   -0.1108   -0.0905    0.0047    0.0894    0.0673
    0.1267    0.0473    0.0262    0.0822    0.0311   -0.2401   -0.2279    0.1249    0.1695    0.1452
   -0.2783   -0.0154   -0.1351    0.1154   -0.5343   -0.1345   -0.0387   -0.1811   -0.2105   -0.3750
   -0.0680   -0.1043   -0.2572    0.1917    0.4193   -0.1891   -0.1345   -0.0230   -0.0166   -0.1542
   -0.3113   -0.2807    0.0287    0.2963    0.0000    0.0000    0.0000    0.0000    0.0000    0.0000
    0.0000    0.0000    0.0000
    0.0746    0.0127    0.1015    0.1316    0.1150   -0.0340   -0.0924   -0.1111   -0.1259    0.0265
    0.0570    0.3151    0.0479   -0.1239   -0.0579   -0.1420    0.0710    0.0876    0.0466    0.2028
    0.2182    0.2301   -0.1874   -0.2983    0.0068    0.0693   -0.0841   -0.2429   -0.0402    0.0418
   -0.0651   -0.3028    0.0910    0.0271    0.1242    0.2069    0.1297    0.1016    0.1323    0.0593
    0.2340   -0.1955    0.0622    0.0405    0.4874    0.2047   -0.0235    0.0538   -0.0862   -0.1314
   -0.2225   -0.1683   -0.1083    0.0142   -0.0971   -0.1190    0.0224    0.1549   -0.0117    0.0450
    0.0047   -0.0509    0.1182    0.3557    0.2771    0.3886    0.0836    0.1274    0.2514   -0.4245
   -0.0788   -0.3352   -0.3230   -0.0515   -0.4344   -0.1990   -0.1036   -0.1427   -0.1319   -0.0776
    0.0534    0.0855    0.1167    0.0865   -0.2153   -0.0233    0.1513    0.2880    0.2323    0.2420
    0.1059    0.4060    0.5127   -0.2452   -0.1444   -0.3248   -0.3157    0.0172   -0.3922   -0.1729
   -0.0940   -0.0957   -0.2452    0.0296   -0.0441    0.0892    0.1486    0.2976   -0.0552   -0.0034
    0.1329    0.2315    0.0654    0.1757    0.1910    0.0364    0.8328   -0.0822    0.1592    0.1503
   -0.3396   -0.0230   -0.3989   -0.1409   -0.2955   -0.0856   -0.3415    0.0552    0.1777    0.4861
    0.2051   -0.0031   -0.1347   -0.1615   -0.1544    0.2387    0.0244    0.0072    0.0722    0.2115
    0.7322   -0.1735    0.2173    0.4438   -1.3160   -0.8592   -1.4322   -1.0165   -0.9262   -0.6544
   -0.0986   -0.1270   -0.7232    0.5628   -0.1355    0.0181   -1.5446    0.2635    1.2479    2.5429
    0.8926    1.8266    0.7225    0.9835    0.5950   -2.2863    0.2831    0.5005   -0.1683   -0.4729
   -0.5309   -0.1583    0.0001   -0.0810   -0.2617    0.3111    0.1249    0.3806    0.0904   -0.0550
   -0.0986    0.1047   -0.2203    0.1943    0.0351    0.3794    0.2468    0.3786    0.7020   -0.2969
    0.3312    0.5632   -0.0510   -0.1144   -0.1223   -0.1860   -0.2194   -0.1929   -0.0981    0.0910
   -0.0233    0.4284    0.0962    0.2369   -0.2041    0.0139    0.2203   -0.0681    0.0812    0.0202
    0.0773    0.1795    0.7600   -0.3413    0.0026    0.4641   -0.1427   -0.2754   -0.2592   -0.3930
   -0.1434    0.0947   -0.1796    0.0093   -0.1790    0.2897    0.0856    0.1486    0.0241   -0.3238
    0.0219    0.4844    0.2056    0.1321    0.1831    0.1578    0.6577   -0.2721    0.1834    0.2267
   -0.1341   -0.5211   -0.2375   -0.4714   -0.4419   -0.1452    0.1002    0.0841    0.0591    0.1795
    0.2093    0.2397   -0.2133   -0.0663    0.0654    0.4303    0.2014    0.2772    0.0481    0.1076
    0.6715   -0.3912    0.1040   -0.0082   -0.0312   -0.0315    0.1465   -0.0468    0.1929    0.0016
    0.0455    0.0108    0.1378   -0.0295    0.0095    0.1309    0.0616    0.0752    0.0355    0.1104
    0.1473   -0.0721   -0.0654   -0.0329    0.4410    0.3352   -0.0832    0.0998    0.1548    0.2482
    0.2455    0.0847    0.2148   -0.0275   -0.0699    0.0994   -0.0400   -0.0329    0.0128    0.0398
    0.2253   -0.0338   -0.0223   -0.0771   -0.0944    0.0841   -0.0544   -0.0599    0.4964    0.3049
   -0.2182    0.0227   -0.3266    0.2864   -0.8005   -0.5066    0.0397   -0.6955   -0.4460   -0.6159
   -0.0327   -0.3723   -0.5469    0.4628    0.3502   -0.7500   -0.2299   -0.1679   -0.2893   -0.3358
   -0.4077   -0.3813    0.0459    1.4832    0.0000    0.0000    0.0000    0.0000    0.0000    0.0000
    0.0000    0.0000    0.0000
    0.0990    0.0326    0.0034   -0.0271    0.0858   -0.0305   -0.0621    0.0182    0.0178   -0.0934
   -0.0274   -0.0955    0.0992    0.0207    0.0110   -0.0638    0.0357   -0.0764    0.0452    0.0583
   -0.0043   -0.0361   -0.0001   -0.0888    0.0523    0.0911   -0.0478   -0.0711    0.0572   -0.0413
   -0.0519    0.0105   -0.0474   -0.1171    0.0458    0.0919   -0.0549   -0.0004    0.0691    0.0022
    0.0437   -0.0373   -0.0069    0.0119    0.0380    0.1761    0.0430   -0.0661    0.0298   -0.1396
   -0.0156   -0.0692   -0.0535    0.0551    0.0141    0.1513   -0.0577   -0.0324   -0.1011    0.1048
   -0.0418    0.0753   -0.0102   -0.0089   -0.0640    0.0746   -0.0901   -0.0031    0.0672    0.0976
   -0.0223    0.0189   -0.1014    0.0635   -0.0357    0.0023   -0.0205   -0.0081    0.0710    0.1768
    0.1173    0.0378    0.0654    0.0811   -0.0992   -0.0094   -0.0438   -0.2393    0.0058   -0.1309
    0.1034    0.1310   -0.0389    0.0551   -0.0467    0.0096   -0.0664   -0.0480   -0.0604    0.0299
    0.1071   -0.0131    0.0987   -0.0776    0.0432   -0.0040   -0.0621   -0.0460   -0.1059   -0.0305
   -0.1163   -0.1405    0.0059    0.0181   -0.0063    0.0296   -0.0339   -0.0785   -0.0127    0.0263
   -0.0073   -0.0145    0.0203   -0.0453   -0.0438    0.0074    0.0472    0.1250    0.0634   -0.0991
    0.0372    0.0271   -0.0347    0.0192   -0.0659    0.1521    0.1074   -0.0230    0.0601   -0.0154
   -0.0316    0.0795    0.0446   -0.0015    0.1808    0.2951    0.2544    0.0457    0.3095    0.1630
    0.1531   -0.3145   -0.1108   -0.1098   -0.2175   -0.1444    0.1703   -0.0236    0.0750    0.1908
   -0.0573    0.1608   -0.1078   -0.0264   -0.0733    0.5137    0.0477    0.0739   -0.0821   -0.1163
    0.1100    0.0841   -0.0171    0.0603    0.0836   -0.0436   -0.0199    0.1254   -0.0510    0.0222
   -0.0930   -0.0168   -0.0202   -0.0143   -0.0631    0.0489    0.0434   -0.0567   -0.0372   -0.0117
   -0.0807    0.1149   -0.0059   -0.0849   -0.0507   -0.0315    0.1699    0.1077   -0.0630    0.1167
   -0.0397    0.1313   -0.0556    0.0974   -0.0546    0.1018    0.0486    0.0652    0.1106   -0.0307
   -0.0490    0.0295   -0.0444    0.2095    0.0669    0.0114   -0.0615    0.0699   -0.2035    0.0308
   -0.1365    0.0702    0.0087    0.0081   -0.1884    0.1119   -0.0586    0.0283    0.0392    0.0349
    0.0494   -0.0612   -0.0134    0.0425    0.1511   -0.0020    0.1284    0.0931    0.0177   -0.0946
   -0.0685   -0.1142   -0.0094    0.1073   -0.0077   -0.0812   -0.0040   -0.0280    0.0245   -0.0099
   -0.0498    0.0824   -0.0735   -0.0492    0.1316   -0.0362    0.0189   -0.0058    0.0484    0.0069
    0.0840   -0.0163    0.0402   -0.0936   -0.1495    0.0807   -0.0344    0.0035   -0.0060   -0.0367
    0.0308    0.0374   -0.0159   -0.0036   -0.0193   -0.0047    0.0085    0.0040    0.0043    0.0403
    0.0101   -0.0125    0.1239    0.0949    0.1052    0.0545   -0.0882   -0.0003   -0.0279   -0.0156
    0.1171    0.0625    0.1192   -0.0276    0.0362    0.0426    0.1193    0.0107   -0.0289   -0.0601
   -0.0781   -0.0427    0.0595    0.0407    0.0465    0.0427    0.0763    0.0482    0.0551    0.0115
    0.0728   -0.1292    0.1138    0.0553    0.2020   -0.0692    0.1504   -0.0361    0.1222    0.1132
    0.3182    0.1149    0.0464    0.1550   -0.0139    0.0484    0.1460    0.0225    0.0507    0.0243
    0.1357    0.0263   -0.0681   -0.5118    0.0000    0.0000    0.0000    0.0000    0.0000    0.0000
    0.0000    0.0000    0.0000
   -0.0163   -0.0619    0.0074   -0.1105   -0.0335   -0.0164   -0.0250    0.1787   -0.1141    0.1006
    0.0807   -0.0663    0.0005   -0.0056    0.0620    0.0523    0.0871    0.0330    0.1311   -0.1507
    0.1000   -0.1294   -0.0045    0.0305   -0.0165   -0.0762   -0.0374   -0.0112   -0.0918   -0.0020
   -0.0110    0.1644   -0.0955   -0.0231    0.0797    0.1796   -0.0066   -0.0433   -0.0795   -0.0597
    0.0491    0.0740   -0.0180    0.0598   -0.0432   -0.1959   -0.0175   -0.0268    0.0382   -0.1268
    0.1217    0.0024    0.0392    0.1262    0.1920    0.0637   -0.1025   -0.0786   -0.0529    0.0567
   -0.0379    0.0269   -0.0651    0.1620    0.0948   -0.0063    0.0441   -0.1130    0.1677   -0.1819
    0.0620    0.1348    0.0168    0.0495    0.0469    0.1538    0.0791   -0.0539   -0.0861    0.0339
    0.0979   -0.1103    0.1000    0.0426    0.0376   -0.0747    0.0185   -0.1299   -0.1641   -0.0414
    0.0454   -0.0006    0.0043   -0.0274    0.0644    0.1097    0.0184   -0.1419   -0.0686   -0.0030
    0.0930    0.0740    0.0436    0.1209   -0.0685   -0.0422   -0.2373    0.0908    0.0289    0.0138
    0.0185    0.1929    0.2399    0.1055   -0.0905   -0.2515   -0.1309   -0.1337   -0.0170   -0.1308
    0.1397    0.2953    0.1001    0.0622   -0.0421    0.2197    0.1376   -0.0572    0.1224   -0.2774
   -0.0065    0.1775   -0.0194   -0.0781   -0.0948   -0.2270   -0.1137   -0.0666    0.0052   -0.0752
   -0.3686    0.0433   -0.1183   -0.0232    0.3287    0.3849    0.3848    0.1805    0.1258    0.1577
    0.4532   -0.2158    0.1174   -0.3862   -0.1740   -0.0734    0.3162    0.0170    0.1830    0.0872
   -0.2447   -0.1432   -0.3338   -0.4254   -0.1368    0.2350   -0.1236    0.0504    0.3513    0.2055
    0.0140    0.1621    0.2874    0.0585    0.1511   -0.2382    0.0951    0.0979   -0.0299   -0.0776
    0.2442   -0.0304    0.0414    0.1113   -0.2570   -0.1524   -0.1513   -0.3732   -0.4308   -0.0157
   -0.0460   -0.1498    0.2663   -0.0112    0.2580    0.0714   -0.0587   -0.0178   -0.0195   -0.2845
    0.1228   -0.3061   -0.2504    0.0243    0.0022   -0.0004   -0.0561    0.0049    0.0506    0.1486
   -0.0081    0.0407   -0.0347   -0.1719   -0.0126   -0.3039   -0.0827    0.0762    0.3385    0.1347
    0.1300    0.1151    0.0887    0.0853    0.1366   -0.3546    0.1238   -0.1040    0.1670   -0.1006
   -0.0486   -0.1476   -0.0308    0.1621   -0.0396   -0.0782    0.1094   -0.0434    0.0290   -0.1957
   -0.0088    0.2199   -0.0620    0.0290    0.1393   -0.0143    0.2026    0.1307   -0.1943   -0.1750
    0.0062    0.1601    0.0631   -0.0254   -0.0110   -0.1943    0.0245   -0.1511   -0.1144    0.0188
    0.0346    0.0090   -0.0330   -0.0404    0.0307   -0.0873    0.0197    0.1017   -0.0185    0.0313
   -0.1379    0.1990    0.1492   -0.0531    0.0465    0.1267   -0.0949   -0.0070    0.0230   -0.0365
    0.0824    0.0229    0.1216   -0.0603   -0.0145   -0.2330    0.0801   -0.0674   -0.1062    0.0727
   -0.1154   -0.0285   -0.1749   -0.0749   -0.0045    0.0767   -0.0554   -0.0511    0.1431    0.0925
   -0.0020   -0.0198    0.0070   -0.0308   -0.0036   -0.0247    0.1605   -0.0519    0.0872   -0.0754
    0.0501    0.0102    0.3979    0.0993    0.6749    0.2315    0.4905    0.0568    0.5254    0.5476
    0.2014    0.5980    0.4638    0.4206   -0.0891    0.3326    0.5629    0.3775    0.6012    0.4336
    0.5233    0.6555   -0.0490   -0.3710    0.0000    0.0000    0.0000    0.0000    0.0000    0.0000
    0.0000    0.0000    0.0000
    0.0622   -0.1040   -0.0228   -0.0331    0.0408   -0.1055    0.0433    0.0623   -0.1553    0.0067
   -0.0505    0.1515   -0.1531   -0.0560    0.0791    0.0552   -0.0535    0.0637    0.1163    0.2135
   -0.1580   -0.3910    0.2309    0.1059   -0.3019    0.0085   -0.0934   -0.0926    0.0019   -0.1912
   -0.0277   -0.0155   -0.0358    0.0723    0.0161   -0.0422   -0.0698   -0.0155    0.2176   -0.0725
   -0.0554   -0.1216    0.0439    0.1718   -0.3762   -0.0630    0.1858    0.0435    0.1132   -0.0489
   -0.1162    0.1335    0.0922    0.0588    0.1119    0.0014    0.0390   -0.1435   -0.0524   -0.0888
   -0.0501    0.0486   -0.1054   -0.1915   -0.1145   -0.3208    0.1109   -0.0220   -0.2011    0.0511
    0.1253    0.1176    0.2260    0.0455    0.0459    0.0278    0.0001    0.2124   -0.0325   -0.0865
   -0.0820    0.1133   -0.1358   -0.0716   -0.0117    0.1303    0.0329   -0.1463   -0.1350   -0.2204
   -0.1377   -0.1534   -0.1594    0.0375    0.0928    0.1225    0.3088    0.1225    0.2240   -0.0491
    0.0834    0.2168    0.1731   -0.1465   -0.0785   -0.0728   -0.2347   -0.1472    0.1688    0.0068
    0.0496   -0.0382   -0.1623    0.1940   -0.0760   -0.1249   -0.3534   -0.2441   -0.0535   -0.1570
    0.2981    0.1823    0.2904    0.0819    0.0934    0.1979    0.1194   -0.1880    0.0353   -0.2777
   -0.2046    0.0791    0.1005    0.0577   -0.0239   -0.2225   -0.3086   -0.0928   -0.3131    0.0041
   -0.2763    0.0747   -0.0849   -0.2620    0.5795    1.1026    0.9050    0.7341    0.9728    0.4266
    0.1397   -0.1374    0.3551   -0.4142    0.0114   -0.1571    0.6775   -0.0377   -0.5945   -1.4401
   -0.3699   -1.1587   -0.3986   -0.7298   -0.4422    1.5929   -0.0463   -0.2403    0.2068   -0.0320
    0.2214    0.2326    0.2039    0.0524   -0.0329   -0.3461    0.0037   -0.1357   -0.0198   -0.0688
   -0.0922   -0.0885    0.0211   -0.1220   -0.0294   -0.0094   -0.1355   -0.1537   -0.2260    0.0359
   -0.0594   -0.3208    0.0715    0.0467    0.3312   -0.0042    0.0173    0.0266    0.0155   -0.1527
    0.0996   -0.4420   -0.0247   -0.2205    0.0339    0.0508   -0.0818   -0.2973   -0.0451   -0.0269
   -0.0708   -0.0219   -0.3133    0.1299   -0.1387   -0.3061    0.0894    0.1728    0.0217    0.0912
    0.2067   -0.0078    0.1326   -0.3087    0.0609   -0.2030   -0.2200   -0.0088    0.0583    0.1592
   -0.0368   -0.1420   -0.1226   -0.2431   -0.0447   -0.1240   -0.2905    0.0647   -0.2234   -0.2214
    0.0347    0.1028    0.1784    0.0886    0.0750    0.0999    0.0167    0.1267    0.1759    0.0688
    0.0520   -0.0310    0.1955    0.1515   -0.1913   -0.2316   -0.1083   -0.3125   -0.0913   -0.0327
   -0.4846    0.2029   -0.0563    0.0988   -0.2680   -0.1294   -0.0085   -0.0428    0.0997    0.0664
    0.0163    0.0640    0.0610    0.1149   -0.0704   -0.0280   -0.0692    0.0300    0.1027    0.0150
    0.0349   -0.1469   -0.0960   -0.0230   -0.1940   -0.1876    0.0406   -0.0089   -0.1300   -0.0699
   -0.1894   -0.0370    0.0717   -0.1642   -0.2070    0.0679    0.0254   -0.0368   -0.0590    0.0036
   -0.0800    0.1900    0.0710    0.0262   -0.1477   -0.0207   -0.1189    0.0091   -0.3648   -0.3230
   -0.0147   -0.0158    0.3095   -0.1615    0.6082    0.4180    0.2466    0.2798    0.4774    0.2838
   -0.0263    0.4220    0.4335   -0.2178   -0.4383    0.3578    0.3400    0.1159    0.3705    0.2265
    0.2744    0.2601    0.0296   -1.4053    0.0000    0.0000    0.0000    0.0000    0.0000    0.0000
    0.0000    0.0000    0.0000
    0.1042   -0.0912    0.0575    0.0509    0.2005   -0.0503    0.0353   -0.0480    0.0187   -0.0952
   -0.1117   -0.0034   -0.0302    0.0197   -0.1865   -0.2080    0.1573   -0.2017   -0.0410    0.0239
   -0.0344    0.0421    0.1024   -0.1333   -0.1534    0.0547    0.0284   -0.2658    0.1041    0.0935
    0.0858   -0.1372    0.0136    0.0387    0.0331    0.0232   -0.0386    0.0458   -0.0228   -0.2270
   -0.0437   -0.0719   -0.1078    0.2395   -0.0065    0.1790    0.1112   -0.1785   -0.1270    0.0317
   -0.0188   -0.0079   -0.1207    0.2179    0.1191    0.0332   -0.0904   -0.0340   -0.2458    0.1104
   -0.0136    0.0773    0.0254   -0.0832   -0.0934    0.1027   -0.0216   -0.1915   -0.1806   -0.1712
   -0.0252   -0.1314   -0.0587   -0.0252    0.1146    0.0085    0.1492   -0.1355   -0.3200    0.0025
   -0.0708    0.1285    0.1502   -0.0130    0.0405   -0.0926   -0.0881   -0.3201    0.1655   -0.0711
    0.0954    0.1153    0.1338    0.2484    0.1632   -0.1039   -0.1209   -0.1841   -0.1874   -0.0270
   -0.0804    0.0657   -0.0770    0.2419   -0.2781   -0.0264   -0.1725   -0.0649   -0.1361   -0.0003
    0.0063    0.0078   -0.0445    0.2117   -0.0921   -0.2205    0.1360   -0.2347    0.0234   -0.1433
   -0.0231   -0.0745    0.0094    0.0352    0.0209   -0.1269    0.0434    0.1647   -0.0865    0.0613
    0.0093    0.0443   -0.0135    0.0278   -0.1267   -0.1345    0.0022   -0.0073   -0.0526    0.1812
    0.0293    0.1825   -0.0160    0.0041   -0.0756    0.3175    0.2099    0.0153    0.3825    0.3221
    0.4004   -0.6584   -1.2527   -0.4571   -0.7575   -0.1974    0.3076    0.3145    0.7107    0.2092
    0.1006    0.0605   -0.2311   -0.1060   -0.1615    0.5611    0.0382    0.0828   -0.0613   -0.0484
    0.0051    0.0386    0.1214   -0.0082   -0.2876    0.0801   -0.1134    0.6728    0.0997   -0.0464
   -0.1691   -0.1128   -0.2603   -0.1768   -0.1896   -0.0438   -0.0627    0.1148    0.1245    0.1852
    0.0424   -0.1371   -0.1906   -0.0393    0.1952   -0.1239   -0.0007    0.1027    0.1930   -0.0516
    0.0617    0.0241   -0.0717   -0.0367   -0.3387   -0.1186    0.0692   -0.1117    0.0845    0.0412
    0.0059    0.0760    0.1283   -0.1210    0.0350   -0.1116   -0.0948   -0.0511   -0.3297    0.0026
   -0.1746    0.0740   -0.0591    0.0025   -0.0960   -0.1747   -0.0461    0.0812    0.0783   -0.0758
   -0.0472    0.0086   -0.1246    0.1223    0.0549   -0.0082    0.1143    0.0522    0.0177   -0.1593
   -0.0846    0.0435    0.0325   -0.0582    0.0149    0.0556    0.0852   -0.2816   -0.1862    0.0482
   -0.2950   -0.1325   -0.2712    0.0415    0.1788    0.2882    0.0713   -0.0390    0.1486   -0.0866
    0.0766   -0.1560    0.0716   -0.0757   -0.0970   -0.0022    0.0649   -0.0636    0.2001    0.0935
    0.0385   -0.1321    0.0269   -0.1323   -0.2788    0.2475   -0.0275   -0.2303   -0.1919   -0.1698
    0.0763   -0.0360   -0.0311    0.0756    0.0509   -0.0045   -0.0109   -0.0940   -0.1497   -0.0430
    0.0367   -0.0732    0.2053   -0.0216   -0.0681    0.0353    0.0606    0.1727   -0.1376   -0.1599
   -0.1022    0.0646    0.0086    0.0535   -0.1715    0.0343    0.1155   -0.1443   -0.0036   -0.1115
    0.0069   -0.2534   -0.3895   -0.2578   -0.5407   -0.5187   -0.5906   -0.2806   -0.6295   -0.4934
   -0.1409   -0.4568   -0.8558   -0.3238   -0.2206   -0.4870   -0.6606   -0.4514   -0.7560   -0.5662
   -0.6977   -0.6105   -0.0116    0.1995    0.0000    0.0000    0.0000    0.0000    0.0000    0.0000
    0.0000    0.0000    0.0000
 ***                         junction second layer: row=numhid+ (10F10.4)
    0.5813   -0.5423   -0.5578   -0.5965   -0.2935   -0.3927   -0.4093    0.5281    0.0550   -1.9753
    0.7736   -0.3175   -0.7041   -1.1066   -0.6841   -0.4412    0.3457   -0.4272   -0.1571   -0.3982
    0.7995   -0.7588    0.0711    0.1163   -0.4308   -0.9536   -1.4936   -0.6033   -0.6735    0.5449
   -0.7842   -0.7691   -0.8148   -0.3675   -0.5224   -0.1835    0.2310   -0.0553    0.5059    1.8956
   -1.0439    0.2347    0.7856    0.3167    0.2150   -0.0946   -1.8093   -1.3975   -0.8540    0.7603
    0.1266   -0.0768   -0.7075   -0.4704   -1.0191   -0.8526   -0.8882   -0.0951    0.6664    2.3226
    0.5045    0.1162   -0.1816   -0.4946   -0.5925   -0.5555   -0.5403   -0.1109   -0.8401   -1.0881
   -0.7622   -1.0812   -0.7495   -0.4620    0.0081    0.5294    0.4412    1.2710    0.1354    0.0678
   -0.4123   -0.0028   -0.6156   -0.2487   -0.5003    0.6538    0.0225   -1.2233   -0.1750   -0.4267
   -2.3498   -1.4940   -1.2552   -1.2090   -1.1009   -1.1147   -0.5090   -0.2905    1.3381    2.4479
   -3.6532   -1.3290   -0.6694   -0.2670    0.3000    0.6258    1.3338    1.5976    1.2996    0.9311
   -0.2433   -0.1235   -0.2540   -0.1696    0.0875   -0.8339   -0.5105   -0.8257   -0.4156   -0.8720
    0.5699   -0.5086   -0.2323    0.0257    0.0975    0.6715   -0.1773   -0.7486   -1.3076   -1.0419
    1.1327    1.1943    0.0946   -0.1914   -0.7419   -1.4724   -1.1106   -1.8525   -1.5581    0.1173
   -1.3726    0.2591    0.3227    0.2392    0.0566   -0.4319    0.0990   -0.7814   -1.4874   -0.8372
   -0.5619   -0.5325   -0.4546   -0.3317   -0.3260   -0.4170   -0.4301   -0.5779   -0.8062   -2.0432
    0.0000    0.0000    0.0000    0.0000    0.0000    0.0000    0.0000    0.0000    0.0000    0.0000
    0.0000    0.0000    0.0000    0.0000    0.0000    0.0000    0.0000    0.0000    0.0000    0.0000
    0.0000    0.0000    0.0000    0.0000    0.0000    0.0000    0.0000    0.0000    0.0000    0.0000
    0.0000    0.0000    0.0000    0.0000    0.0000    0.0000    0.0000    0.0000    0.0000    0.0000
    0.0000    0.0000    0.0000    0.0000    0.0000    0.0000    0.0000    0.0000    0.0000    0.0000
    0.0000    0.0000    0.0000    0.0000    0.0000    0.0000    0.0000    0.0000    0.0000    0.0000
    0.0000    0.0000    0.0000    0.0000    0.0000    0.0000    0.0000    0.0000    0.0000    0.0000
    0.0000    0.0000    0.0000    0.0000    0.0000    0.0000    0.0000    0.0000    0.0000    0.0000
    0.0000    0.0000    0.0000    0.0000    0.0000    0.0000    0.0000    0.0000    0.0000    0.0000
END
