********************************************************************************
***                                                                          ***
*** Secondary Structure Prediction by a Layered Network                      ***
*** ~~~~~~~~~~~~~~~~~~~~~~~~~~~~~~~~~~~~~~~~~~~~~~~~~~~                      ***
***                                                                          ***
*** Burkhard Rost, EMBL, Heidelberg, FRG                                     ***
*** (Internet: rost@EMBL-Heidelberg.DE)                                      ***
*** file containing the architecture in PHD format                           ***
*** Tue Apr  5 23:02:10 1994                                                 ***
***                                                                          ***
*** cryptic:     Exp252x-w9-15rcicld-A                                       ***
***                                                                          ***
********************************************************************************
***                                                                          ***
 prediction type:   EXPOSURE                      
 network type:      FIRST 

 input type:        P-REAL-CICLD
 NUMIN:                249
 NUMHID:                15
 NUMOUT:                10
 NCODEUNT:              24
 NUMNEIGH:               4
 *****
 *****
   number of layers: 2       junction first layer: row=numhid (10F10.4)
    0.0409    0.0577    0.2659    0.0725   -0.0312   -0.1125   -0.0718    0.1543    0.1083   -0.0553
   -0.0603    0.1503   -0.0299   -0.0541    0.1432    0.1816    0.0838    0.0030   -0.0226    0.1200
    0.2297    0.0121   -0.0381    0.2045   -0.0620   -0.0151    0.0764    0.1641    0.0009   -0.0125
    0.2722    0.0703    0.0609   -0.1988   -0.0644    0.0700    0.0091    0.0634    0.1737    0.0995
   -0.1198    0.2980    0.0893    0.1063   -0.0018   -0.1471   -0.0392    0.2671    0.2080    0.1866
    0.1381    0.0426    0.1143   -0.1319    0.0500    0.0268    0.2385   -0.1411    0.3314    0.1637
   -0.0305    0.0773    0.0382   -0.1203    0.1168   -0.1415   -0.0098    0.2209   -0.0054    0.1598
   -0.0847   -0.1010    0.3549    0.2763    0.3531    0.0527    0.2520    0.2047    0.2146   -0.0540
    0.2460   -0.0520   -0.0061   -0.0786    0.0265    0.0402    0.1387   -0.0580    0.0996    0.0261
    0.1048   -0.1791   -0.4151    0.0839   -0.1603   -0.0336    0.5343    0.1758    0.4040   -0.0140
   -0.1568   -0.1684   -0.3518    0.0124    0.4959    0.1080    0.1555    0.2276    0.0929   -0.3941
   -0.3950    0.5673   -0.0554    0.3903   -0.0106    0.1286    0.3504   -0.0620   -0.0762   -0.1739
    0.2972    0.3696    0.2495   -0.0107    0.2588    0.0391    0.4281    0.2634   -0.0202   -0.3159
   -0.2997    0.0467    0.2215    0.0992    0.2061   -0.0844    0.0954   -0.0318   -0.0176   -0.2575
   -0.3365    0.2010    0.0003   -0.0545    0.2719    0.2236    0.0632    0.3994    0.0496   -0.0014
   -0.1152   -0.1129    0.2180   -0.1079   -0.1207    0.1053    0.1836    0.1691   -0.0019    0.1906
   -0.0130    0.0585   -0.0986    0.0401    0.0495   -0.0147    0.0205    0.0628    0.0479    0.1699
    0.3728    0.2021    0.2016    0.0293    0.1150    0.2164    0.2755   -0.2000    0.0085    0.0040
    0.0570    0.2068   -0.0317    0.0429    0.2319   -0.0015    0.1033    0.0248    0.0647   -0.1509
   -0.0253   -0.0020    0.0424    0.2401   -0.0023    0.1578    0.0309    0.0754    0.0945    0.2418
    0.1080   -0.2319    0.0866    0.0961    0.0462   -0.0030   -0.0536   -0.1650    0.0538   -0.0814
   -0.0702    0.0275    0.0947    0.1032    0.1087   -0.0380    1.2468    0.8800    1.5164    0.8170
    1.5014    0.4643    1.4839    1.1337    0.7938    1.3102    1.6798    1.1981    0.1912    0.8186
    1.4311    1.2854    1.6713    1.4448    1.5474    1.4057    0.0745   -0.5978   -0.2176   -0.0351
    0.0081    0.1893   -0.0659    0.1399   -0.0105   -0.0015    0.0041    0.1066   -0.0271   -0.6926
    0.0000    0.0000    0.0000    0.0000    0.0000    0.0000    0.0000    0.0000    0.0000
   -0.1711    0.1670    0.1052   -0.0466   -0.0795    0.1829   -0.0772    0.1448   -0.1568   -0.0644
   -0.1937    0.0468   -0.0831    0.0684    0.0557   -0.0326    0.0948    0.2296   -0.0429   -0.0185
   -0.1776   -0.3173   -0.0166   -0.3516   -0.2959    0.0364    0.0536   -0.0644    0.1691   -0.1570
   -0.2296    0.1159    0.2149    0.0095    0.1501    0.0633   -0.0772   -0.0391   -0.2014   -0.3675
    0.2119   -0.1663    0.1541    0.2686    0.0998    0.1352    0.0520   -0.2275   -0.2879   -0.2250
   -0.1149   -0.0322    0.0795   -0.0202    0.0640    0.0724   -0.1151    0.0101    0.0243    0.0914
   -0.1888   -0.0366    0.0949    0.1059    0.0543    0.3205   -0.1255   -0.1926    0.1692   -0.1957
    0.2035   -0.2008   -0.0192   -0.1701   -0.1685   -0.1577   -0.1210   -0.0901   -0.1090    0.3484
    0.0481    0.1147    0.0680   -0.1935    0.1415   -0.0041   -0.0454   -0.0551   -0.0396    0.0082
    0.2146    0.1381   -0.1476    0.1734    0.0324    0.1099   -0.0757    0.0270    0.0577   -0.1861
    0.4265    0.4634    0.7724   -0.9462   -1.0971   -0.3687   -0.7750   -0.2233    0.3884    0.3721
    1.0048    0.5856    0.1246    0.2630   -0.2493   -0.1697   -0.2110    0.6657   -0.0373    0.1577
   -0.1361   -0.2414   -0.0827    0.0352    0.0179    0.2079   -0.2109    0.0237   -0.1267    0.7306
   -0.0121    0.0831   -0.1625   -0.0006   -0.2005   -0.0526   -0.0147    0.1179    0.0487    0.2249
   -0.0666   -0.0296   -0.0204    0.1151   -0.1112   -0.1428   -0.0524   -0.1134    0.2029    0.0886
    0.0181    0.0607    0.1655    0.0601   -0.2468   -0.0905   -0.3565   -0.1474    0.1201   -0.0492
   -0.1193    0.0364    0.0313    0.0865    0.1623   -0.1155   -0.0799   -0.0627   -0.1022    0.1177
   -0.2949   -0.0313   -0.1810    0.1343   -0.0480    0.1443   -0.0930   -0.1012   -0.0535    0.0687
    0.1648   -0.1202   -0.0082    0.0424   -0.1556    0.0142    0.0402   -0.0717    0.2253    0.0168
    0.0561   -0.0045   -0.0294   -0.1989   -0.1941   -0.0071   -0.0726   -0.0787    0.1864   -0.0208
   -0.2146   -0.0675   -0.3157   -0.1567   -0.1365    0.0725    0.1786    0.2865    0.1940    0.1109
    0.1816   -0.0104    0.0986   -0.2059    0.0072   -0.0640   -0.3341   -0.1550   -0.4794   -0.5011
   -0.3355   -0.4025   -0.3843   -0.3582    0.1035   -0.2528   -0.9022    0.0523   -0.3976   -0.4384
   -0.4626   -0.4464   -0.8115   -0.3954   -0.4571   -0.2615    0.0951    0.2381   -0.1539    0.0834
    0.1693    0.0777    0.0869   -0.1634   -0.1519    0.0008    0.0689   -0.1337   -0.0267    0.1108
    0.0000    0.0000    0.0000    0.0000    0.0000    0.0000    0.0000    0.0000    0.0000
    0.0442   -0.1400   -0.0344    0.0082    0.1430    0.0201   -0.0258   -0.1699   -0.0081    0.0452
    0.2509    0.1290   -0.0346   -0.0399   -0.0625    0.1196    0.1271    0.0640    0.0679   -0.0025
    0.1222   -0.0299   -0.3861   -0.3524   -0.1374   -0.1139   -0.2806   -0.0496   -0.1785   -0.1674
   -0.0723   -0.0442   -0.0596    0.2475    0.0468    0.0758   -0.2160    0.0135    0.0288    0.3106
    0.0824    0.1075    0.1134   -0.0046    0.2779   -0.1588   -0.2078   -0.1737   -0.2018   -0.0951
   -0.2725    0.0657   -0.2515   -0.0074   -0.0696    0.2203   -0.1026    0.1697    0.1461    0.1828
   -0.0606   -0.0650   -0.0305    0.1455   -0.0373   -0.0276    0.1643    0.2184    0.5163    0.0097
   -0.1156    0.2192   -0.2618   -0.2227   -0.4178   -0.0434   -0.2869   -0.3162   -0.1455    0.1585
   -0.0304    0.3690    0.0694   -0.0285   -0.2016   -0.1079    0.0683    0.1812   -0.0722   -0.0752
    0.0477    0.2538    1.1717   -0.1953    0.1917    0.3370   -0.3953   -0.8943   -0.8102   -0.5479
   -0.6177   -0.5200   -0.4523    0.2807   -0.2044    0.5571    0.0362    0.1021   -1.0204    0.0045
    0.5140    1.2269    0.3044    0.7866    0.5223    0.6147    0.2691   -1.3797    0.1406    0.3228
   -0.0347   -0.3121   -0.4448   -0.1705   -0.2722   -0.2205   -0.2757    0.3539   -0.1419    0.1219
    0.1558    0.1178   -0.0753    0.0822   -0.1703    0.0190    0.0216    0.0261    0.1413    0.2082
    1.1203   -0.1686    0.2572    0.4937   -0.1496   -0.2521   -0.3394   -0.2600   -0.2434   -0.1589
   -0.1632    0.1604    0.0138    0.3933    0.0866    0.1302   -0.0629    0.0124    0.1398    0.1753
    0.2425    0.0639    0.1590    0.0716    0.4176   -0.1923    0.2585    0.4424    0.0181   -0.0402
   -0.2389   -0.2202   -0.1469    0.0432   -0.0206   -0.1137   -0.1034    0.3777    0.1964    0.1412
   -0.1028   -0.1411    0.0469    0.0864    0.1473    0.0186    0.1144    0.1794    0.0500   -0.0800
    0.0810    0.2411    0.0791   -0.4062   -0.2760   -0.1962   -0.1850   -0.0771    0.0321   -0.0123
   -0.0251    0.2359    0.1062    0.1200    0.0052    0.0959   -0.0445    0.1840   -0.0045    0.1328
    0.1664    0.0126    0.2703   -0.0381   -0.0877    0.0496   -0.0784    0.3780   -0.3765   -0.4212
   -0.0749   -0.3579   -0.3718   -0.3134    0.0682   -0.1587   -0.3184    0.1237   -0.1004   -0.3296
   -0.1201   -0.5001   -0.4331   -0.5389   -0.4396   -0.4015    0.0316    0.0229   -0.3081   -0.2785
   -0.0916    0.2881    0.0655    0.0955    0.1484    0.2049    0.1114    0.0029    0.0180    0.1544
    0.0000    0.0000    0.0000    0.0000    0.0000    0.0000    0.0000    0.0000    0.0000
    0.1117    0.2503    0.1336    0.1295    0.0908   -0.0023    0.1390    0.0432    0.0052   -0.3972
   -0.0376   -0.0508   -0.0506    0.1571   -0.2318   -0.3526   -0.1229   -0.1761    0.0336   -0.1126
   -0.4069    0.1222    0.2569    0.1303    0.1205    0.0614    0.2694    0.1041    0.1239    0.1716
    0.1004    0.0791   -0.1771   -0.3205   -0.0425    0.0476    0.1434    0.1266   -0.0934   -0.3264
   -0.1527   -0.1211   -0.1166   -0.0584   -0.4828    0.1577    0.0183    0.1246    0.2394   -0.1358
    0.3070   -0.0890    0.2098    0.1028    0.2154   -0.0618   -0.1561   -0.0677   -0.0232   -0.1322
    0.0209   -0.0207    0.1045   -0.1645   -0.1743   -0.0247   -0.3620   -0.2100   -0.4392   -0.2775
   -0.0559   -0.1753    0.5059    0.3629    0.3225    0.1586    0.0132    0.0497    0.2621   -0.1655
   -0.1660   -0.5787   -0.3745   -0.2322    0.1360    0.0929    0.0775   -0.4811   -0.1545   -0.1863
   -0.2348   -0.1299   -0.5683    0.4492   -0.2100   -0.2457    0.7023    0.8289    1.2845    0.6909
    0.9958    0.4270    0.2143   -0.6125    0.3149   -0.5765   -0.1554   -0.0083    0.7635   -0.1074
   -0.3317   -1.6788   -0.5669   -1.0772   -0.6035   -0.9384   -0.4856    1.9320   -0.0681   -0.2290
    0.1515    0.1402    0.2910    0.1330    0.1162    0.1544    0.0563   -0.4817   -0.0601    0.0477
   -0.1364    0.0079    0.1074    0.0232   -0.0556   -0.2952   -0.0362   -0.1481   -0.1013   -0.2400
   -0.4941    0.3795   -0.1549   -0.3621    0.3271    0.0569    0.2421   -0.0244    0.0678    0.1158
    0.0005   -0.1908    0.1454   -0.5885   -0.0984   -0.2606    0.1301    0.0246   -0.0062   -0.1532
   -0.0949   -0.0697   -0.2051   -0.1427   -0.4525    0.2005   -0.0535   -0.3824    0.0202    0.3176
    0.0935    0.3038    0.2277    0.0959    0.0325   -0.1681    0.1734   -0.3254   -0.1542   -0.0601
    0.1135    0.0946   -0.0929   -0.3590   -0.0225   -0.2593   -0.1692   -0.0055   -0.3975    0.2185
   -0.1695   -0.0945    0.0685    0.1978    0.1091    0.1468    0.1845    0.0241    0.0195    0.1470
   -0.2336   -0.1037   -0.0544   -0.1466    0.1787    0.1490   -0.0838   -0.2230   -0.1350   -0.4537
   -0.0620   -0.1270   -0.6023    0.2520   -0.0532    0.1249    0.0627   -0.3499    0.4526    0.4102
    0.0130    0.1405    0.5125    0.1068   -0.0574    0.1817    0.3015   -0.0266    0.0509    0.4016
    0.3081    0.4533    0.5179    0.5422    0.3740    0.2248   -0.0158   -1.2409    0.0860    0.4539
    0.2987   -0.3534   -0.2630   -0.3228   -0.4491   -0.4199   -0.2531   -0.2088   -0.1754   -1.4073
    0.0000    0.0000    0.0000    0.0000    0.0000    0.0000    0.0000    0.0000    0.0000
   -0.0767   -0.0589   -0.2566   -0.1070   -0.0417   -0.2641   -0.3425   -0.1533    0.1425    0.2271
    0.2333   -0.1220   -0.0088   -0.0439    0.1829    0.3384    0.1415    0.3048   -0.2981    0.3064
    0.2506   -0.1985   -0.2301   -0.3473   -0.0274   -0.0215   -0.3817   -0.1973   -0.2772   -0.0746
    0.2580   -0.1496    0.1578   -0.0560    0.0315   -0.1304   -0.2816    0.0141    0.1139    0.3270
    0.2061    0.1938   -0.0861    0.2424    0.1294   -0.2057   -0.2528   -0.0760   -0.1616    0.3112
   -0.0593   -0.0652   -0.1015   -0.1600   -0.0674   -0.1414    0.2323    0.1377    0.2931    0.0736
   -0.1062   -0.0288   -0.1316   -0.1787   -0.1618   -0.3422    0.2032    0.3085    0.5837    0.2628
    0.0228    0.2718   -0.4508   -0.3874   -0.2545   -0.3203   -0.2093   -0.0871   -0.4557    0.0711
    0.1623    0.5904    0.1724   -0.1275   -0.2882   -0.0832    0.0717    0.4551    0.2043    0.2575
    0.1329    0.1066    1.2040   -0.5754    0.1525    0.3007   -1.0675   -1.5230   -1.5059   -0.6650
   -1.1766   -0.7344   -0.9783    0.6340    0.4745    0.8835    0.5287    0.1596   -1.5245   -0.1252
    0.2025    1.7826    0.7128    1.3649    0.9012    1.2568    0.4938   -2.2140    0.3916    0.3252
   -0.3779   -0.1216   -0.3089   -0.1641   -0.4863   -0.2395   -0.0976    0.3148   -0.0214   -0.4292
   -0.0846   -0.0978   -0.4149    0.1109    0.0685    0.1188    0.2852    0.2917    0.3503    0.2716
    1.0637   -0.2619    0.3637    0.4670   -0.1379    0.0134   -0.3267    0.0515    0.0241   -0.0740
   -0.1181    0.3377   -0.4426    0.5680    0.2082    0.2096    0.1092   -0.1698   -0.0396    0.1264
   -0.0629   -0.1121   -0.0390   -0.2012    0.4465    0.0812    0.1040    0.5426    0.0409   -0.4252
   -0.2255   -0.3187   -0.0943   -0.1697   -0.1458   -0.0868   -0.3038    0.4759    0.1528    0.1495
   -0.3580   -0.0035    0.0748    0.4518    0.2329    0.0277    0.1825    0.1637    0.1382   -0.1763
    0.1431    0.3909   -0.0689   -0.4998   -0.1083   -0.3937   -0.2305   -0.0834   -0.2868   -0.1558
    0.1204    0.2160    0.2628    0.1425   -0.2242   -0.0200   -0.0739    0.3046   -0.0908    0.3744
    0.0005    0.1940    0.4387   -0.2203   -0.1720   -0.0074   -0.0085    0.5902   -0.1817   -0.1328
    0.2226   -0.0683   -0.2833   -0.1643    0.0661    0.1005   -0.1721    0.1112    0.1632   -0.0875
    0.1064   -0.4293    0.0918   -0.3502   -0.3864   -0.2480   -0.0083    0.1797   -0.3307   -0.4106
   -0.2719    0.2181    0.0228    0.2052   -0.0059    0.3158    0.1209    0.1962    0.1535    0.6420
    0.0000    0.0000    0.0000    0.0000    0.0000    0.0000    0.0000    0.0000    0.0000
   -0.0734   -0.0930    0.0017    0.0097   -0.0795    0.0051    0.0130    0.1138   -0.0510    0.1353
   -0.0171   -0.2631   -0.0175   -0.1139    0.0031   -0.0789   -0.0791   -0.1494    0.0960   -0.1401
   -0.1105    0.1282   -0.1491   -0.0767   -0.1599   -0.0189    0.1393    0.1870   -0.1594   -0.1255
   -0.1347    0.0509   -0.0588    0.0607   -0.0805   -0.0094   -0.0060   -0.1897   -0.1252    0.0673
   -0.0679   -0.0745   -0.1260   -0.2607    0.1524   -0.0033   -0.1580    0.0339   -0.1710   -0.0851
   -0.2348    0.1955   -0.0703   -0.0193   -0.2522   -0.0457   -0.0557    0.0720   -0.2404   -0.1478
    0.1127   -0.0917    0.0386    0.2190    0.1314    0.1458    0.0456   -0.2040    0.1335    0.1203
   -0.1830   -0.0334   -0.4531   -0.1821   -0.2878   -0.0920   -0.2404   -0.0021   -0.0810   -0.0207
   -0.0739    0.2135   -0.2384    0.0810   -0.0208   -0.0409   -0.0369    0.1790   -0.0413   -0.0425
    0.0659   -0.0016    0.7390   -0.3086    0.1024    0.1336    0.3222    0.1362    0.1975    0.0366
    0.3094    0.3337    0.4996   -0.0669    0.4094   -0.2484   -0.3165   -0.4517    0.3679   -0.0425
   -0.3428   -0.2459   -0.6102   -0.4154   -0.1432   -0.4746   -0.4718    0.7821   -0.0413    0.4229
   -0.1276   -0.0488   -0.1849   -0.1176   -0.1907   -0.1516   -0.1091   -0.0926   -0.0341   -0.0069
    0.1349   -0.3000   -0.2109   -0.1550    0.0581    0.1469   -0.0480   -0.4264   -0.1028   -0.1777
    0.7640   -0.1740    0.1470    0.3737    0.0759   -0.1270   -0.2586   -0.0930    0.0044   -0.0739
   -0.2398    0.1600   -0.1202    0.0628   -0.3035   -0.0544   -0.0502   -0.2103   -0.1807   -0.0048
    0.0313    0.0967    0.0887    0.0677    0.3205   -0.0751    0.1783   -0.1173   -0.0752   -0.0779
    0.1360   -0.0076   -0.0826   -0.0466   -0.0031    0.2840   -0.1115   -0.0267   -0.0518   -0.2124
   -0.0702   -0.0728   -0.0717   -0.1056   -0.2251   -0.1869   -0.0761   -0.2225    0.1200    0.0127
   -0.0782   -0.0996   -0.0184    0.1789   -0.1203    0.0981   -0.1266   -0.0263   -0.0878    0.1557
   -0.0114   -0.0960   -0.2028   -0.0283    0.1176   -0.1255   -0.0103   -0.3904    0.0214    0.0297
   -0.0238   -0.1232   -0.0776   -0.0434   -0.0091    0.0084   -0.5084   -0.3468   -0.6146   -0.3978
   -0.7941   -0.1242   -0.7482   -0.1773   -0.0686   -0.7147   -0.5115   -0.5998   -0.2234   -0.2392
   -0.7203   -0.4914   -0.6198   -0.4035   -0.7210   -0.6974   -0.0937   -0.3430    0.2413    0.1137
   -0.4481    0.0346    0.0500   -0.1189    0.1034    0.0540    0.1212    0.0802   -0.1269   -0.3359
    0.0000    0.0000    0.0000    0.0000    0.0000    0.0000    0.0000    0.0000    0.0000
   -0.0192    0.0344   -0.0191    0.1084    0.0960    0.0510    0.0166   -0.0206   -0.1344    0.0935
    0.0575    0.0679    0.0377    0.1514   -0.0381   -0.0114   -0.0284    0.0910   -0.0891   -0.0866
   -0.0267    0.0004    0.1082   -0.0300    0.0981    0.0162   -0.0338   -0.0189    0.1984    0.1728
   -0.0983   -0.1003   -0.3193    0.0591    0.0855    0.0046    0.0280    0.0103    0.0479   -0.0754
    0.1686   -0.0396   -0.1052    0.1035    0.2252    0.0602    0.0643   -0.0714    0.0131    0.0906
   -0.1886    0.0870   -0.0868    0.1212   -0.0090    0.0810    0.0600    0.0285   -0.1400   -0.0865
    0.0444   -0.0952    0.0254   -0.1534   -0.1634    0.1379    0.1356   -0.1288   -0.0019   -0.1033
    0.0007   -0.0862   -0.1185   -0.1267   -0.0967    0.0444    0.0162   -0.0999    0.0179   -0.0237
   -0.1659    0.1204    0.0006    0.1545    0.1353    0.1607   -0.1586    0.0369   -0.1601   -0.0691
   -0.0523   -0.0677    0.2568   -0.0299    0.1447   -0.1329    0.0328    0.7436    0.3062    0.6393
    0.6893    0.4531    0.2121   -0.3772   -0.6185   -0.3662   -0.4831   -0.3098    0.5806    0.1484
    0.0221   -0.3698   -0.2187   -0.2113   -0.2798   -0.3947   -0.5541    1.3156    0.0935    0.0843
   -0.1337    0.0147    0.0438    0.3070    0.0653   -0.0534   -0.2158   -0.0451   -0.0396    0.3514
    0.2005    0.1044   -0.0295   -0.1375   -0.1511   -0.1269   -0.0635    0.0038    0.1279    0.1776
    0.2778    0.1166    0.1404    0.0052   -0.2099    0.0129    0.0168   -0.1684   -0.0865    0.0951
    0.1422   -0.1564    0.0508    0.1396    0.1702    0.0872   -0.0820    0.0523    0.0379   -0.2603
    0.1707   -0.1805   -0.0189   -0.0117    0.2844   -0.1531    0.1273   -0.0860   -0.0191   -0.2336
   -0.1955    0.0145   -0.0764   -0.0462    0.1359   -0.0638   -0.1285    0.1892   -0.0271   -0.0869
   -0.0365    0.0688    0.1226    0.1202   -0.0275    0.1623   -0.0440    0.0329    0.1481   -0.0196
   -0.0301   -0.0918   -0.1223   -0.1468    0.0914   -0.0556    0.0867   -0.0768   -0.1290   -0.2003
    0.0281    0.1448   -0.0032   -0.1462   -0.2910    0.1515    0.1185    0.1011   -0.0829    0.0686
    0.1035   -0.0722    0.0253   -0.0952    0.0979    0.0051    0.1397    0.0507    0.5024    0.5461
    0.5705    0.2304    0.7662    0.2106    0.3646    0.6398    0.0809    0.3203    0.0389    0.5011
    0.3721    0.6593    0.6691    0.4882    0.4930    0.4071    0.0210   -0.3241   -0.0008   -0.1840
    0.1962    0.0308    0.0927    0.0946    0.1822    0.2089    0.1669   -0.0276    0.0321   -0.5274
    0.0000    0.0000    0.0000    0.0000    0.0000    0.0000    0.0000    0.0000    0.0000
    0.1276   -0.0345   -0.0490    0.2003   -0.0626   -0.0643    0.0581   -0.1339    0.0666   -0.2145
    0.0436    0.1860   -0.1272   -0.0825    0.0233    0.1953    0.0649   -0.0063    0.1081   -0.0115
    0.1067   -0.2005    0.0625    0.2761    0.0215   -0.1519    0.1441    0.0255   -0.0473    0.0167
   -0.0690   -0.0538    0.1603   -0.0289   -0.0304    0.1357    0.0779   -0.1127    0.0972    0.0067
   -0.1153    0.4120   -0.0540   -0.0496   -0.0843   -0.0890    0.0546    0.1970    0.2470    0.0739
   -0.0217   -0.0130   -0.0279    0.0842    0.0539    0.0148    0.0908   -0.0617   -0.0567    0.0274
   -0.0266    0.1096   -0.0477   -0.0138    0.1571    0.0010   -0.2280    0.0992   -0.2179   -0.1366
   -0.1040   -0.2222    0.2665    0.2140    0.3007    0.0594    0.0998    0.1853    0.2365   -0.2375
    0.1556   -0.1432   -0.1383   -0.0205    0.0377    0.0086   -0.0180   -0.2288   -0.1028   -0.0146
   -0.0643   -0.2314   -0.2902   -0.0798   -0.0177   -0.1334    0.6191    0.4108    0.4653    0.1244
    0.1631    0.1217    0.0731   -0.0712    0.3484   -0.2229   -0.0857   -0.1284    0.3964   -0.1330
   -0.3839    0.0717   -0.2977   -0.1553   -0.2971   -0.2647    0.0309    0.0773   -0.1222   -0.0898
    0.2225    0.2124    0.0643    0.1393    0.1434   -0.0244    0.1522    0.1234   -0.0561   -0.0706
   -0.0666   -0.0083    0.0426   -0.0628    0.1838   -0.1826   -0.1371   -0.0788   -0.1917   -0.2257
   -0.1213   -0.0537   -0.0056   -0.2796    0.2531    0.3241    0.1135    0.2431   -0.0118    0.1358
   -0.0906   -0.1972    0.2472   -0.3137   -0.2264   -0.0728    0.2168   -0.0849    0.0193    0.0929
   -0.0849    0.0925   -0.0356    0.0502   -0.0138   -0.2680   -0.0543   -0.3086    0.0233   -0.0563
    0.1874    0.1252    0.2702   -0.0053    0.0518   -0.1144    0.0569   -0.1898    0.0702    0.0124
    0.0364   -0.1015   -0.1355    0.2623    0.0154   -0.0681   -0.0001    0.0047    0.1277   -0.2062
   -0.0477   -0.1763    0.0622    0.0775    0.0674    0.1486    0.0576   -0.0419    0.1388    0.0405
   -0.0260   -0.1537    0.0817    0.2774    0.0285   -0.0819   -0.0147    0.0108    0.0337   -0.3167
    0.0510    0.0143   -0.0474   -0.0994    0.1858   -0.1340    0.7875    0.3656    1.0908    0.5845
    0.8787    0.2815    1.1379    0.6363    0.6109    0.9329    1.1832    0.6910    0.1464    0.7021
    0.9791    1.1394    1.1182    0.9237    1.2585    1.0921   -0.0573   -0.5573    0.2249   -0.0186
   -0.0008   -0.0231    0.0116    0.2124   -0.0530   -0.0553    0.0434    0.0096    0.1676   -0.7912
    0.0000    0.0000    0.0000    0.0000    0.0000    0.0000    0.0000    0.0000    0.0000
   -0.0538    0.0775   -0.0488    0.0945   -0.0346   -0.0167   -0.1845   -0.0550    0.0117    0.0201
    0.1029   -0.0625    0.1031    0.0772   -0.0425   -0.1834   -0.1029   -0.0696    0.0076   -0.0928
   -0.0061    0.1068   -0.0470   -0.0766    0.0612   -0.1420    0.0971    0.0098   -0.1069   -0.0128
    0.1307   -0.0372   -0.2490   -0.0449   -0.1965   -0.0206   -0.0432    0.0313   -0.0651    0.0216
    0.0126   -0.0502   -0.1290   -0.2192   -0.0557   -0.1450   -0.0837   -0.0438   -0.0580    0.0053
   -0.2224   -0.0082   -0.0696   -0.0108   -0.0455   -0.0408    0.0579   -0.0078    0.1604   -0.1722
    0.1317   -0.0332   -0.0758   -0.2004   -0.1083   -0.0268    0.0529    0.1866    0.1048   -0.0533
   -0.0329   -0.0063   -0.2948   -0.1471   -0.2404   -0.1189   -0.0265   -0.1987   -0.1724   -0.0277
   -0.1431    0.3240   -0.0306   -0.1383   -0.0788    0.0483    0.1404    0.1412    0.0704   -0.0798
   -0.1514   -0.1155    0.6417   -0.2645    0.0813    0.0667    0.0751   -0.0275    0.0522   -0.1130
    0.1943   -0.2429   -0.6655    0.2740    0.0140    0.1571    0.0542   -0.2221   -0.1627   -0.1147
   -0.5949    0.0905   -0.0878    0.2059    0.1770    0.1380    0.1291    0.0203    0.0731    0.1330
   -0.3108   -0.1115   -0.0396   -0.0050   -0.2729   -0.2193   -0.1342    0.3230   -0.1596   -0.3052
    0.0309   -0.0630   -0.2535    0.1738    0.1110   -0.0812    0.0542    0.0562    0.1232    0.0836
    0.7020   -0.1171    0.1251    0.2291   -0.1894   -0.0109   -0.4793   -0.0549   -0.0810    0.0101
   -0.0540    0.2395   -0.0602    0.2881    0.0741    0.0567    0.0032   -0.1018   -0.0080   -0.0146
    0.0142   -0.1158    0.0863   -0.0157    0.2688   -0.0798    0.1694    0.2439    0.0886   -0.0277
    0.0335   -0.0443   -0.0572   -0.1823   -0.0846   -0.0378    0.0188    0.2485   -0.1684   -0.1042
   -0.0621    0.0003    0.0042    0.1017   -0.0484   -0.2526    0.0315   -0.0116   -0.0814   -0.0428
   -0.0080    0.1728    0.1340    0.0649   -0.0493   -0.0334   -0.1101   -0.0192   -0.0776   -0.0902
    0.0769    0.0440   -0.0332    0.0350   -0.0001    0.0466    0.0891   -0.0111   -0.0906   -0.0297
    0.0202   -0.2516   -0.1125   -0.1076   -0.0251    0.0146    0.2161    0.1472    0.4311    0.1650
    0.4978    0.1949    0.4126   -0.0249    0.2322    0.5083    0.2498    0.3440    0.1511    0.3388
    0.3622    0.1570    0.5310    0.1526    0.3159    0.3332   -0.0683   -0.7229   -0.3545    0.0707
    0.2149   -0.0277   -0.1928   -0.0717   -0.1761    0.1506    0.0420    0.0462   -0.2158   -0.4729
    0.0000    0.0000    0.0000    0.0000    0.0000    0.0000    0.0000    0.0000    0.0000
   -0.0567    0.0186   -0.0232   -0.1310   -0.3310    0.0360    0.0573    0.1051   -0.0859    0.0972
   -0.1571    0.0946   -0.1297   -0.0012    0.0397    0.1766    0.1159    0.4184    0.0959   -0.0853
    0.0809   -0.3882   -0.2969   -0.4801   -0.3901   -0.0624   -0.0747   -0.1270   -0.0013   -0.0727
   -0.1943   -0.0338   -0.1668   -0.0687    0.2690    0.0569    0.0240   -0.0221    0.0216    0.0549
    0.1728    0.2449    0.2099    0.3654    0.3966   -0.0743   -0.2218   -0.1932   -0.2754   -0.1619
   -0.4276   -0.0781   -0.0396   -0.0317   -0.1720    0.1278   -0.0565    0.0227    0.1397    0.1561
   -0.3508    0.2187    0.1631    0.1281    0.1440    0.1269    0.1769   -0.1447    0.4763   -0.0099
    0.1390    0.0244   -0.0973    0.2300   -0.1833    0.0796   -0.1448   -0.0460   -0.0420    0.0884
   -0.1182    0.2192   -0.0069   -0.0893   -0.0961   -0.0461   -0.1475    0.1421    0.2011   -0.0646
    0.2802    0.1831    0.0571    0.1407    0.1250    0.3261   -0.9195   -0.3196   -0.7290   -0.6819
   -0.5481   -0.4168    0.2053   -0.6841   -1.3976    0.1402   -0.4627   -0.1085   -1.1403    0.3633
    1.4883    2.1467    0.6844    1.3790    0.3262    0.6580    0.4359   -1.6395    0.0714    0.2556
   -0.1286   -0.1349   -0.1627   -0.1346    0.0846    0.0053   -0.1975    0.1417    0.0510    0.6466
    0.1311   -0.2544   -0.0235    0.1062   -0.3510    0.0438   -0.1481    0.1324    0.1575    0.2955
    0.1519    0.0792    0.0579    0.3479   -0.0097   -0.0793   -0.0220   -0.1951   -0.2760   -0.0596
    0.0810   -0.0164    0.0502    0.3229   -0.0502    0.2474   -0.4293    0.1524    0.3545   -0.0192
    0.0881    0.0061    0.0120    0.1434    0.4552   -0.3133   -0.0022    0.3823   -0.2182   -0.2729
   -0.2319   -0.1545   -0.0801   -0.0434   -0.1447    0.1595   -0.0008    0.0288    0.1130   -0.1381
   -0.0577   -0.3612   -0.0304    0.2628    0.1584    0.1641    0.2084    0.2220    0.5663   -0.0911
    0.1094    0.0798   -0.1706   -0.1367   -0.1202   -0.1986   -0.2230   -0.1710    0.0814    0.0007
   -0.0793    0.0055    0.0793    0.0878   -0.4935   -0.0522    0.0905    0.4133    0.3281    0.1622
    0.1087   -0.0406    0.5718   -0.2669   -0.0203   -0.0429   -0.0841    0.3748   -0.6187   -0.8880
   -0.0510   -1.1010   -0.5942   -0.3247    0.1009   -0.1795   -0.9468    0.2841   -0.7094   -0.8556
   -0.5326   -0.6674   -0.9243   -0.6373   -0.6897   -0.4625   -0.0418    0.8633   -0.2582   -0.3024
    0.0022   -0.0210    0.1309   -0.0373    0.0210    0.3646    0.1040   -0.1721    0.0292    0.9448
    0.0000    0.0000    0.0000    0.0000    0.0000    0.0000    0.0000    0.0000    0.0000
    0.1071   -0.1778   -0.0554   -0.0584    0.0263    0.0659    0.2090    0.1718    0.1870    0.0996
    0.0166    0.1295   -0.0212    0.0344    0.0910    0.1059    0.0060    0.0779    0.1304    0.1794
    0.1661    0.0124    0.1111    0.1018    0.0456    0.1577    0.0117    0.0264   -0.0434   -0.1053
    0.0757    0.3033    0.3236    0.1338    0.0129    0.0786   -0.0441    0.1257    0.2229    0.0471
   -0.0351    0.0981    0.1370    0.0968    0.0584   -0.0691    0.0818   -0.0202    0.1329    0.0338
    0.0960    0.1852    0.2064    0.0747    0.0709    0.0369    0.1434   -0.0335    0.1462    0.0625
    0.0518    0.1323   -0.0050    0.1150    0.2094   -0.0167   -0.0271    0.0519    0.1023    0.0410
   -0.0200   -0.0226    0.0903    0.1380    0.1524    0.0467    0.0414    0.1137    0.0905    0.0779
    0.2067   -0.0137    0.0310    0.1841   -0.0592    0.0837    0.0793    0.1880    0.1314    0.0833
    0.0726    0.0412    0.0780   -0.1635    0.0902   -0.0702    0.4277    0.1971    0.2249    0.1400
    0.1255    0.0411    0.2629    0.0631    0.5297   -0.1103    0.0789    0.0124    0.2867   -0.0771
   -0.2302    0.4009    0.0087    0.1645   -0.0507    0.0487   -0.0566    0.1308    0.1223    0.0826
    0.2450    0.2289    0.0401    0.0669    0.1129    0.0706    0.1810   -0.0217    0.2653   -0.0014
    0.0656    0.1038    0.0083    0.1393    0.1041    0.1714    0.0797    0.0335   -0.0716   -0.0779
    0.0624   -0.0231    0.0786    0.0766    0.0652    0.0534    0.0112    0.2514    0.0423    0.0430
    0.0172    0.1922    0.0818    0.0845    0.0900    0.1834    0.1735    0.0121   -0.0300    0.1186
    0.0722    0.0494    0.1173    0.1518    0.1116    0.0518    0.0808   -0.0083    0.1058    0.0677
    0.0585    0.1960    0.0782    0.2072    0.0237    0.1087    0.0268   -0.0238    0.2038    0.1995
    0.0153    0.0207   -0.0470    0.0544    0.0726    0.0465    0.1354    0.0697    0.1330    0.0671
    0.1101   -0.0902    0.0518    0.0605    0.1049    0.1314    0.0303    0.0133    0.0322   -0.0426
    0.0640   -0.0841    0.2180    0.3059    0.0405   -0.0850    0.0946   -0.0841    0.1040    0.1397
    0.0206    0.2592    0.1566   -0.0675    0.1181   -0.0696    1.9142    1.5066    1.7701    0.3693
    1.2443    0.1528    1.0882    1.7302    1.4668    1.6470    1.9230    1.7185    0.0495    0.2919
    1.5010    1.6766    1.0910    1.7593    1.5320    1.8096   -0.0309   -0.5410   -0.2801   -0.1145
    0.1374    0.1397    0.0433   -0.0193   -0.0903    0.0865    0.0503    0.2040    0.0598   -0.6651
    0.0000    0.0000    0.0000    0.0000    0.0000    0.0000    0.0000    0.0000    0.0000
   -0.3029    0.0406   -0.0798    0.0837    0.0700    0.0078   -0.2049   -0.1108    0.0517    0.0257
   -0.1221    0.1417   -0.0777   -0.1193    0.0082    0.1793    0.1948    0.0888    0.0488    0.1950
   -0.1040   -0.2852   -0.1494   -0.0423   -0.1783   -0.2133    0.0091   -0.0267    0.0557    0.0896
   -0.0417   -0.1357    0.1471    0.1080   -0.1438    0.0104   -0.0719   -0.0793    0.0795    0.0514
    0.1156    0.2744   -0.0047    0.1131   -0.1510   -0.3241   -0.0956   -0.0331    0.1061    0.2157
    0.1741   -0.0066    0.0053   -0.1190   -0.1629    0.0482   -0.1288   -0.1168   -0.0169    0.1990
   -0.1587   -0.0151    0.0132   -0.2724    0.0410   -0.1776   -0.1760    0.0597    0.1033   -0.0046
    0.0612    0.1553    0.2091    0.0160    0.2308    0.0060    0.0403   -0.1020    0.0290   -0.1450
    0.0347    0.0097    0.0016   -0.0870   -0.1107   -0.0801   -0.0242   -0.1346    0.0776   -0.0562
   -0.2134   -0.0977   -0.0054    0.1773    0.0137    0.1189   -0.4226   -0.6055   -0.5813   -0.4405
   -0.5856   -0.4998   -0.6843   -0.1792    0.0880    0.2685    0.0539    0.2001   -0.7266   -0.1138
    0.3101    0.8003    0.4454    0.6716    0.2784    0.4834    0.5382   -1.3369    0.0228   -0.0403
    0.0733   -0.0480   -0.2221   -0.0832    0.0398    0.0481   -0.0114    0.1902    0.1969   -0.3221
   -0.2384    0.0056   -0.0826    0.0099   -0.0161   -0.1222    0.0359    0.2146    0.0193    0.1010
   -0.1383   -0.1505    0.0325   -0.1124    0.0421    0.2566    0.0791    0.2026   -0.0021   -0.0301
    0.0242   -0.1715    0.2569   -0.1210    0.0575   -0.0967   -0.0422   -0.1496   -0.0974   -0.0151
   -0.2425   -0.2159   -0.1883   -0.0172   -0.1113   -0.0395   -0.1325    0.2621   -0.1311    0.0036
   -0.1697   -0.1402   -0.0419    0.0177   -0.2345   -0.0132   -0.0183   -0.1348   -0.0625   -0.0879
   -0.0740   -0.0216   -0.0356    0.1995    0.2713    0.0166   -0.0683    0.0318   -0.1160   -0.4106
   -0.0111    0.0308   -0.1949   -0.1404   -0.1615   -0.0316    0.1019    0.0474    0.0133    0.0879
   -0.0150   -0.1545    0.1536   -0.0556   -0.2484   -0.0203   -0.1219    0.2006    0.0684   -0.1190
   -0.0498    0.0868   -0.0224   -0.4509   -0.0606   -0.0060   -0.1063    0.2231   -0.3094   -0.0491
    0.0257   -0.0661   -0.2203   -0.1794   -0.1789   -0.1933   -0.2304   -0.0092    0.0754   -0.0515
   -0.1551   -0.5536   -0.2665   -0.3396   -0.3712   -0.2397   -0.0877    0.0275    0.0469   -0.2686
   -0.0106   -0.1284   -0.2069   -0.1925   -0.2817   -0.0795   -0.0813   -0.2337   -0.1016    0.0114
    0.0000    0.0000    0.0000    0.0000    0.0000    0.0000    0.0000    0.0000    0.0000
   -0.0168   -0.0201    0.0891    0.0075    0.0242    0.0829    0.1602    0.0974    0.0368    0.0497
   -0.0248   -0.1544   -0.0255   -0.0146   -0.0803   -0.2980   -0.1706   -0.3364   -0.0654   -0.0293
   -0.1213    0.0293    0.2349    0.1644    0.1333   -0.0486    0.1442    0.0070   -0.0249    0.1995
    0.2810   -0.1202    0.1096   -0.0060   -0.1369   -0.1463    0.0408    0.1491    0.0171   -0.0596
   -0.0898   -0.3781    0.0082   -0.2037   -0.2106   -0.1723    0.0638    0.1144    0.1721    0.0391
    0.3387    0.0515   -0.0076    0.0573    0.0335   -0.3071    0.0421   -0.2865   -0.1533   -0.1183
    0.2131   -0.0463   -0.0981    0.0152   -0.1357   -0.0892    0.1036    0.0286   -0.2592   -0.1187
   -0.1110    0.0425    0.1656    0.1431    0.1903    0.1838    0.2881    0.1087    0.0245   -0.1925
   -0.0643   -0.3288    0.0078    0.0403   -0.0194   -0.0884   -0.0971   -0.2721   -0.0540   -0.0745
   -0.2752   -0.0811   -0.1569   -0.0670    0.0051   -0.1103    0.6008    0.8925    0.7512    0.4668
    0.6000    0.0443   -0.2981    0.1618    0.3247   -0.2945    0.2023   -0.1467    0.5256   -0.2599
   -0.9949   -0.8848   -0.2982   -0.7791   -0.4482   -0.4750   -0.4558    1.0885   -0.0675   -0.0608
    0.1305    0.0185    0.3568    0.0952    0.0492    0.0412    0.1524   -0.1306    0.0569   -0.3673
   -0.1165   -0.1160   -0.0333   -0.0843    0.0423   -0.0108    0.0330   -0.1412   -0.2312   -0.1946
   -0.2144   -0.0573   -0.0584   -0.0928   -0.0464    0.0274    0.1748   -0.1154    0.1041   -0.0822
    0.0675   -0.1405    0.0976   -0.1507    0.0469   -0.1457    0.1332    0.2386   -0.1520   -0.1169
   -0.1150    0.0268   -0.1312    0.0039   -0.3002    0.1415    0.0460   -0.2431    0.1973    0.3873
    0.1598    0.0200    0.0577   -0.0953   -0.0082    0.0303    0.3064   -0.2478   -0.1644   -0.1663
    0.0938    0.2552   -0.0187   -0.2201   -0.1705   -0.1156   -0.1473   -0.3802   -0.2893    0.0431
   -0.1692   -0.0919    0.0268    0.3537    0.1220    0.1581    0.0539   -0.0119   -0.0316    0.1691
    0.2804   -0.0960   -0.0022   -0.2172    0.1971    0.0356   -0.3384   -0.2933   -0.0486   -0.2447
   -0.2330   -0.1112   -0.3408    0.1497   -0.0138    0.0021    0.3586    0.0777    0.5913    0.4946
    0.5250    0.3308    0.6441    0.3898    0.2012    0.4832    0.8771    0.1059    0.0649    0.6027
    0.6980    0.6364    0.9333    0.5648    0.6770    0.5176   -0.0844   -1.0506   -0.1118    0.5085
    0.1408   -0.1251   -0.2256    0.1094    0.0237   -0.1569   -0.2160   -0.1101   -0.1932   -1.3034
    0.0000    0.0000    0.0000    0.0000    0.0000    0.0000    0.0000    0.0000    0.0000
   -0.0780   -0.1942   -0.1861   -0.0571    0.0093    0.1864    0.2649   -0.1146    0.0689    0.1393
   -0.1109    0.0224    0.0432    0.1142   -0.0612   -0.0453   -0.2213   -0.0030    0.0536   -0.2355
   -0.1138   -0.0993   -0.1025   -0.1897    0.1317   -0.2283   -0.2349    0.0805    0.1242   -0.1738
   -0.4267   -0.0652    0.0193    0.1480    0.0842    0.0479    0.1102   -0.1322   -0.0571   -0.0923
   -0.1160   -0.2556   -0.1264   -0.1647    0.2280    0.0504   -0.1395   -0.1432   -0.2119   -0.3003
   -0.2292    0.0133   -0.1303    0.1287   -0.2922    0.1445   -0.3289    0.3305   -0.2753   -0.0637
    0.1746    0.0100   -0.1566    0.2912    0.0384    0.1838    0.0210   -0.1382    0.3146   -0.2644
    0.0430   -0.0772   -0.2527   -0.0375   -0.3776    0.0396    0.0104   -0.1811   -0.0982    0.1038
   -0.0936    0.1685    0.0985    0.2868    0.0276   -0.2399   -0.3504   -0.2928   -0.1500   -0.0070
   -0.1472   -0.0577    0.7676    0.1444   -0.0003    0.1532   -0.6153   -0.2519   -0.0257   -0.0906
   -0.4069   -0.1507   -0.1391    0.4283   -0.8723   -0.1855   -0.1044   -0.1529   -0.2791    0.1035
    0.5386    0.7485    0.0061    0.2436    0.1098    0.1436   -0.1565   -0.7197    0.0330    0.3498
   -0.1813   -0.1562   -0.3347   -0.0987    0.1109   -0.0519   -0.1962    0.1205    0.0884    0.0703
    0.1076    0.0724   -0.0711   -0.1716    0.0067    0.1108   -0.2922   -0.1946   -0.1417   -0.0744
    0.9018   -0.1392    0.1275    0.1179   -0.1916   -0.2857   -0.0187   -0.4502   -0.2685   -0.0555
    0.0435   -0.1376   -0.2712    0.0897    0.1107    0.1313   -0.0879   -0.0172   -0.1856   -0.0422
    0.0575    0.1008    0.0737    0.2041    0.2465    0.0792    0.0731   -0.0541   -0.1425   -0.2138
   -0.0265   -0.1157   -0.3828    0.0749   -0.0124   -0.0295    0.1218    0.1108    0.0592    0.1637
    0.2091   -0.2313    0.0281   -0.3550   -0.2653    0.4050   -0.1513    0.0962    0.2550   -0.0811
    0.0620   -0.0669   -0.1554    0.3069    0.0327   -0.0611    0.0980   -0.1811    0.0317   -0.0446
   -0.2453    0.0569   -0.3985   -0.0299    0.0565   -0.0717    0.0435   -0.2291    0.0142   -0.1358
   -0.1723   -0.1488    0.0383   -0.0464   -0.0005   -0.0132   -0.7062   -0.2346   -0.8701   -0.5140
   -0.7060   -0.2850   -0.9879   -0.5965   -0.3727   -0.7326   -1.0186   -0.5437   -0.1253   -0.5733
   -0.8999   -1.1047   -1.2400   -1.0998   -1.0756   -0.8511    0.0527    0.0822   -0.0806    0.0539
   -0.1405    0.1129    0.1107   -0.1696    0.1634    0.1411   -0.0160    0.0558    0.1820    0.2993
    0.0000    0.0000    0.0000    0.0000    0.0000    0.0000    0.0000    0.0000    0.0000
    0.0222   -0.1627   -0.0358   -0.0895    0.0333    0.0080    0.0950    0.0918   -0.0267    0.1337
   -0.1555    0.0687    0.0284   -0.0793    0.0095    0.0800    0.0966   -0.0354   -0.0021    0.0807
    0.1929   -0.0661    0.0961    0.1785    0.1811    0.0079   -0.1344    0.0547    0.1208    0.1239
    0.1171    0.1740    0.2059    0.0470   -0.0295   -0.0344    0.0135   -0.1135    0.0335   -0.0593
   -0.0579   -0.0487    0.0964    0.0363    0.0425   -0.1446    0.1277    0.1228    0.2198    0.1604
    0.3527   -0.0133    0.1822    0.0059    0.0596    0.0407    0.1535   -0.1770   -0.2176    0.1196
   -0.0381    0.1529   -0.1758   -0.1666    0.1783   -0.0171    0.0863   -0.1560   -0.0128    0.2318
    0.0073    0.0420    0.1657    0.3079    0.3379    0.0513    0.2417    0.2426    0.2378   -0.0373
    0.2271   -0.3774    0.3327    0.3522   -0.0001    0.0062   -0.0436   -0.0696    0.1685    0.1329
    0.0405   -0.1058   -0.4801    0.1630   -0.1304   -0.1358    0.3122    0.2420    0.3510   -0.0544
   -0.0469   -0.2073   -0.0790    0.0522    0.3257   -0.2326    0.0352    0.0091    0.1997   -0.3373
   -0.1814    0.5646    0.1064    0.1229   -0.3074    0.1003   -0.2038   -0.2620   -0.0363   -0.0891
    0.3612    0.3482    0.1000   -0.0320    0.3274    0.0108    0.4347   -0.1619    0.2681   -0.3616
   -0.1886   -0.0879    0.2615   -0.0568    0.0565    0.1839   -0.0388    0.0457   -0.1894   -0.3893
   -0.6342    0.0835   -0.1390   -0.1159   -0.0192    0.0872    0.4055    0.2606    0.1673   -0.1147
    0.0504   -0.2460   -0.0910   -0.1695   -0.0711    0.1018   -0.0091    0.2336   -0.1225    0.2033
    0.0860    0.1299   -0.0131    0.0700   -0.2199    0.2831   -0.0198   -0.2311   -0.1782    0.0106
    0.2409    0.1080    0.0772    0.1148    0.1045    0.0076    0.0782   -0.2371    0.0099    0.0115
    0.0153    0.1138    0.1261   -0.3477    0.0060    0.2158    0.0523    0.0424    0.1485    0.2047
   -0.0643   -0.0661   -0.1038    0.3123    0.0628    0.1869    0.0392    0.0327    0.1237   -0.0231
    0.1441   -0.1216    0.0594    0.0440    0.0971   -0.1851   -0.0343   -0.1554    0.0514   -0.0287
   -0.1098    0.2235    0.1524    0.1027    0.0471   -0.0792    0.9599    0.5858    1.1047    0.4911
    0.8664    0.2449    1.0452    0.8863    0.6673    0.9338    1.1971    0.9505    0.1655    0.4963
    1.0547    0.8969    1.0806    0.8927    1.1182    0.9644   -0.0148   -0.3032   -0.1174   -0.0928
   -0.1698    0.0140    0.0896    0.0648   -0.0510   -0.1182   -0.1388    0.1057   -0.0094   -0.5818
    0.0000    0.0000    0.0000    0.0000    0.0000    0.0000    0.0000    0.0000    0.0000
 ***                         junction second layer: row=numhid+ (10F10.4)
    0.6397   -0.6359   -0.4568   -0.7158   -0.6691   -0.0905   -0.3030    0.5909   -0.1648   -1.0536
   -1.3676   -0.3002    0.8291    0.0824    0.4473   -0.3103   -0.4105   -0.7738   -0.8583   -1.1462
   -2.2172   -1.2120   -0.7263   -1.1304   -0.8689   -0.5147   -0.6627   -0.1949    0.5417    2.2592
    0.6651    0.7417    0.1416   -1.0251   -0.7255   -1.2943   -2.1800   -1.6747   -1.8634   -0.2323
   -2.6876   -1.5571   -1.6243   -1.6590   -1.1613   -1.6543   -0.6558    0.5071    1.7901    2.2048
    0.2012   -0.9660    0.1047    0.5048   -0.3965   -0.4177   -1.4931   -1.4069   -0.5073    1.7692
   -0.2765    1.1287   -0.1644    0.2994   -0.4912   -0.7339   -1.0701   -1.2246   -1.2452   -0.3443
    0.7898   -0.2326   -0.2184   -0.3838   -0.0750   -0.2306   -0.3187    0.2046   -1.4130   -0.1360
   -0.3764    0.2563   -0.0199   -0.4321   -0.7879   -0.9615   -0.8077    0.1301    0.8549    2.3667
   -2.6315   -0.8831   -0.4443    0.0342    0.2440    1.0301    0.8502    0.9729    0.3489   -0.6829
    0.3547   -0.6513   -0.3000   -0.1892    0.2118   -0.5374   -0.4054   -0.6283   -0.5926   -0.8961
   -1.1817   -0.4763   -0.5802   -1.0627   -0.5597    0.2822    0.9974    1.4821    0.9601    1.1360
    0.8724    0.3757   -0.2534   -0.5948   -1.4475   -1.3510   -0.8254   -1.4948    0.2632    0.8932
   -1.4690   -0.5365   -0.8657   -0.5533   -0.3090    0.4246    0.7494   -0.9645   -0.0660    2.0915
    0.6485   -0.5544   -1.0233   -0.1786   -0.2766    0.0716    0.5890   -0.4924   -0.0040   -1.6056
   -0.4348   -0.4544   -0.6178   -0.4146   -0.3705   -0.4267   -0.3319   -0.4584   -1.0233   -2.8645
    0.0000    0.0000    0.0000    0.0000    0.0000    0.0000    0.0000    0.0000    0.0000    0.0000
    0.0000    0.0000    0.0000    0.0000    0.0000    0.0000    0.0000    0.0000    0.0000    0.0000
    0.0000    0.0000    0.0000    0.0000    0.0000    0.0000    0.0000    0.0000    0.0000    0.0000
    0.0000    0.0000    0.0000    0.0000    0.0000    0.0000    0.0000    0.0000    0.0000    0.0000
    0.0000    0.0000    0.0000    0.0000    0.0000    0.0000    0.0000    0.0000    0.0000    0.0000
    0.0000    0.0000    0.0000    0.0000    0.0000    0.0000    0.0000    0.0000    0.0000    0.0000
    0.0000    0.0000    0.0000    0.0000    0.0000    0.0000    0.0000    0.0000    0.0000    0.0000
    0.0000    0.0000    0.0000    0.0000    0.0000    0.0000    0.0000    0.0000    0.0000    0.0000
    0.0000    0.0000    0.0000    0.0000    0.0000    0.0000    0.0000    0.0000    0.0000    0.0000
END
