********************************************************************************
***                                                                          ***
*** Secondary Structure Prediction by a Layered Network                      ***
*** ~~~~~~~~~~~~~~~~~~~~~~~~~~~~~~~~~~~~~~~~~~~~~~~~~~~                      ***
***                                                                          ***
*** Burkhard Rost, EMBL, Heidelberg, FRG                                     ***
*** (Internet: rost@EMBL-Heidelberg.DE)                                      ***
*** file containing the architecture in PHD format                           ***
*** Wed Apr  6 02:48:03 1994                                                 ***
***                                                                          ***
*** cryptic:     Exp252x-15rcicld-A                                          ***
***                                                                          ***
********************************************************************************
***                                                                          ***
 prediction type:   EXPOSURE                      
 network type:      FIRST 

 input type:        P-REAL-CICLD
 NUMIN:                345
 NUMHID:                15
 NUMOUT:                10
 NCODEUNT:              24
 NUMNEIGH:               6
 *****
 *****
   number of layers: 2       junction first layer: row=numhid (10F10.4)
   -0.1382    0.0222   -0.0786   -0.1287   -0.0204    0.0704   -0.0433    0.1563    0.1966   -0.1497
   -0.0748    0.0921    0.0327    0.0446   -0.0694   -0.1174    0.0779   -0.0483   -0.0764   -0.1811
    0.1168    0.2122   -0.0971   -0.0135    0.1742    0.1101   -0.1324    0.1819   -0.0165    0.0828
    0.0532   -0.0125   -0.2069   -0.1061   -0.0475    0.0490   -0.0399   -0.2212   -0.1821    0.0917
   -0.0730    0.0407   -0.1315   -0.1362    0.1709    0.0493    0.0003    0.1576   -0.1207   -0.2583
   -0.1483   -0.1493   -0.0834   -0.1448    0.0536    0.2113    0.0799   -0.0810   -0.1329    0.0745
   -0.0666   -0.0977    0.2091   -0.1053    0.0433   -0.1019    0.0544    0.1558    0.1387    0.1584
    0.0896    0.1810   -0.0686   -0.1562   -0.0700   -0.0699   -0.0264    0.0423    0.2554    0.3397
    0.0491   -0.0030   -0.1909   -0.0788   -0.0312    0.0629    0.1587   -0.0830   -0.2304   -0.0441
    0.0669   -0.0414   -0.2272   -0.0270   -0.0483    0.2316    0.1810    0.1306    0.2694    0.0750
    0.0966   -0.0655    0.0243   -0.0506    0.2767   -0.1958    0.1152    0.0042   -0.0538    0.0749
   -0.2694   -0.3976    0.0494   -0.4152    0.0313    0.1936    0.1188    0.5318   -0.0610    0.0228
    0.1131    0.0840    0.2655   -0.0832    0.2697    0.1740    0.1072   -0.1149   -0.0173   -0.3731
    0.0857   -0.1059   -0.1803   -0.1069    0.0255   -0.0749    0.1608    0.0362   -0.0994   -0.2099
   -0.3151    0.1238   -0.0222   -0.0316    0.3903   -0.2663    0.1172   -0.2677   -0.3318   -0.4933
   -0.8942    0.4011    0.6837    0.1307    0.3078    0.2672   -0.0557   -0.5496   -0.9813    0.5324
    0.0191    0.1683   -0.0880    0.3280    0.5079   -0.4222    0.0917   -0.1917    0.1786    0.2020
    0.1194   -0.1082    0.2148   -0.0972    0.4790    0.1821    0.0175   -0.6131   -0.3839    0.0802
    0.1393    0.0705    0.1779    0.0089    0.1016   -0.0174   -0.0479   -0.3043   -0.2815    0.1491
   -0.0375   -0.0712   -0.1242    0.0314    0.0049    0.3244    0.0152   -0.0010   -0.1619   -0.0608
   -0.1099    0.0008   -0.1715    0.0389    0.1033    0.1014   -0.1627    0.0975   -0.2246   -0.1039
   -0.1759   -0.0460   -0.2666    0.4241   -0.0051    0.1226   -0.0707    0.0120    0.1092   -0.1078
    0.0464    0.0542   -0.0492   -0.0693   -0.0636   -0.2136   -0.0905    0.1666   -0.1181    0.2025
   -0.1015   -0.2119    0.0251    0.0893    0.0898    0.0418   -0.0436    0.1876   -0.0432    0.0292
   -0.1276    0.0385   -0.0144    0.0504   -0.0483    0.1103    0.0004   -0.0382    0.0777   -0.0212
    0.1764    0.2148    0.1855   -0.3658   -0.1416   -0.2267   -0.1061   -0.0851   -0.1944   -0.0271
    0.1888    0.2769    0.0424   -0.1085   -0.0858   -0.0193    0.0028    0.0380   -0.2479   -0.1539
   -0.0619   -0.0643   -0.1039   -0.2542    0.0700   -0.0561   -0.1572    0.0752    0.2401   -0.1778
    0.1052    0.0517    0.2385    0.0298   -0.0057   -0.0795   -0.0581    0.0080   -0.1347    0.0909
   -0.1761    0.1462   -0.2263    0.2062   -0.0176    0.0628    0.1933   -0.3429   -0.1821   -0.2030
   -0.1101   -0.2429    0.1441   -0.2602    0.1664    0.0851    0.0392    0.0773    0.0587    0.1714
    0.0442    0.3215    0.0927    0.1665    0.1624    0.2427    0.0731    0.1714    0.1590    0.2423
   -0.1159    0.0553    0.5743    0.0431    0.1554    0.3075    0.2099    0.0880    0.6280    0.0666
    0.2273    0.3090   -0.0610   -0.5047   -0.3157    0.1803   -0.1069   -0.0512   -0.0742    0.0751
   -0.1666    0.0021   -0.1588    0.1170   -0.0509   -0.5163    0.0000    0.0000    0.0000    0.0000
    0.0000    0.0000    0.0000    0.0000    0.0000
   -0.1450   -0.1193   -0.3301   -0.1480   -0.5277   -0.0642    0.1358    0.0920   -0.3074    0.2009
    0.1665   -0.1528   -0.0061    0.0173    0.3751    0.3304   -0.2222    0.1243    0.2043   -0.1336
    0.1104   -0.3877    0.0997    0.2753   -0.3279   -0.2351   -0.1142   -0.0389   -0.1823   -0.2056
   -0.0070    0.3371   -0.0789    0.0063    0.0218   -0.1297   -0.0920   -0.2576   -0.0389    0.2996
   -0.0328    0.3780   -0.0532    0.1095   -0.2173   -0.4197    0.0063    0.1321    0.2140   -0.0916
    0.1300    0.0539    0.0496   -0.0523    0.1833   -0.0561    0.0634   -0.0927    0.0669   -0.2675
    0.0039   -0.1415   -0.1998   -0.1209   -0.2734   -0.6433    0.0072   -0.0430    0.0771    0.4526
   -0.0870    0.4687    0.2359    0.1054    0.0127    0.1916   -0.3724    0.2246    0.3915    0.0223
    0.2967   -0.2551   -0.2842    0.0244    0.0320   -0.1747    0.0649   -0.0006   -0.3772   -0.1941
   -0.2162   -0.4171   -0.3242   -0.3288   -0.0074    0.4533    0.4689   -0.0084    0.4028   -0.0242
   -0.0346   -0.0929    0.2400   -0.4911    0.1269   -0.1654   -0.4905   -0.1732    0.2661   -0.0845
   -0.0311    0.1219    0.0754   -0.2754   -0.1306   -0.0524   -0.3333    0.0471   -0.2537   -0.0649
    0.3305    0.4158    0.3558    0.0729    0.1809    0.2160    0.2714   -0.4755    0.1087   -0.7526
   -0.2626    0.1769   -0.0855   -0.0097   -0.0935   -0.3372   -0.2690   -0.1008   -0.2416   -0.2062
    0.0639   -0.2394   -0.2990   -0.1860    1.0116    1.2125    1.2870    0.5821    0.6742    0.1485
    0.1490    0.3540    1.4543   -0.5697    0.5881   -0.3398    0.7809   -0.4681   -1.4802   -1.5512
   -0.8767   -1.4899   -0.6790   -0.9144   -0.4420    1.1112   -0.1458   -0.1338    0.5051    0.3970
    0.3759    0.0732    0.0191   -0.0022    0.5461   -0.6754    0.1083   -0.8525   -0.1220   -0.2050
    0.0754   -0.0058    0.3470    0.1488   -0.0480   -0.2613   -0.4453   -0.6878   -0.1811   -0.1426
   -0.1340   -0.1876    0.3810    0.0837    0.2867    0.1284    0.0730   -0.1970   -0.1800   -0.2429
    0.1208   -0.7922   -0.0390   -0.3025    0.4762    0.1447   -0.4114   -0.0399   -0.1029    0.1453
   -0.0892    0.0049   -0.3432    0.1766   -0.0278   -0.3688    0.2150    0.4982    0.6965    0.4001
    0.2478    0.0231    0.1321   -0.0973    0.2462   -0.4269   -0.0043   -0.1501    0.0994    0.2303
   -0.0431   -0.4289   -0.1092   -0.5532   -0.2563   -0.4906   -0.4472    0.0788   -0.2598   -0.2669
    0.1459    0.6583    0.1928    0.2012    0.0847    0.0002    0.0740    0.3104    0.2902   -0.4179
    0.0768    0.0187    0.4938    0.0204   -0.3651   -0.6507   -0.2091   -0.5728   -0.3450    0.1021
   -0.3823    0.4784   -0.1748    0.0332   -0.1474   -0.0292   -0.0718    0.0996   -0.2098   -0.2197
   -0.0726    0.3245   -0.0159    0.0688    0.2939   -0.4188   -0.0533    0.1501    0.0211   -0.0109
   -0.1439   -0.1199    0.0789   -0.1419   -0.3337   -0.5162    0.0049    0.1019   -0.2343   -0.1825
   -0.1299   -0.1101   -0.1547   -0.2452   -0.1915   -0.0391   -0.2547   -0.3215    0.0823    0.1567
   -0.1210   -0.1246    0.0467    0.1136    0.2467   -0.0594   -0.0818    0.2453   -0.0061   -0.4743
    0.0416    0.2752    0.3380   -0.1349    0.7503    0.9492    0.2951    0.9805    0.7418    0.3164
   -0.0665    0.4892    1.1845    0.0132    0.6388    0.9728    0.6655    0.7430    1.0859    0.7954
    0.9316    0.4105    0.0793   -1.3935    0.2119    0.4691   -0.0879    0.1193   -0.2436    0.0891
   -0.0792   -0.1705   -0.1699    0.0360   -0.0914   -1.5733    0.0000    0.0000    0.0000    0.0000
    0.0000    0.0000    0.0000    0.0000    0.0000
   -0.3092    0.0861    0.1826   -0.1010    0.0482    0.0069    0.0212   -0.0329   -0.2088   -0.0985
    0.1141    0.0837    0.0237    0.0810   -0.2059    0.1310    0.1324    0.1811    0.0412    0.0310
    0.0221    0.1302   -0.1239   -0.0067   -0.1496    0.1289    0.1079    0.2014   -0.1034   -0.1146
    0.0224    0.0049    0.0174    0.1411   -0.0170    0.0596   -0.0156    0.1611   -0.2987   -0.1846
    0.2382    0.0460   -0.1100   -0.0629    0.1567   -0.4484   -0.1403   -0.0085    0.1201    0.1255
    0.2049    0.1927   -0.0968   -0.1035   -0.0099   -0.0732    0.1576   -0.2526    0.1293    0.2306
   -0.1681   -0.0951   -0.0520    0.2766    0.1202    0.1049    0.1024    0.0691    0.0481   -0.2597
   -0.1608    0.1319   -0.1732   -0.1906    0.2103    0.0902   -0.0441   -0.1560   -0.2020   -0.1584
    0.0997   -0.2484   -0.0397    0.2026    0.1211   -0.1035   -0.0153    0.1011   -0.1735    0.5123
   -0.0967   -0.0222    0.0097   -0.1197   -0.1330   -0.1470    0.0972   -0.0717   -0.1670   -0.0963
   -0.0446   -0.1048   -0.1047    0.2839   -0.0877    0.1455    0.2557    0.0989   -0.0468    0.0227
    0.0887   -0.0579    0.1466   -0.1236   -0.2866    0.1661    0.0739   -0.1905   -0.1502   -0.0131
    0.3589    0.0804    0.0477    0.0178   -0.1606    0.0013    0.0330   -0.1058    0.0694    0.2049
   -0.2592   -0.0800    0.0056   -0.0358    0.0944   -0.1547   -0.1282   -0.0749   -0.0298   -0.2415
    0.2824    0.1786    0.0115    0.0189    0.1854   -0.4135   -0.0639   -0.4921   -0.5431   -0.3514
   -0.2176   -0.1002    0.2576    0.0467   -0.1295    0.1483   -0.4532   -0.1890    0.1108    0.6339
   -0.0165    0.3000    0.1724    0.0703    0.5764   -0.9272    0.0543    0.0648    0.1417    0.1934
   -0.2139   -0.1794   -0.0016   -0.0456    0.0002    0.2605   -0.1126   -0.0893   -0.1572    0.0676
    0.0956    0.1246    0.0107   -0.1896   -0.1259   -0.0137   -0.0545   -0.0785    0.2028    0.1145
    0.0200   -0.0312    0.3065    0.1781   -0.2368    0.4149   -0.3001   -0.0645   -0.2609   -0.0447
    0.3772   -0.1342   -0.2260    0.0198    0.0185   -0.2027    0.0554    0.1807   -0.0574    0.0289
   -0.0617    0.0749    0.1405   -0.2901   -0.0688    0.0976   -0.1135   -0.1126    0.1678    0.1104
    0.1132    0.1036   -0.1344    0.1774    0.1317   -0.2055    0.1792   -0.0867   -0.0202   -0.1972
   -0.2055    0.1559    0.1845   -0.0095   -0.0450    0.0386    0.1231   -0.3782    0.1823   -0.0562
    0.2269   -0.0860   -0.2172    0.0778    0.0924    0.0073    0.1206    0.2466   -0.2459   -0.2813
    0.0007    0.2262   -0.0435    0.1263    0.0383   -0.0011    0.1842   -0.2941    0.0775    0.0033
    0.0526   -0.2890    0.1019   -0.1007    0.2389   -0.2284   -0.0670   -0.1404    0.0438    0.1108
   -0.1550   -0.0470   -0.0895   -0.1273    0.1718    0.0562   -0.0057   -0.0479   -0.0706   -0.0826
   -0.0009   -0.0167    0.3858   -0.2433    0.0320    0.0001    0.1538   -0.0492   -0.0219    0.0954
   -0.0003    0.0618   -0.2193   -0.0340    0.3981    0.0770   -0.1617    0.1752    0.1450    0.0300
    0.0965   -0.2307   -0.1447   -0.0979    0.0514    0.1697    0.2620   -0.1426   -0.1852    0.1097
   -0.0417   -0.0458    0.1150    0.2070    0.0888    0.3362    0.5583    0.2456    0.2641    0.1340
    0.0155    0.2299    0.2029    0.3344    0.2238    0.1740    0.4007    0.0709    0.3829    0.0246
    0.2032    0.1696    0.0447   -0.1379    0.1312   -0.1835    0.0986   -0.0951   -0.1248   -0.1025
   -0.1703    0.0371   -0.0431    0.0412   -0.0869   -0.0977    0.0000    0.0000    0.0000    0.0000
    0.0000    0.0000    0.0000    0.0000    0.0000
   -0.1156    0.1677    0.0577    0.0352    0.1153   -0.1288    0.0278   -0.1019   -0.1413   -0.0437
   -0.0259    0.0134   -0.1214   -0.1159   -0.0719   -0.1856    0.0672   -0.0525   -0.1003    0.1043
    0.1802    0.2002    0.0814   -0.0654    0.0593    0.0716   -0.0541   -0.0090    0.0502   -0.0505
    0.0936    0.0070   -0.0157    0.0585    0.0073   -0.0271   -0.1216    0.0121   -0.1298   -0.0580
    0.0128   -0.0117   -0.2394    0.1790    0.0693   -0.0510    0.0481    0.0067    0.0805    0.0746
    0.2020    0.0153   -0.1334   -0.0319   -0.0231    0.1677   -0.0577   -0.1053   -0.3480    0.0844
    0.0009   -0.1045   -0.0596    0.1630    0.0896    0.0192   -0.1442   -0.0204    0.1841   -0.1207
    0.1447    0.0713   -0.0614   -0.0338    0.0591   -0.0259   -0.0138    0.0282   -0.0046   -0.0023
   -0.0918   -0.2431   -0.0834   -0.1032    0.0173   -0.1435    0.0506   -0.1706   -0.1261    0.2403
    0.1016    0.0191    0.0202   -0.0068    0.0813   -0.0087    0.1822    0.1413    0.0594   -0.1882
    0.0500   -0.0304    0.0222   -0.0940    0.0337   -0.2181    0.0038    0.0804   -0.2422    0.1710
    0.0177   -0.1796   -0.0561   -0.0410   -0.1773   -0.0905   -0.2423    0.0794    0.0233   -0.2063
    0.4154    0.1939    0.2976   -0.0023    0.2192    0.1708    0.2233   -0.1726    0.0541   -0.2822
   -0.0684   -0.1867    0.0359    0.0259    0.0060   -0.3440    0.0849   -0.1679   -0.0024   -0.1565
   -1.1083    0.3355   -0.0715   -0.2632    0.2650    0.5192    0.4104    0.0484    0.3668    0.1632
    0.2230   -0.7925   -0.3702   -0.4392   -0.3568   -0.1478    0.4454   -0.1321    0.1365    0.0683
    0.0390   -0.0082   -0.5335   -0.3251    0.0139    0.5255   -0.2048   -0.2662    0.2565    0.2055
    0.2112    0.0734    0.2901    0.0987    0.2051   -0.2262   -0.0263    0.1304   -0.2453   -0.1297
    0.1507   -0.1116   -0.1099   -0.1551   -0.0534   -0.0095   -0.1549   -0.1628   -1.1294    0.2203
   -0.3763   -0.3751    0.1022    0.1776    0.3025    0.2632    0.0130    0.0136    0.0841   -0.3728
    0.1124   -0.3801   -0.2172   -0.0626   -0.1298    0.0131    0.0719   -0.0911   -0.1611   -0.1076
   -0.1389   -0.0586   -0.3277   -0.0950   -0.1851   -0.2250   -0.0659    0.0570    0.0208    0.0866
    0.2402    0.0845    0.0222   -0.0508   -0.0816   -0.3681   -0.0910   -0.1378    0.0561    0.0571
   -0.1194    0.1095    0.1455   -0.0943    0.0215   -0.1194   -0.0282    0.0590   -0.0020   -0.1133
   -0.1084   -0.0556   -0.0253    0.0114    0.0331   -0.0130    0.1185   -0.0313    0.0250   -0.3131
    0.0616    0.0037   -0.2056   -0.0875   -0.0021    0.1123    0.1003   -0.1343    0.0022    0.0066
   -0.0347    0.0267   -0.0707   -0.2774   -0.1640   -0.0124    0.0557   -0.0173    0.0105    0.0832
    0.1262   -0.0833    0.1222   -0.3199   -0.1166    0.1507   -0.1811   -0.0427   -0.1536    0.0387
    0.0793   -0.1332   -0.0151    0.0123    0.0305   -0.0116    0.0100   -0.1448   -0.0695    0.0621
    0.0848    0.1182   -0.0186   -0.0823    0.0006    0.0120   -0.0012   -0.0345   -0.0535   -0.1662
   -0.1784   -0.0629    0.0771    0.0006   -0.0042    0.1671    0.1010   -0.0628   -0.0464    0.0951
    0.2325   -0.0317   -0.3979   -0.5440   -0.5156   -0.6260   -0.7879   -0.3499   -0.6049   -0.2737
   -0.4710   -0.6450   -0.3921   -0.4207   -0.4638   -0.5111   -0.7633   -0.3666   -0.8225   -0.3513
   -0.5198   -0.3381   -0.0031    0.4047    0.2159    0.0160    0.0191    0.0232    0.1001    0.3118
    0.1389   -0.2424   -0.2147   -0.1639    0.0852    0.1788    0.0000    0.0000    0.0000    0.0000
    0.0000    0.0000    0.0000    0.0000    0.0000
    0.0687   -0.0156    0.0675    0.0709    0.0408    0.0361   -0.2252   -0.0457   -0.0560   -0.1504
    0.0821    0.0935   -0.0630   -0.0553   -0.1395   -0.1951   -0.0064   -0.0682    0.0280    0.4603
   -0.3746    0.1568   -0.1173   -0.3316   -0.1215    0.3370   -0.0639   -0.0846    0.2862    0.2101
   -0.0057   -0.4040   -0.0033    0.0276   -0.0415    0.0204   -0.2849    0.0781    0.1066    0.0170
   -0.0168   -0.0902   -0.1574    0.0993    0.0345    0.2254    0.0234   -0.1081   -0.1594    0.0216
   -0.1303   -0.0008    0.0203   -0.0387   -0.3953   -0.3379    0.0806    0.2524   -0.2670   -0.0260
   -0.2585   -0.2006    0.3248    0.2173    0.2313    0.2722   -0.1350    0.2816   -0.1622   -0.2991
   -0.0299   -0.2833   -0.1300   -0.0566   -0.3503   -0.1860   -0.0383   -0.2303   -0.0042   -0.2718
    0.2870    0.2175    0.0337   -0.1494   -0.3232   -0.0566    0.0266    0.0671    0.3209    0.2329
    0.1213    0.3806    0.0238   -0.3389   -0.1065   -0.1451    0.1689    0.1643   -0.0180   -0.0165
    0.0401    0.0252   -0.1083   -0.1672   -0.0590   -0.1630    0.0953    0.2580   -0.0692    0.0307
    0.0480   -0.1451   -0.0959   -0.0347   -0.0421   -0.0527    0.1316   -0.1280    0.1610    0.1887
   -0.1206    0.0196    0.1649   -0.1963   -0.0447   -0.0714   -0.3330   -0.0835    0.3414    0.0753
    0.0014   -0.0898   -0.1469   -0.0639    0.0653    0.0842    0.1472    0.0203   -0.0713    0.1402
    0.1009   -0.0190    0.1231    0.2760   -1.0415   -0.3570   -1.1136   -0.7870   -0.7531   -0.4804
   -0.6599   -0.0910   -0.1466    0.5769   -0.0352    0.0272   -1.4024    0.1119    0.7537    1.6555
    0.7533    1.1012    0.4627    0.8588    0.5033   -2.0117    0.1207    0.1521   -0.1403   -0.3052
   -0.1034   -0.1330    0.0835    0.0283    0.0013    0.3469    0.2187   -0.0306   -0.1221   -0.2736
   -0.4012    0.0137   -0.0509    0.0244    0.1448    0.4235    0.0578    0.3248    0.2643   -0.2055
    0.0882    0.1621    0.0135    0.3267    0.1439    0.0169    0.2038   -0.0686    0.1158    0.0649
    0.0929    0.0373   -0.0721   -0.0821   -0.2811   -0.0274   -0.0579   -0.0268   -0.1740   -0.1995
   -0.1475   -0.1701    0.0588   -0.0235   -0.0825    0.2975   -0.1015   -0.0379   -0.2771   -0.0912
   -0.0297   -0.0719   -0.3205    0.0214   -0.1781    0.2067   -0.0061   -0.0121   -0.1673   -0.0450
    0.0635    0.4297    0.2872    0.1118    0.0894    0.1340   -0.1017   -0.3932    0.0366    0.1736
   -0.1584   -0.2595   -0.0759   -0.1302   -0.2752   -0.0306   -0.0449   -0.1653    0.1580   -0.0084
   -0.0627   -0.0053   -0.4067   -0.1857   -0.1022    0.3981    0.1575    0.1130    0.1706    0.2313
    0.2875   -0.4153    0.0423    0.0655   -0.1255    0.3015    0.2457   -0.1164    0.1761   -0.0293
    0.0546    0.0497    0.0187   -0.1387   -0.1394    0.2032   -0.0922   -0.0457   -0.1714    0.0501
    0.0050   -0.0655   -0.0588    0.0991    0.0117    0.1089   -0.0474   -0.0128    0.0395    0.1080
    0.1914    0.1127    0.1861   -0.1064   -0.1525    0.1529   -0.1643    0.0801   -0.2080   -0.1375
   -0.0204    0.1007    0.2672    0.1012   -0.0082    0.2409   -0.1029    0.0812   -0.1462   -0.0370
   -0.1629    0.0683   -0.1054    0.3271   -0.5964   -0.8030   -0.2322   -0.7188   -0.8490   -0.2218
    0.0013   -0.3728   -0.6438   -0.0358   -0.4945   -0.8412   -0.4526   -0.7568   -0.8101   -0.6820
   -0.6888   -0.3759   -0.0816    0.2258    0.0750   -0.4239    0.0325   -0.2118   -0.1550   -0.2405
   -0.2407    0.0955   -0.2131   -0.0180    0.0248    0.3989    0.0000    0.0000    0.0000    0.0000
    0.0000    0.0000    0.0000    0.0000    0.0000
   -0.0816    0.0327   -0.0488    0.1748    0.1823   -0.1946    0.1117    0.0063   -0.2238   -0.1822
   -0.0227    0.0190   -0.1187    0.1004    0.0456    0.0335    0.0123    0.0148    0.1149    0.2103
   -0.1809   -0.4436    0.1168    0.0143   -0.1556   -0.0212   -0.0947   -0.1151   -0.1964    0.0480
   -0.0191    0.0371    0.2973   -0.0047    0.0489    0.1169    0.0985    0.2324    0.2296   -0.0741
   -0.2108    0.0661    0.0895    0.0934   -0.4009   -0.0542    0.1470   -0.1407    0.0454    0.2930
    0.0846    0.0309    0.1392    0.0533    0.0202    0.1042    0.1051   -0.3050    0.1407   -0.0526
   -0.0832    0.0944   -0.0008   -0.3742   -0.1464   -0.1284   -0.0377   -0.0614   -0.2371    0.0564
    0.1845   -0.1212    0.0135    0.0556    0.2573   -0.0656    0.0708    0.1385    0.0916    0.0906
   -0.0915   -0.2551    0.0331    0.1395    0.0285    0.1760    0.0121   -0.3255    0.0909   -0.2225
   -0.1412    0.1185   -0.1512    0.0514    0.0492   -0.0770    0.0966   -0.2180    0.1643   -0.0602
    0.0886    0.1739    0.2424   -0.0444   -0.0789    0.0111    0.1105   -0.0167    0.0632   -0.1499
    0.1378   -0.0884   -0.3374   -0.0840   -0.0641    0.0257   -0.2564   -0.3846    0.0585   -0.1486
    0.3904    0.0244    0.0057    0.0304    0.0669   -0.0327    0.0543    0.0912   -0.1892   -0.2541
   -0.1468   -0.2589    0.1323    0.0762    0.1217   -0.1538   -0.1662    0.0008   -0.1634    0.2190
   -0.1628    0.3022    0.1150   -0.0344    0.4164    0.5777    0.8743    0.4388    0.9606    0.4611
    0.1022   -0.5745   -0.2108   -0.3333   -0.1988   -0.0363    0.5224    0.1368   -0.1238   -1.1517
   -0.2184   -0.5472   -0.4084   -0.5482   -0.4279    2.0075   -0.0451    0.1346   -0.0877   -0.2296
    0.1082    0.0957   -0.0477    0.0430   -0.1341   -0.2341   -0.2667    0.3957    0.0816    0.2394
   -0.2371   -0.0009   -0.1623   -0.2041    0.0674    0.0227    0.0657    0.1360    0.0017    0.1545
    0.1219   -0.0445    0.0618   -0.1882   -0.0104   -0.1603    0.1128    0.2239    0.0206    0.1085
    0.2304   -0.0466    0.0616   -0.1285   -0.0718   -0.0078    0.0262   -0.2095   -0.1451   -0.0834
   -0.0880    0.0178   -0.2015    0.0464    0.0625   -0.1289    0.1675    0.4125   -0.2400    0.0363
   -0.0644    0.1302   -0.0901   -0.1848    0.1215   -0.0438   -0.0089    0.0832   -0.0842    0.1593
    0.0565   -0.1929   -0.0886   -0.1976   -0.0923   -0.1420   -0.2724    0.1532   -0.0665   -0.0446
    0.1190    0.0302    0.0355   -0.0236    0.1159    0.0691   -0.0853    0.1029   -0.1528    0.0855
    0.0165   -0.0120    0.1090    0.0881    0.0048    0.1317   -0.0883   -0.2583    0.0571   -0.2613
   -0.2685    0.1546   -0.0317    0.0582   -0.0568   -0.0846    0.0733   -0.0715    0.0673    0.1388
    0.0154   -0.1484   -0.0480    0.1908   -0.0278   -0.0319    0.0798    0.0148    0.0727   -0.0558
   -0.0515    0.0085   -0.0601    0.1123   -0.0513   -0.0250    0.0256   -0.0109   -0.0154   -0.0268
    0.0315   -0.0998    0.2132   -0.1542   -0.2653    0.0918   -0.0375    0.0692   -0.0209   -0.1784
    0.0454    0.2821    0.0741   -0.1098   -0.1012   -0.1364   -0.0722   -0.0088   -0.1345   -0.0296
   -0.0207   -0.1229    0.3383    0.1508    0.7795    0.8507    0.7557    0.5244    0.9570    0.2290
    0.3885    0.8240    0.3546    0.5126    0.0737    0.7968    0.6507    0.7102    0.9138    0.6815
    0.7439    0.4441   -0.0391   -0.9823   -0.3210    0.3699    0.5382   -0.0852   -0.1048   -0.1808
   -0.3217   -0.1576   -0.1539   -0.0931   -0.1796   -1.1397    0.0000    0.0000    0.0000    0.0000
    0.0000    0.0000    0.0000    0.0000    0.0000
   -0.1342   -0.1014    0.1056    0.0419   -0.0947   -0.0374    0.0668   -0.1956   -0.3631   -0.0269
   -0.1412   -0.1641   -0.1174   -0.1816   -0.2058   -0.1236   -0.0575   -0.1694   -0.2673   -0.0793
   -0.1924    0.1404   -0.0274   -0.0347   -0.0759   -0.4939   -0.0133    0.0684   -0.0997   -0.2212
   -0.1287   -0.0590   -0.1015   -0.1406   -0.2820    0.0127    0.0938   -0.0095    0.1038   -0.1924
   -0.0313   -0.3675    0.0044   -0.2542   -0.0166    0.0750   -0.1422   -0.1486   -0.1541   -0.1556
   -0.0753    0.1203   -0.1267   -0.1272   -0.0148   -0.0049   -0.3840   -0.1125    0.0424   -0.2208
   -0.1463    0.0224   -0.2616   -0.2215   -0.1002   -0.1274   -0.2226   -0.1811    0.0042    0.2422
   -0.0994   -0.2381   -0.0381   -0.2632   -0.1668    0.0373    0.1175    0.0998   -0.0811   -0.0055
   -0.5099   -0.1026   -0.2943   -0.0621   -0.0820   -0.1163   -0.1933    0.0077   -0.1138   -0.0276
   -0.2873   -0.1490    0.0011    0.2393   -0.2424   -0.0580   -0.1589   -0.2327   -0.2648   -0.0654
   -0.2534   -0.0979   -0.0751   -0.1349    0.0203    0.2382   -0.1431   -0.2964   -0.0693   -0.0639
   -0.0455   -0.3186   -0.1074    0.0569   -0.1151    0.0345    0.0178    0.0864   -0.0825    0.0574
   -0.0515    0.0093   -0.2674   -0.0633   -0.2001   -0.1206   -0.1286   -0.1882   -0.4337    0.1670
   -0.3369   -0.1466   -0.0578    0.0790   -0.0831    0.0638   -0.2122   -0.3077    0.0653   -0.2909
    0.3736   -0.0770   -0.0750   -0.0401   -0.3427    0.1093   -0.2105   -0.0413    0.0985   -0.1508
   -0.0799   -0.1616   -0.4905   -0.0752   -0.4862   -0.1847   -0.1617   -0.0369    0.0361   -0.0947
   -0.1141   -0.0625    0.0354   -0.1770    0.2948   -0.0004    0.0763    0.0583   -0.2189    0.0124
   -0.1915    0.0759   -0.3516   -0.0828   -0.1694   -0.1508   -0.3374    0.0108   -0.2834   -0.1164
   -0.0250    0.0226   -0.0370   -0.1931   -0.0092   -0.0474    0.1805    0.0934    0.2600    0.1747
    0.0109    0.1116   -0.1803   -0.1057   -0.3691   -0.0325   -0.3619    0.0530   -0.1768   -0.1161
    0.0040    0.1038   -0.0022   -0.1891   -0.1491   -0.1815    0.1495   -0.2306   -0.0459   -0.1823
   -0.1033   -0.1764    0.0222   -0.1360    0.0645    0.0549   -0.0962   -0.3006   -0.0266   -0.1881
    0.0706   -0.1293    0.1663   -0.2870   -0.3124    0.1485   -0.0998   -0.1760   -0.1685   -0.0508
    0.0005    0.0080   -0.1814   -0.1790   -0.2549    0.0356   -0.0428   -0.0120   -0.0292   -0.0486
   -0.1150   -0.3194   -0.1675   -0.1183    0.0538    0.0034   -0.2177   -0.1239   -0.1156    0.1363
   -0.2064   -0.2796   -0.2085    0.2574   -0.0250   -0.1369   -0.1214   -0.1881   -0.0118   -0.1984
   -0.0981    0.0299   -0.0755   -0.0006   -0.0317   -0.1230   -0.2699   -0.1090   -0.1521    0.0534
    0.1174   -0.0749   -0.3093   -0.0033    0.0899   -0.1240   -0.0029    0.0552   -0.1635   -0.0065
   -0.2490   -0.1453   -0.3102   -0.1371   -0.0553    0.0728   -0.0701   -0.1046    0.0914   -0.1529
   -0.1916    0.0978   -0.0070    0.0198    0.0809   -0.1879   -0.2101    0.0245    0.0140   -0.0025
    0.0487    0.0909   -0.3957    0.0448   -0.0318   -0.1999   -0.3107   -0.2922   -0.1647   -0.0603
   -0.0956   -0.1792   -1.5810   -1.4635   -1.4153   -0.1163   -0.8606   -0.1179   -0.9116   -1.6494
   -1.4082   -1.1407   -1.5879   -1.3428   -0.2069   -0.1972   -1.0839   -1.4879   -0.7423   -1.4687
   -1.2141   -1.4796   -0.0528    0.0399    0.2387    0.1761   -0.0771   -0.0166   -0.1552    0.0486
    0.0870   -0.0471    0.1224   -0.3031   -0.2591    0.1325    0.0000    0.0000    0.0000    0.0000
    0.0000    0.0000    0.0000    0.0000    0.0000
    0.1532   -0.0179   -0.0580    0.1282    0.0994    0.0191    0.0238   -0.0566   -0.0269    0.1301
    0.0248    0.0607    0.0684   -0.0622    0.1325    0.0703    0.1235   -0.1296    0.1008   -0.2887
    0.0756    0.1499   -0.3818   -0.2847    0.0553   -0.2493   -0.1310   -0.3533   -0.2268    0.1312
    0.0401    0.0444    0.1773   -0.1238    0.2318    0.1425    0.0324   -0.1217    0.0378    0.1967
    0.2383    0.1247    0.0466    0.0767    0.3329    0.1357   -0.3857   -0.0165   -0.0143   -0.1423
   -0.1644   -0.2849   -0.1862    0.1885    0.2544    0.2268   -0.1483    0.2834   -0.0631    0.0036
    0.1007    0.0668   -0.0750    0.3414   -0.0402    0.3873    0.0922   -0.1031    0.0518   -0.4033
   -0.2566   -0.3510   -0.2756   -0.0064   -0.3357   -0.0550    0.0107   -0.1652   -0.2726    0.2131
    0.0783    0.0743    0.2285    0.1919    0.0254   -0.2301    0.0590    0.0421    0.0862   -0.0426
    0.1904    0.2488    0.5834   -0.1964   -0.1738   -0.4700   -0.5029   -0.3246   -0.4174   -0.0822
   -0.1579   -0.0973   -0.0903    0.0714   -0.0975    0.3059   -0.2031    0.1749   -0.2822    0.0603
    0.1029    0.4307    0.3016    0.1520    0.3013   -0.1514    0.7274   -0.0724    0.1277   -0.0244
   -0.3220    0.0655   -0.6451   -0.0124   -0.1970   -0.1506   -0.0914    0.3429   -0.1531    0.2931
    0.1867    0.0965   -0.1286   -0.2568   -0.4183    0.2009   -0.0196    0.0273    0.3411    0.3965
    0.7281   -0.1866    0.2515    0.3986   -1.2688   -0.8176   -0.9577   -0.9272   -0.8156   -0.4331
    0.4552   -0.2916   -1.3682    0.1084   -0.2960   -0.2142   -1.3826    0.3572    1.6713    2.7167
    0.7478    1.4944    0.4258    0.7693    0.1241   -2.2010    0.1944    0.4942   -0.1000   -0.2874
   -0.5019   -0.2667   -0.0779    0.0169   -0.1599   -0.0723    0.0097    0.6293    0.2824   -0.0800
    0.0101    0.0928   -0.2986    0.3887   -0.2416    0.0915    0.1487    0.2692    0.7440   -0.3676
    0.1777    0.5233   -0.1108   -0.5194   -0.0594   -0.4389   -0.3467   -0.0815    0.0156    0.1083
   -0.1855    0.5181    0.0681    0.3338   -0.3067    0.1491    0.1646    0.0188    0.1922    0.2371
    0.2149    0.3725    0.7862   -0.3509    0.1128    0.3943   -0.1528   -0.1575   -0.0853   -0.3371
   -0.3763    0.2632    0.0271    0.0495   -0.0912    0.2297    0.3112    0.1998    0.1091   -0.4601
    0.1047    0.0352   -0.0223    0.2381    0.1833    0.1278    0.6466   -0.1065    0.2230    0.0700
   -0.1718   -0.0171   -0.1940   -0.4353   -0.1761   -0.2216    0.1937    0.0546   -0.1543    0.1391
    0.0485    0.2285   -0.1261   -0.0656    0.1257    0.3422    0.2848    0.2743   -0.0103    0.0383
    0.7005   -0.2103   -0.0776   -0.0875    0.0630    0.0544    0.1730    0.0457    0.0786   -0.1259
    0.0207   -0.0170    0.2282    0.1044    0.1841    0.0136    0.0242   -0.1253   -0.0366   -0.0834
    0.0721   -0.0241   -0.2240   -0.0443    0.2146    0.1856   -0.1925    0.0062    0.1793    0.1996
    0.4194   -0.0248    0.1896   -0.0664   -0.1416   -0.0010   -0.0784   -0.0546    0.0434    0.1849
    0.0578   -0.0220   -0.0982   -0.0263    0.1049   -0.0162    0.0890    0.0982    0.1433    0.1875
   -0.2224   -0.0518   -0.3403    0.4099   -0.6611   -0.9025    0.0314   -0.9441   -0.6401   -0.2202
    0.1575   -0.0949   -0.8621    0.3191   -0.2967   -0.9166   -0.2891   -0.8341   -0.8929   -0.9571
   -0.6308   -0.3746   -0.0565    0.8971   -0.4339   -0.3126   -0.2708    0.1088    0.3190   -0.0212
    0.2629    0.3583    0.1595   -0.0938    0.2120    1.1683    0.0000    0.0000    0.0000    0.0000
    0.0000    0.0000    0.0000    0.0000    0.0000
   -0.0354    0.2568   -0.0205    0.0817    0.0299    0.1087    0.0074   -0.1441    0.1143   -0.0633
    0.0004    0.1839    0.0251   -0.0337    0.0933   -0.0484   -0.2438    0.1072   -0.2143   -0.0640
    0.0651    0.2972   -0.1922   -0.2932    0.2977   -0.0204    0.0929    0.2194    0.1433    0.0126
   -0.0519   -0.1734   -0.0265    0.1996   -0.1311   -0.1747    0.0702    0.0988    0.0064    0.2572
   -0.0224   -0.0215    0.1216   -0.2184    0.3582    0.1963   -0.1619    0.0227   -0.1259   -0.0300
   -0.1140   -0.0076    0.0197   -0.1807   -0.4024   -0.1730    0.0535    0.1727    0.2957   -0.0662
    0.1043   -0.0504   -0.0382    0.3069    0.1379    0.2094   -0.2405    0.1152    0.2253   -0.1808
   -0.1151   -0.2496   -0.0990   -0.0568   -0.1974   -0.1448   -0.3945    0.0138    0.3447   -0.1830
   -0.0864   -0.0327    0.0062   -0.0653   -0.2522    0.0814    0.1201    0.5286    0.2095    0.3016
   -0.0231    0.0935    0.2041   -0.3785   -0.0650   -0.1380   -0.3264    0.3381   -0.1669   -0.1655
   -0.2316   -0.1813   -0.1360   -0.0251    0.0966    0.1199    0.3203    0.1020   -0.0780   -0.0239
   -0.1537   -0.1301   -0.1547   -0.3261    0.2060    0.4245    0.7409    0.0702   -0.0095    0.2242
   -0.5246   -0.3943   -0.3840   -0.2993   -0.2559   -0.2512   -0.3467    0.0512    0.0434    0.7480
    0.1825   -0.2296   -0.3227   -0.1010    0.0884    0.3613    0.2856    0.1582    0.0300    0.0709
    1.3913   -0.6299    0.1629    0.3106   -1.0456   -1.7430   -1.5405   -0.6238   -1.0134   -0.7677
   -1.0883    0.7106    0.0908    0.9884    0.5916    0.2086   -1.4892   -0.1865    0.1440    1.7453
    0.7138    1.4001    0.9840    1.2552    0.6676   -2.2915    0.3124    0.2817   -0.2353   -0.1088
   -0.3440   -0.1270   -0.5402   -0.3132   -0.2799    0.3970   -0.0473   -0.4091    0.0228   -0.0514
   -0.3429    0.1749   -0.0329    0.0233    0.2263    0.1986    0.4260    0.2697    1.1902   -0.2529
    0.5562    0.5110   -0.1947   -0.1004   -0.4967   -0.0991   -0.0534   -0.2262   -0.2064    0.2765
   -0.3900    0.5901    0.3437    0.1954    0.0913   -0.2299    0.0745    0.1907    0.0171   -0.0846
   -0.0072   -0.1357    0.5953   -0.2578    0.2353    0.6010    0.1317   -0.3771   -0.2218   -0.3118
   -0.0353   -0.2715   -0.1500   -0.0538   -0.1462    0.5975    0.1710    0.0368   -0.2251    0.0525
    0.0305    0.4734    0.3091   -0.1083    0.2181    0.2408    0.0788   -0.3348    0.1408    0.3568
    0.0354   -0.4413   -0.0997   -0.3470   -0.2312   -0.0781   -0.1679   -0.0739    0.2021    0.1986
    0.3707    0.0578   -0.1684    0.0833   -0.0689    0.3409   -0.2059    0.4132    0.0274    0.0892
    0.3324   -0.3519   -0.0295    0.1415    0.0618   -0.0938   -0.0204   -0.2299    0.1059    0.0748
    0.1713   -0.2467   -0.0627    0.0823   -0.0791   -0.0281    0.0206    0.2763   -0.0330   -0.0208
   -0.0814   -0.0477   -0.1679   -0.0571    0.1311    0.3362   -0.2500    0.0683    0.2421    0.0508
    0.1844   -0.0100    0.1240    0.1871    0.0607   -0.2254    0.0502   -0.0107    0.1611    0.0013
    0.1823   -0.0185   -0.1925    0.0241   -0.0372   -0.0952   -0.2106   -0.0272   -0.0184    0.3683
   -0.2275    0.0169    0.0787    0.5419   -0.0803    0.0909    0.2583   -0.0076   -0.0428    0.0195
    0.1584    0.2619    0.0740    0.1304    0.2983    0.0133    0.2908   -0.2389    0.2459   -0.1550
   -0.2866    0.0325   -0.0891    0.1173   -0.2626   -0.4588   -0.3496    0.1802    0.0289    0.3428
    0.1614    0.3546    0.1668    0.2050    0.1026    0.2701    0.0000    0.0000    0.0000    0.0000
    0.0000    0.0000    0.0000    0.0000    0.0000
   -0.0678   -0.0436    0.0427    0.1031   -0.0999    0.0069   -0.0163    0.1307    0.0877    0.1099
    0.1286   -0.1996   -0.0427   -0.3455   -0.2041   -0.0744    0.0221    0.0683   -0.1651   -0.0840
    0.1437    0.1311   -0.0678   -0.0363    0.1470   -0.0758   -0.0082   -0.1081   -0.1966   -0.2457
   -0.0475    0.0018   -0.0196   -0.0881   -0.0332    0.0037    0.1529    0.0920   -0.1094    0.1374
    0.2429   -0.0676   -0.2135   -0.0896   -0.0619   -0.1222   -0.0635   -0.0713    0.1256   -0.0355
   -0.0516   -0.0960   -0.0914   -0.1865   -0.0038    0.1903   -0.1970    0.0006   -0.0814   -0.0671
   -0.0990    0.0977   -0.0194    0.1017   -0.0048    0.1847    0.0049    0.0667   -0.1267   -0.0458
   -0.0699   -0.1171   -0.2345    0.1821   -0.0550   -0.0218    0.1026   -0.1638    0.0789    0.3619
    0.0643   -0.1254    0.1387    0.0572   -0.1270   -0.0649   -0.1083   -0.2280    0.0684    0.0319
    0.0221    0.1345   -0.1596    0.0823   -0.0226   -0.0698   -0.0903   -0.1795   -0.1689    0.1851
    0.0816   -0.0337    0.1914   -0.0840    0.2891    0.0796    0.0416   -0.0014   -0.1870    0.0072
    0.0996   -0.0274    0.0823    0.1519   -0.1124   -0.1690   -0.3298    0.1659   -0.1031   -0.1891
   -0.0150    0.2590   -0.0823   -0.2222   -0.3077    0.0336    0.0615    0.1152    0.0453   -0.1950
   -0.2258   -0.1595    0.0447    0.2485    0.0261    0.2717    0.0785   -0.0592    0.3983    0.0879
   -0.4088   -0.2540    0.0431   -0.0419    0.2292    0.2276    0.1517   -0.0879    0.4825    0.4372
    0.8826   -0.7097    0.1319   -0.3493   -0.5063   -0.3201    0.6071    0.1539   -0.0083    0.1377
   -0.3559   -0.1311   -0.3216   -0.4579   -0.2003    0.7340    0.0651    0.2267   -0.0119    0.1170
    0.0858    0.0251   -0.1327    0.0480    0.1616   -0.2959   -0.1623    0.3758   -0.0129    0.0052
   -0.0651    0.3191   -0.0360   -0.0620   -0.0671   -0.0412    0.0023   -0.0116   -0.3364    0.1243
    0.1455    0.0988    0.0401   -0.0396   -0.1684    0.0824    0.2707    0.1419   -0.2366    0.1654
    0.0903   -0.0359   -0.2918   -0.0267    0.0273   -0.1597    0.0508   -0.0270    0.0397   -0.1287
   -0.0052   -0.0357    0.0503   -0.1012    0.0639   -0.0104   -0.1018   -0.0545   -0.1287    0.0997
    0.0259    0.1910    0.0767    0.1214   -0.2520   -0.0174    0.0476    0.0791   -0.0755    0.0302
   -0.0750    0.1230   -0.0803   -0.0950    0.0700   -0.0129    0.1884    0.1233    0.0310    0.0074
   -0.0383   -0.0949   -0.1510    0.0319   -0.0454   -0.0740   -0.0776   -0.0014   -0.2453   -0.0583
   -0.0955    0.0857   -0.1217    0.0875    0.1405   -0.1046    0.0707    0.1863    0.1808    0.0593
    0.1476    0.0711    0.0772   -0.0883   -0.0564    0.1197   -0.1362    0.0523   -0.0863   -0.1960
    0.0399    0.2003   -0.0446    0.0037    0.1258    0.0101   -0.1841   -0.1198    0.0216    0.1622
    0.0134    0.0145    0.1116   -0.2048   -0.1009   -0.1119   -0.0081   -0.0463    0.2630   -0.0839
    0.0081   -0.0091    0.0184    0.0688    0.1916   -0.1415    0.0085   -0.0654    0.0093    0.1441
   -0.1299   -0.2626    0.0252   -0.1687    0.0475    0.1449    0.2790   -0.2829   -0.0064    0.0788
    0.0050   -0.1459   -0.1436   -0.2311    0.0533   -0.0647   -0.0050    0.0495    0.2608   -0.2309
    0.0331   -0.0221   -0.1819   -0.0646   -0.2551   -0.0324   -0.0050    0.1484    0.0402    0.0211
   -0.0135   -0.0687   -0.0655    0.0308   -0.1281    0.0604   -0.1058   -0.0595   -0.1288   -0.1756
   -0.1775    0.0871    0.0455    0.1147   -0.0273    0.0207    0.0000    0.0000    0.0000    0.0000
    0.0000    0.0000    0.0000    0.0000    0.0000
    0.0703   -0.1467    0.0448   -0.1594    0.0010    0.0493   -0.1119   -0.0194   -0.0998   -0.1408
    0.0148    0.0980    0.0830    0.0407   -0.0438    0.0194    0.1010   -0.1368    0.0782   -0.0329
   -0.1539   -0.1563    0.0847    0.0592   -0.0977    0.0820   -0.0938   -0.1083    0.1087   -0.0022
    0.1019    0.0226   -0.0533   -0.0065    0.1356    0.2830   -0.0216    0.0228    0.0558   -0.1900
   -0.0039   -0.0244    0.0925    0.1464   -0.1296    0.0019    0.0694   -0.0126   -0.1085   -0.0711
    0.0007    0.1860    0.1232    0.1571    0.1281   -0.0698   -0.0510   -0.0343   -0.1779    0.1494
   -0.0438    0.0577    0.0192   -0.0947    0.0345    0.1068    0.0314   -0.1152   -0.1213   -0.1769
    0.1166    0.0513    0.0870   -0.1236    0.0209    0.0135    0.1844    0.0348   -0.2276   -0.0567
    0.0952    0.0676    0.0040   -0.0496    0.0509   -0.0553    0.0319   -0.0820    0.0223   -0.1891
    0.0007    0.0152    0.2224    0.0363   -0.0101   -0.0733   -0.0050   -0.1074    0.0560   -0.1001
   -0.0125    0.1620   -0.0781    0.2132   -0.1514   -0.0055   -0.1429    0.0288    0.0556    0.1454
   -0.0785    0.0696   -0.0181    0.0402   -0.1306   -0.1051    0.0570   -0.1574    0.0380   -0.1259
    0.1375    0.0649    0.1651    0.1202    0.0619    0.0048    0.0629   -0.1264   -0.0655   -0.1038
    0.1439    0.2515    0.0769   -0.0868   -0.1417   -0.2369   -0.1042    0.0044   -0.2006   -0.1319
   -0.2160    0.5216    0.0593   -0.1017    0.0689    0.5128    0.4640    0.3359    0.3075    0.1036
    0.0167   -0.2293   -0.6477   -0.3763   -0.3326   -0.0586    0.3856    0.1061    0.3918    0.3789
   -0.0073    0.0821   -0.2826   -0.1436   -0.3174    0.3175   -0.0253    0.0740    0.1540    0.1774
   -0.0196    0.0521    0.2992    0.1220    0.0059   -0.0214    0.1265    0.1214   -0.1354    0.1159
    0.1551   -0.2433   -0.1808   -0.0847   -0.1831   -0.0134   -0.0495   -0.1651   -0.1567    0.1063
   -0.1236   -0.0368   -0.2280   -0.0851    0.2762   -0.0632   -0.1375   -0.0045    0.0750   -0.2636
    0.0467   -0.1410    0.0120   -0.0645   -0.1686    0.0976    0.0661   -0.0427    0.0108    0.0257
   -0.0647    0.0417    0.0811    0.0513    0.0477   -0.3162   -0.2304   -0.0647    0.0519    0.1071
   -0.0820   -0.0003    0.1026    0.0072    0.1769   -0.2177   -0.0722   -0.0221    0.1477   -0.1843
   -0.0275   -0.2060   -0.0950    0.2073   -0.1228    0.0719    0.2443    0.0760    0.1101   -0.1219
   -0.1731    0.1678    0.1484    0.0295    0.1746   -0.0580    0.1236   -0.0073   -0.0278   -0.1100
   -0.1226   -0.0652   -0.1691   -0.0762    0.0805   -0.0108   -0.0370   -0.1686   -0.0421    0.0312
   -0.0261    0.0547    0.0239   -0.0260   -0.0192    0.0947    0.0014    0.1267    0.1276    0.0102
    0.0315   -0.0386    0.1019   -0.0980   -0.2535    0.1349    0.0335   -0.1770   -0.0860   -0.1340
    0.0764   -0.0679    0.0839    0.0558    0.0638   -0.0833    0.0824   -0.1035   -0.1688   -0.0294
   -0.0111    0.0961    0.0386   -0.1738   -0.0071    0.1278    0.0499    0.0587   -0.0464   -0.0357
    0.0469    0.0793    0.0304    0.1817   -0.0618    0.0039    0.0811   -0.0684    0.0116   -0.0989
    0.0375   -0.1693    0.0007    0.0448    0.1403   -0.1091   -0.0366   -0.0814    0.1208    0.0692
    0.0734   -0.0014   -0.0668    0.2827   -0.1190   -0.0727   -0.1535    0.0657   -0.0762    0.0182
    0.1134    0.0459   -0.0442   -0.0928    0.1101    0.0915    0.0934   -0.0435    0.0333   -0.1538
   -0.0587   -0.0912   -0.0217   -0.0237    0.0165   -0.1492    0.0000    0.0000    0.0000    0.0000
    0.0000    0.0000    0.0000    0.0000    0.0000
   -0.0548   -0.0341   -0.0688   -0.0020    0.0324   -0.0117   -0.0853   -0.0793    0.0253    0.0678
   -0.0717   -0.0804    0.0607    0.1147    0.0027    0.0838    0.0311    0.0406    0.0384   -0.0636
   -0.0202   -0.0910   -0.0370    0.0629   -0.0322   -0.2428    0.0458   -0.0671   -0.0542   -0.0207
   -0.0089    0.1914    0.0739   -0.0758    0.0256    0.0803   -0.0866   -0.0799    0.1080   -0.0267
   -0.1339    0.0087    0.0871   -0.0649   -0.1431   -0.1464   -0.0783   -0.0484   -0.0394    0.0347
    0.0698    0.0969    0.0240    0.0087    0.1012    0.0204   -0.0931   -0.0553   -0.1080    0.0397
    0.1152   -0.0050   -0.1324   -0.0487   -0.0102   -0.0097   -0.0806   -0.1426   -0.0474    0.0428
   -0.1338    0.0592    0.0816   -0.0472    0.0902    0.1795    0.2172    0.1494   -0.1213   -0.0564
   -0.2403   -0.0370    0.0075    0.0605    0.0712    0.0268   -0.1621   -0.0342   -0.0970   -0.0842
   -0.0540   -0.0141   -0.0287    0.1217   -0.0962   -0.0262   -0.0056   -0.0556   -0.0373    0.0046
    0.0545    0.0067   -0.0889    0.0414    0.0431   -0.0689    0.0257   -0.0610    0.0340   -0.0607
    0.0144    0.0331   -0.0481    0.0100    0.0347   -0.1355    0.0349   -0.0408   -0.1114    0.0061
    0.0203    0.0987   -0.0463    0.0481    0.0427   -0.1319    0.0443   -0.0513   -0.1380   -0.1631
    0.0392    0.0292    0.0210   -0.1116   -0.0771   -0.0825   -0.1310   -0.0499   -0.0076   -0.1001
    0.0109    0.2044    0.0461   -0.0868    0.2246    0.4479    0.4303    0.3958    0.2554    0.1175
    0.1920   -0.0367   -0.1120   -0.1298   -0.3198   -0.0743    0.2861   -0.0497    0.1432    0.0004
   -0.1650   -0.1983   -0.1714   -0.2529   -0.2732    0.6892    0.0143    0.0679   -0.0753    0.0683
   -0.0028    0.1641    0.1168    0.0577    0.0458    0.0462   -0.0079   -0.0325    0.0460   -0.1003
    0.0513   -0.2121   -0.0956   -0.1244   -0.0176   -0.0977   -0.0927   -0.1610    0.1474    0.1733
   -0.0381    0.0874    0.0369    0.0568    0.0726   -0.1849   -0.0926   -0.1258    0.1539   -0.2026
   -0.0214   -0.0696   -0.0740    0.0331   -0.0157    0.1243   -0.0289   -0.1886    0.0133   -0.0729
    0.0535   -0.1129    0.0265   -0.0353   -0.0105   -0.1050   -0.0858   -0.0252    0.2089   -0.0068
   -0.0260   -0.0176   -0.0064    0.0327    0.1794    0.0038   -0.0359   -0.2075    0.0361    0.0657
   -0.0147   -0.2509   -0.0919   -0.0201   -0.2084    0.0426    0.0272    0.0603   -0.0170   -0.1272
    0.0044   -0.0239   -0.0869    0.1158    0.1079   -0.1382    0.1205    0.1701   -0.1404    0.0571
   -0.1237   -0.1720   -0.0549    0.2281   -0.0702   -0.2065    0.0835   -0.0813   -0.1483   -0.0171
   -0.0027    0.1900   -0.1438    0.0283    0.2553   -0.0413   -0.0395    0.0214   -0.0677    0.0486
   -0.0352    0.0373    0.0863    0.0229    0.0424    0.0864    0.0356   -0.1273   -0.2022    0.0804
   -0.0638   -0.0192   -0.1075    0.0159    0.0665   -0.0965    0.0335   -0.0817   -0.1066    0.0446
   -0.0809    0.0064   -0.2276    0.0225    0.0028    0.0481   -0.0439    0.0656   -0.0273    0.0046
   -0.0551    0.0833   -0.1611   -0.1695   -0.1023   -0.0650   -0.0862   -0.1024   -0.0215   -0.1087
   -0.0821   -0.1129   -0.0587   -0.0926    0.1033    0.0271   -0.0123   -0.0594    0.2527    0.0383
   -0.0799    0.1324    0.0006    0.1195   -0.1571    0.1207    0.0188    0.0888    0.0728    0.1234
    0.1141    0.0795   -0.0064   -0.3162    0.0050   -0.0444    0.0057    0.0639   -0.1149   -0.0420
   -0.0388   -0.0106    0.0210   -0.0745   -0.0952   -0.4595    0.0000    0.0000    0.0000    0.0000
    0.0000    0.0000    0.0000    0.0000    0.0000
    0.1032   -0.0530   -0.0169   -0.0240   -0.0531    0.2283   -0.0360    0.0171    0.1944    0.2263
   -0.0428    0.0674   -0.1113    0.0598    0.0088    0.0425   -0.1152    0.0999    0.0434   -0.0801
   -0.1618   -0.1699   -0.1646    0.0786    0.0298   -0.1338    0.0319    0.1932    0.0827   -0.0396
   -0.0468    0.1568   -0.0800   -0.0171   -0.1654    0.0493    0.1160    0.1099    0.1812    0.0061
   -0.0547   -0.0730    0.2983   -0.2661   -0.2365   -0.1255   -0.0562    0.0633    0.1537   -0.0229
    0.0284    0.0565    0.0648   -0.0166    0.0548   -0.1479    0.0697    0.0641    0.1363   -0.0781
   -0.0129    0.0306   -0.0687   -0.0907   -0.0703    0.0354   -0.0484   -0.0702   -0.1070   -0.0201
   -0.1074   -0.1592    0.1661   -0.0804    0.1111    0.0880   -0.0671   -0.0806   -0.0113   -0.1021
   -0.0522    0.1801    0.1344    0.0750    0.1026   -0.0212    0.0938    0.2038    0.0128   -0.0689
   -0.0781   -0.2439    0.1152   -0.2553   -0.0695   -0.1229   -0.1889   -0.1232   -0.2433    0.1275
   -0.1657    0.0238   -0.2338    0.0297   -0.0039    0.1922    0.0550   -0.0643    0.1617   -0.0403
    0.0753    0.1008   -0.1221    0.0922    0.0274    0.0870    0.3004   -0.0942   -0.1407    0.0481
   -0.3771   -0.2746   -0.3295    0.0329   -0.1298   -0.1295   -0.2148    0.1557   -0.1060    0.3724
   -0.0489    0.1715   -0.0830    0.0703    0.1558    0.0982   -0.0138   -0.0269   -0.0024    0.0415
    1.0156   -0.4008    0.0672    0.1490   -0.0516   -0.1046   -0.2400   -0.0788   -0.0923   -0.1609
   -0.3318    0.4388    0.0505    0.1762    0.1071   -0.1648   -0.1845    0.0132   -0.0858    0.4363
   -0.1349    0.2216    0.2229    0.1037   -0.0270   -0.2529    0.0404    0.3710   -0.2814   -0.1017
   -0.1189   -0.0145   -0.2798   -0.2176   -0.2922    0.2851   -0.0465   -0.1032    0.1189    0.0253
   -0.0453    0.0599    0.0460   -0.0068    0.1368   -0.1411   -0.0567    0.0764    1.1386   -0.2831
    0.1790    0.4067   -0.1649   -0.1582   -0.3965   -0.2213   -0.2615   -0.0723   -0.0803    0.2621
   -0.2272    0.4011    0.1304    0.2488   -0.0007    0.0218    0.0953    0.0421    0.1186    0.0528
    0.2806   -0.0576    0.3957   -0.2099    0.2711    0.2521    0.1211   -0.1019   -0.0246    0.0124
   -0.2527   -0.0110    0.0499    0.0203    0.0893    0.2174   -0.0967   -0.0880   -0.1968   -0.0807
    0.0401    0.0725    0.0064    0.0607    0.0197    0.0175    0.0214   -0.0381   -0.0394    0.1376
   -0.0428    0.0733   -0.1321    0.0388   -0.0225    0.0063   -0.0647    0.0248   -0.0350    0.1453
   -0.0125    0.0155   -0.0405    0.0840    0.1866   -0.0449   -0.1223    0.1404    0.0364   -0.1427
   -0.0948   -0.2821    0.0492    0.0771    0.0297    0.0232   -0.0884   -0.0833   -0.1454   -0.0072
   -0.0734    0.0411   -0.0994    0.2202    0.0282   -0.1620    0.1614    0.1721    0.0403    0.0236
    0.0753   -0.0443   -0.0688    0.0960   -0.0256   -0.0935   -0.1203   -0.0083   -0.0009    0.0546
   -0.0713    0.0233    0.0758    0.1511    0.1278   -0.0656    0.0169    0.0235   -0.0001    0.2318
    0.1458    0.1698   -0.0171   -0.0820    0.0241   -0.2087   -0.1779    0.0598   -0.0354   -0.1911
   -0.2105    0.0651    0.3872    0.4871    0.3834    0.3615    0.6224    0.2229    0.4474    0.3626
    0.5120    0.6348    0.2398    0.5055    0.3769    0.4343    0.6997    0.2601    0.5097    0.3057
    0.4349    0.4062   -0.0917   -0.7139   -0.2160    0.0542   -0.1059   -0.0296   -0.0165   -0.0180
    0.0547    0.0428   -0.0713   -0.1474   -0.2377   -0.6792    0.0000    0.0000    0.0000    0.0000
    0.0000    0.0000    0.0000    0.0000    0.0000
    0.0248   -0.2669   -0.0062   -0.0202    0.0603    0.1001   -0.0349    0.0406   -0.0414    0.1520
   -0.1647   -0.1679    0.0068   -0.0912   -0.0847   -0.1880    0.0122   -0.0448   -0.0288   -0.1206
   -0.0340   -0.0628   -0.0094   -0.0447   -0.1515    0.0171    0.0477    0.0189    0.2074    0.0043
   -0.0980   -0.0771   -0.1338   -0.0607   -0.0834   -0.1681   -0.1081    0.0951   -0.0741   -0.1228
    0.0433   -0.1088    0.0782    0.0998   -0.1355    0.0897   -0.1481    0.0182   -0.1324   -0.1830
   -0.0406   -0.0213   -0.1379    0.1546    0.0875    0.0508   -0.0035    0.1488   -0.0945   -0.1257
   -0.0305    0.0098    0.0107   -0.1614   -0.1522   -0.1493    0.0896   -0.1285    0.0253    0.1892
   -0.1560   -0.0172   -0.0157   -0.0070   -0.0035    0.2154   -0.1277   -0.1715   -0.2068    0.0829
    0.0893    0.2322   -0.1107   -0.0792    0.0549   -0.0477   -0.0154   -0.1160    0.0088   -0.1095
    0.0866   -0.1765    0.2820    0.2596   -0.0143    0.0085   -0.0976   -0.0425   -0.2011    0.2089
   -0.0342    0.0013   -0.1782    0.0302   -0.1625    0.0243   -0.2833   -0.2100    0.0394   -0.0675
   -0.0780    0.1030    0.1461    0.3106    0.0222   -0.1786    0.2252    0.1476   -0.0280   -0.1150
   -0.4099   -0.4036   -0.2227    0.0110   -0.0581   -0.0942   -0.1141    0.0397   -0.0181    0.2090
   -0.0667    0.1582    0.1047   -0.0180   -0.0981   -0.0295   -0.1264   -0.1538   -0.1293   -0.0499
    0.7861   -0.1417   -0.0053    0.1075    0.4190    0.3844    0.3156    0.3079    0.5347    0.4511
    0.4304   -0.0431   -0.0354   -0.3462   -0.3311   -0.2720    0.6381   -0.0574   -0.2394   -0.3624
   -0.4206   -0.5613   -0.1148   -0.4463   -0.6670    1.1505    0.0636    0.2780   -0.2297   -0.2297
   -0.0722   -0.0219   -0.0553   -0.1444   -0.2779    0.0006   -0.0094    0.1245    0.0958   -0.1785
   -0.1982   -0.2266    0.0289    0.0762   -0.0895   -0.3102   -0.0456   -0.0247    0.9277   -0.1326
    0.1054    0.2817   -0.1205   -0.1308   -0.1725   -0.1521    0.0156    0.0380   -0.0395    0.0951
   -0.0446    0.0180   -0.2155   -0.0300   -0.0794   -0.1118   -0.2068   -0.0402    0.1093    0.1606
   -0.0272    0.1326    0.3794    0.1787    0.0526   -0.2469   -0.0160   -0.0766   -0.0814    0.0220
   -0.0794   -0.0627    0.0605    0.1786   -0.1941    0.0616   -0.0438    0.0021    0.1138   -0.1562
   -0.0263    0.0002   -0.2078    0.0503   -0.0279   -0.1484    0.1141    0.1238   -0.0980   -0.1309
    0.0785    0.0003    0.0254    0.0418   -0.0707   -0.0261   -0.0278   -0.1081    0.0706   -0.0226
   -0.2310   -0.0063    0.1425   -0.1222    0.0531   -0.2687    0.1042   -0.0271    0.1027   -0.0249
   -0.0978   -0.0145    0.0153    0.0104   -0.1049   -0.0688    0.0073    0.0173   -0.0454    0.0377
   -0.1591    0.0928   -0.1516    0.1072   -0.0561   -0.0554    0.1010    0.0052    0.0726   -0.1514
    0.1155    0.0702    0.0037   -0.0273   -0.0725    0.0487   -0.1049   -0.0288   -0.2879   -0.0277
   -0.0913   -0.2632   -0.0030   -0.0999    0.0037   -0.0260   -0.1402   -0.0493   -0.1516   -0.0287
   -0.0881   -0.0735    0.0883   -0.1027   -0.0642   -0.1778   -0.0030    0.0979    0.1106   -0.0065
   -0.1166   -0.0051   -0.2542   -0.0732    0.0137   -0.0512   -0.1440    0.0821    0.0831   -0.1762
    0.0982   -0.0145   -0.1190   -0.0274   -0.0037   -0.0582    0.0055    0.1174   -0.1324   -0.0579
   -0.0383   -0.2283    0.0152   -0.5519    0.1975    0.1763   -0.1113    0.2192    0.2267   -0.0312
    0.1429   -0.0361    0.0218    0.0781   -0.0740   -0.7776    0.0000    0.0000    0.0000    0.0000
    0.0000    0.0000    0.0000    0.0000    0.0000
    0.0741    0.1297    0.1745   -0.1888   -0.0155   -0.0676   -0.0454    0.0089   -0.0729    0.0488
   -0.0006    0.1619   -0.0126    0.1237    0.1120   -0.0697    0.1212   -0.0066    0.0121    0.1202
    0.0455   -0.0158    0.1207   -0.0261   -0.0172    0.0350    0.1398    0.1440    0.1626   -0.0109
    0.0868    0.1159   -0.1362    0.0916    0.0539    0.2053   -0.0769   -0.1064   -0.0374   -0.0845
    0.1697   -0.0999    0.0640    0.0988   -0.0933   -0.2082    0.0640    0.0104    0.1267   -0.1521
   -0.1420    0.1826   -0.0490    0.0700    0.1373   -0.0925   -0.0729   -0.0848    0.1918    0.1871
   -0.0492    0.1089   -0.0844    0.1027    0.0141   -0.1316    0.0839   -0.0642   -0.0164   -0.0261
    0.0283    0.0459    0.2254   -0.1572   -0.0082    0.0237    0.2142    0.1134   -0.1845   -0.0870
   -0.1415    0.1601    0.0830    0.0253   -0.0107    0.0497    0.0422    0.0747   -0.1016    0.1441
   -0.0177    0.0033    0.1581    0.0534    0.0752    0.0343    0.1844    0.0657    0.0299    0.0148
   -0.0181    0.1600   -0.1329    0.0829   -0.0243   -0.0144   -0.0961   -0.0639    0.1318    0.0680
   -0.1795    0.0175    0.0993    0.1106   -0.0074   -0.0094    0.0707   -0.2384   -0.0479   -0.1366
    0.0543    0.1706    0.0786    0.2138    0.0624    0.1000    0.1238    0.0088    0.0528    0.0753
   -0.0242    0.2490   -0.0942   -0.0760   -0.2133   -0.1596   -0.1107    0.0085   -0.1421   -0.2023
    0.3138    0.0493    0.0513   -0.0510    0.3971    0.4739    0.3789    0.2849    0.1824   -0.0272
   -0.0829    0.2711    0.0522   -0.1529   -0.0343   -0.0600    0.3303   -0.1171   -0.2929    0.1755
   -0.1842   -0.1318   -0.1951   -0.1670   -0.1840    0.0164    0.0738    0.0562    0.1122    0.1059
   -0.1297    0.1168    0.1657    0.0159   -0.0839    0.2012    0.0945   -0.0734    0.0088   -0.0239
    0.0736   -0.0236    0.1007    0.0439   -0.2274   -0.1139   -0.0643   -0.1684    0.4668    0.0332
    0.1053    0.0125    0.1094    0.0982    0.1528    0.0820   -0.3094   -0.0794   -0.1292   -0.1919
   -0.0235   -0.0192    0.0858    0.0467    0.0939    0.0786   -0.0637    0.0491    0.1251   -0.0512
    0.0935    0.1096    0.2140    0.0208    0.1160   -0.1838   -0.0343   -0.2022    0.1683    0.0452
    0.0535   -0.0616    0.1564   -0.1513    0.0930   -0.0411   -0.0535    0.0150    0.0795   -0.0393
   -0.0223   -0.1522   -0.0620    0.1516   -0.0129    0.0792    0.0575   -0.1977    0.0196   -0.0961
    0.0322    0.1540    0.1743    0.1805    0.0563    0.0315    0.0952   -0.0665    0.0264    0.1765
   -0.0302    0.0964    0.0349    0.0240   -0.0705   -0.0520    0.0071   -0.0977   -0.0164   -0.0183
   -0.0923   -0.1748    0.0345    0.0360    0.0469   -0.2416   -0.0643    0.0047    0.0817   -0.0020
   -0.0511   -0.0929    0.0601   -0.1196    0.0342    0.0129   -0.0143   -0.0041    0.0035   -0.0429
    0.0724   -0.1201    0.2277   -0.0256    0.1679   -0.0471    0.0491    0.0336   -0.1422   -0.0187
   -0.2081    0.1399   -0.1754   -0.0485   -0.0287    0.1093    0.0845    0.0427    0.1320    0.0479
    0.0782   -0.0929   -0.1165    0.1044    0.0134    0.0815   -0.1184    0.0415    0.1300   -0.2537
    0.0516   -0.0404    0.9818    0.7134    0.8472    0.0009    0.3858   -0.0065    0.2937    0.8467
    0.8548    0.7093    1.0461    0.8564    0.0547   -0.0750    0.5401    0.7125    0.3847    0.7737
    0.6203    0.9144    0.0378   -0.5290   -0.0277   -0.0901    0.1247    0.0303    0.0534    0.0880
    0.2107    0.0728    0.1013    0.0216    0.1387   -0.6063    0.0000    0.0000    0.0000    0.0000
    0.0000    0.0000    0.0000    0.0000    0.0000
 ***                         junction second layer: row=numhid+ (10F10.4)
    0.6667   -1.0097   -1.2493   -0.9107   -0.3877   -0.7488    0.4347    0.4234    1.0883   -0.2563
    2.2497   -0.3415   -0.6345   -0.9433   -1.4090   -1.3550   -1.9088   -1.9411    0.5469    1.5558
   -0.2830   -1.3855   -0.2541   -0.9873   -0.0889    0.8382   -0.2087    1.4261   -0.6732    1.2411
    0.3992    0.3283    0.1959    0.1414   -0.2003   -0.1177   -0.0273    0.3492   -1.2361   -3.0307
   -2.7332   -0.8773   -0.6966   -1.1904   -0.6635   -0.6358    0.8891    0.7574    0.9734    0.8116
   -0.3694    0.9143    0.8818   -1.0896   -0.5790   -1.6979   -1.5234   -1.3634   -0.8704    0.4813
   -0.5863    1.0434   -0.2450    0.3267   -0.0310    0.3286   -0.9768    0.9007    1.0943    2.3800
   -2.8719   -1.6579   -0.5578   -0.0891    0.6251    1.0529    1.0925    0.1418    1.1003    0.6722
   -2.2839   -1.4082   -1.4784   -1.7736   -1.8590   -1.8146   -1.2693    0.4061    1.3211    2.1964
   -0.0513   -0.6598    0.0086    0.3242    0.9033   -0.5271   -1.6561   -0.6483   -0.7466   -1.4133
   -0.3631    0.2098   -0.5557   -0.4698   -0.6519   -0.0902    0.2967   -0.9422   -1.2553   -0.8585
   -0.0810    0.1731   -0.2937   -0.3393   -0.9887    0.1854   -0.8104   -0.9136   -0.5814    0.1151
   -0.5716   -0.0494    0.0006    0.1753   -0.7316   -0.2720   -0.8218   -0.6427    0.7418    2.8721
   -0.2498   -0.6500    0.0506    0.2855   -0.6131   -1.2592   -0.8657   -1.8978   -1.1442    1.4327
    0.1911    0.1844   -0.9081   -0.3981   -0.4722   -0.2780   -0.0988   -0.5231   -1.3210    0.5450
   -0.2122   -0.6629   -0.7779   -0.4810   -0.5217   -0.5140   -0.4280   -0.8397   -1.0950   -3.1863
    0.0000    0.0000    0.0000    0.0000    0.0000    0.0000    0.0000    0.0000    0.0000    0.0000
    0.0000    0.0000    0.0000    0.0000    0.0000    0.0000    0.0000    0.0000    0.0000    0.0000
    0.0000    0.0000    0.0000    0.0000    0.0000    0.0000    0.0000    0.0000    0.0000    0.0000
    0.0000    0.0000    0.0000    0.0000    0.0000    0.0000    0.0000    0.0000    0.0000    0.0000
    0.0000    0.0000    0.0000    0.0000    0.0000    0.0000    0.0000    0.0000    0.0000    0.0000
    0.0000    0.0000    0.0000    0.0000    0.0000    0.0000    0.0000    0.0000    0.0000    0.0000
    0.0000    0.0000    0.0000    0.0000    0.0000    0.0000    0.0000    0.0000    0.0000    0.0000
    0.0000    0.0000    0.0000    0.0000    0.0000    0.0000    0.0000    0.0000    0.0000    0.0000
    0.0000    0.0000    0.0000    0.0000    0.0000    0.0000    0.0000    0.0000    0.0000    0.0000
END
