********************************************************************************
***                                                                          ***
*** Secondary Structure Prediction by a Layered Network                      ***
*** ~~~~~~~~~~~~~~~~~~~~~~~~~~~~~~~~~~~~~~~~~~~~~~~~~~~                      ***
***                                                                          ***
*** Burkhard Rost, EMBL, Heidelberg, FRG                                     ***
*** (Internet: rost@EMBL-Heidelberg.DE)                                      ***
*** file containing the architecture in PHD format                           ***
*** Sat Apr 23 06:50:07 1994                                                 ***
***                                                                          ***
*** cryptic:     Exp317x-15rcicld-A                                          ***
***                                                                          ***
********************************************************************************
***                                                                          ***
 prediction type:   EXPOSURE                      
 network type:      FIRST 

 input type:        P-REAL-CICLD
 NUMIN:                345
 NUMHID:                15
 NUMOUT:                10
 NCODEUNT:              24
 NUMNEIGH:               6
 *****
 *****
   number of layers: 2       junction first layer: row=numhid (10F10.4)
   -0.0011    0.0137    0.0331    0.0081    0.0190    0.0221   -0.0644    0.1190    0.0647   -0.0059
   -0.0298    0.1176    0.0513    0.0453    0.1040    0.0858    0.0451    0.0039   -0.0489    0.0318
    0.0661    0.3626   -0.0656   -0.0693   -0.0115    0.0944   -0.0436    0.0763   -0.0347   -0.0814
   -0.0070   -0.0553    0.0188   -0.0077    0.0973    0.0796    0.0160    0.0295    0.0074    0.1116
    0.0361    0.0344    0.0344    0.1385    0.0702    0.3235    0.0081    0.0975   -0.0188    0.0678
   -0.0281    0.0357   -0.0392   -0.0326    0.0916    0.0208    0.1322   -0.0045    0.0954   -0.0209
   -0.0070   -0.0311    0.0556    0.0733    0.0087    0.0964    0.1076    0.1791    0.0029    0.2158
    0.0368   -0.0882    0.0727    0.0567   -0.0116    0.0155    0.0751    0.0906   -0.0160    0.0759
    0.1509    0.0499   -0.0330   -0.0439    0.1060    0.0407    0.0470    0.1194    0.0122   -0.0040
    0.1308   -0.0074    0.0068    0.2535   -0.0556    0.0517   -0.0025    0.1046    0.0368    0.1074
    0.0128    0.0749   -0.0166    0.0333    0.1014   -0.0273    0.0663    0.1149    0.0496   -0.0289
    0.0770    0.0624   -0.0184    0.0997    0.0807    0.1062    0.1314    0.3795   -0.0319   -0.0538
   -0.0083    0.0601    0.0955    0.0310    0.0572    0.0292    0.0687    0.0685    0.0502    0.0052
    0.0192   -0.0423    0.0806   -0.0199    0.0081    0.0661    0.0532    0.0072    0.0858   -0.0304
   -0.0154    0.2516    0.0535    0.0261    0.1672    0.0933    0.0739   -0.0162   -0.0190    0.0557
   -0.0501    0.0551    0.1444   -0.0062   -0.0132    0.0194    0.0548    0.0902   -0.0557    0.1431
    0.0654    0.0931    0.0038    0.0947    0.0756    0.2685    0.0812    0.0380    0.1169    0.1468
    0.0526    0.0193    0.0203   -0.0865    0.1295    0.0622    0.1365   -0.0540    0.0232    0.1470
    0.0682    0.0784    0.0204    0.0928    0.0672    0.1325    0.0925    0.0385    0.0170    0.1613
   -0.0093    0.0162    0.0131    0.1202    0.0527   -0.0023   -0.0219    0.0054   -0.0345    0.0196
    0.0862    0.0142   -0.0464   -0.0233   -0.0325    0.0921    0.0141   -0.0210   -0.0039    0.0350
   -0.0379   -0.0356   -0.0061    0.3262    0.0871    0.0435    0.0463   -0.0295    0.0753   -0.0528
    0.0988    0.0363    0.0381    0.0277   -0.0477    0.0130    0.1260    0.0109   -0.0609   -0.0191
   -0.0315    0.0572    0.0559    0.1451   -0.0224   -0.0011    0.1733    0.2450   -0.0274    0.0346
   -0.0293    0.1106   -0.0240    0.0154    0.0638   -0.0119    0.0529    0.0393    0.0507    0.0774
    0.0620    0.0338    0.0736   -0.0494    0.0353    0.0464   -0.0619   -0.0068    0.0628   -0.0131
    0.1486    0.2883    0.0076    0.0485    0.0891   -0.0230   -0.0092   -0.0404   -0.0097   -0.0040
   -0.0006    0.0238    0.1200   -0.0530    0.0585    0.0561    0.0221   -0.0567    0.1282   -0.0025
    0.0270    0.0685    0.0066    0.1367   -0.0055    0.2552   -0.0495    0.0970    0.1312   -0.0058
    0.0129    0.0857    0.0869    0.0143   -0.0020   -0.0262    0.0466   -0.0780   -0.0507    0.0066
   -0.0908    0.0840    0.0868   -0.0242    0.0082   -0.0171    0.0556   -0.0055    0.0741    0.3698
    0.0220    0.0676   -0.0658    0.1094   -0.0160   -0.0552   -0.0898   -0.0205   -0.0615    0.0371
    0.0234   -0.0600    0.0205    0.0878    0.0428    0.0322   -0.0892    0.0670    0.0895    0.0384
   -0.0759    0.0797   -0.0610    0.9191    0.6277    0.4416    0.2382    0.0052    0.2040    0.1871
    0.3067    0.1441    0.1410    0.1930    0.2021    1.0177    0.0000    0.0000    0.0000    0.0000
    0.0000    0.0000    0.0000    0.0000    0.0000
    0.1044    0.0246    0.0271    0.1164   -0.1979   -0.1717   -0.0335    0.1579    0.2542    0.0042
    0.1561   -0.0619   -0.1277   -0.1103    0.3700    0.1144   -0.0356   -0.0246    0.0203   -0.1513
   -0.0559   -0.1173    0.2427    0.3691   -0.2578   -0.1162    0.1509   -0.0728    0.0325    0.0997
    0.0505    0.0664    0.1316    0.0607    0.1546   -0.0735    0.0675   -0.1635    0.1064    0.2554
   -0.0147    0.2417    0.1987    0.1572   -0.1397   -0.2147   -0.0193    0.2735    0.1743    0.0796
    0.0246    0.0189    0.0042    0.2073    0.0473   -0.0657    0.1147    0.0536   -0.0041    0.0402
    0.0654   -0.0831   -0.0786   -0.0470   -0.0900   -0.0961    0.1091    0.1271   -0.1390    0.3651
    0.0336    0.3431    0.1638    0.0907   -0.0722    0.2878   -0.1370    0.2644    0.3248   -0.1019
    0.2692   -0.1831    0.1505    0.1181    0.0258   -0.2855    0.1998    0.1071   -0.1955    0.1141
   -0.0308   -0.2302   -0.6367   -0.2662    0.1136    0.4321    0.3123    0.2409    0.2099   -0.0005
    0.1502   -0.1565    0.3294   -0.3761    0.1129   -0.1113   -0.2054    0.0471    0.2202   -0.1114
    0.0170    0.0403   -0.0522    0.0956    0.1083    0.1579   -0.5668    0.0852    0.0158    0.3257
   -0.0272    0.3466    0.1690    0.0804    0.1377    0.1775    0.4493   -0.2604    0.0800   -0.2891
    0.0264    0.1372    0.0427    0.1111   -0.2482    0.1348   -0.1840    0.2580   -0.2543    0.1162
    0.1289   -0.2587   -0.1672    0.2409    0.5706    0.7910    0.6911    0.6497    0.5361    0.2874
   -0.1756    0.8608    1.0981    0.1539    0.7301    0.4177    0.4752   -0.2534   -1.4287   -1.3796
   -0.6568   -0.8091    0.0507   -0.1165   -0.6927    0.1550   -0.2054    0.1492    0.3050    0.2718
    0.2042    0.1516   -0.0519   -0.0491    0.3108   -0.1506    0.2518   -0.8410    0.0116   -0.0994
    0.2197    0.1809    0.2019    0.4125    0.3298   -0.0962   -0.4062   -0.3856   -0.2225   -0.3510
   -0.0015    0.0443    0.0832    0.0260    0.4669   -0.0161    0.0356   -0.0156    0.0372   -0.0971
    0.0106   -0.1850    0.2723   -0.0878    0.1463    0.1405    0.0559    0.1386   -0.0198    0.0455
    0.1010   -0.0938   -0.4643   -0.1047    0.0733    0.0589    0.1408    0.3464    0.4188    0.3198
    0.1751    0.1176    0.1700   -0.2660    0.1064   -0.0410    0.0811    0.1092   -0.0006    0.3249
    0.2414   -0.1906   -0.2972   -0.0919    0.0817   -0.1594   -0.6738    0.0926   -0.0144   -0.0461
    0.0550    0.3525    0.3591    0.1159    0.0245   -0.0243    0.0738    0.0782    0.3603    0.0777
   -0.0309   -0.1121    0.2556   -0.1440   -0.2503   -0.0501   -0.0890   -0.0272    0.1279    0.0808
   -0.4965    0.4130   -0.1332    0.0489   -0.0484    0.0903   -0.0763   -0.0381    0.1098   -0.1049
   -0.0655   -0.0778    0.1515    0.0179    0.0669   -0.1590   -0.0017    0.1833    0.1379    0.0450
    0.0120   -0.0151    0.0195    0.1317   -0.2570   -0.2883   -0.0396    0.4161    0.1044   -0.3849
    0.0797   -0.1108   -0.0927    0.0195   -0.2600    0.2788    0.1233   -0.1940    0.0339    0.0380
    0.0209    0.0804    0.2731    0.1927    0.1126    0.0865   -0.0914    0.2212   -0.0876   -0.3501
    0.0371    0.1496    1.8444    1.1908    2.4039    1.3327    1.9746    0.7783    2.3806    1.8337
    1.7634    2.2200    2.9118    2.0430    0.2147    1.6412    2.1303    2.3323    2.9637    2.2401
    2.8146    1.9102    0.0793   -2.0489    0.2740    0.0181   -0.6502    0.1707   -0.3455   -0.2063
   -0.0914   -0.0895   -0.0519    0.0188    0.0585   -3.3446    0.0000    0.0000    0.0000    0.0000
    0.0000    0.0000    0.0000    0.0000    0.0000
   -0.1980   -0.0778   -0.0921   -0.0390   -0.1357   -0.0249   -0.1136   -0.1360   -0.1858   -0.1444
   -0.1251    0.1637   -0.0844    0.1386   -0.3241    0.2249    0.0380    0.0393    0.1757    0.0255
    0.0130   -0.2066   -0.0282    0.0392   -0.0682   -0.1166   -0.1644    0.1047   -0.0219   -0.0530
   -0.0347    0.1065   -0.2589    0.0181   -0.1853   -0.0128    0.0019    0.2130   -0.1703   -0.0312
   -0.0755    0.0592   -0.0232   -0.1596   -0.0164   -0.4861   -0.0818   -0.0378    0.0474    0.0491
   -0.0641   -0.0860   -0.0388   -0.2031    0.0028    0.0371    0.2572   -0.2849    0.1707    0.0623
    0.0517   -0.0528    0.2866    0.0027   -0.1900   -0.0825    0.2284   -0.1065   -0.1465   -0.1571
   -0.1400    0.2903    0.1780   -0.3015    0.0952    0.1885   -0.0277   -0.0689    0.0257   -0.0930
   -0.1155   -0.1071   -0.2934    0.1002    0.1356   -0.0276   -0.0049   -0.0249   -0.1468    0.0343
   -0.1084   -0.0429   -0.4885   -0.2101   -0.0760   -0.0587    0.1808   -0.1186    0.2411   -0.0065
   -0.0053    0.0085   -0.0977   -0.2304    0.1634   -0.1756   -0.0808   -0.0629    0.2217   -0.0834
   -0.1556   -0.0526   -0.0596   -0.3634   -0.3417   -0.0421   -0.2631    0.0419   -0.1983   -0.0223
    0.4343    0.0875    0.2291   -0.1338    0.1928    0.0981   -0.1804   -0.1724    0.2158   -0.4044
   -0.1673   -0.0565    0.0079   -0.2932    0.1008   -0.2102   -0.0155   -0.0502   -0.3227   -0.2869
   -0.0051    0.1159   -0.0704    0.0151    0.3894   -0.1841    0.2610   -0.5564   -0.7282   -0.6878
   -0.7195    0.2354    0.4428    0.1071    0.3035    0.1388   -0.3168   -0.7231   -0.5702   -0.4150
   -0.0219   -0.1653   -0.0303    0.0812    1.3649   -0.7709   -0.1070   -0.1166    0.1369    0.0925
   -0.0194   -0.0113    0.1329   -0.2136    0.0646   -0.0331   -0.1832   -0.3933   -0.1487   -0.2382
    0.1052    0.0436    0.0936   -0.2649   -0.0815   -0.0766   -0.2242    0.0024    0.0061    0.1530
   -0.0009   -0.1216    0.0886    0.0411   -0.0521    0.2995   -0.1993   -0.1566   -0.2230    0.0380
    0.1745   -0.1878   -0.1593    0.1133    0.0769    0.0053   -0.0855   -0.1432   -0.0864    0.0175
   -0.1312   -0.0222   -0.3268    0.2171   -0.2784    0.1122   -0.0496    0.0767    0.1201   -0.0846
   -0.1029    0.0777   -0.3434   -0.0026    0.1807   -0.1878    0.0893   -0.1455    0.0074   -0.0544
   -0.2320   -0.3423   -0.0797    0.0746   -0.0730   -0.0361   -0.1612   -0.2516    0.0813   -0.0822
    0.1072    0.0746   -0.1805   -0.0831   -0.0315    0.0417    0.2194    0.1190   -0.1272   -0.2944
    0.1661    0.2196    0.2746    0.0396   -0.1597   -0.2850   -0.1229   -0.2566   -0.1717   -0.2322
   -0.3062    0.3230    0.0384    0.0744    0.1161   -0.0529   -0.0034    0.0544   -0.3410   -0.2438
   -0.3108    0.0508    0.0162   -0.1515    0.0027    0.0126   -0.0104   -0.0483    0.0016   -0.2230
   -0.0627   -0.0428    0.0385   -0.0170    0.0568   -0.2299    0.1004    0.1428   -0.2601    0.2210
   -0.0316    0.1735   -0.2256   -0.1864    0.0112   -0.1709   -0.1119   -0.1750    0.0224   -0.0926
    0.1562   -0.0289   -0.1320   -0.0867    0.2148   -0.0241    0.0289   -0.0534   -0.1053   -0.1584
   -0.0568    0.0749    0.6854    0.2153    0.6571   -0.1427    0.4952   -0.0678    0.2869    0.6458
    0.4084    0.3420    1.1462    0.5423    0.1395   -0.0556    0.7545    0.4321    0.5998    0.3413
    0.5526    0.7142    0.0447   -0.9183   -0.1824    0.2553    0.4134   -0.2178    0.0378    0.0501
   -0.0793    0.0420   -0.0460   -0.0466   -0.1346   -1.0220    0.0000    0.0000    0.0000    0.0000
    0.0000    0.0000    0.0000    0.0000    0.0000
   -0.2158    0.0162    0.1324    0.0874   -0.1146   -0.1097    0.1104    0.0371   -0.2888    0.0108
    0.1891    0.1108   -0.0474    0.1054   -0.0607    0.0411   -0.0662    0.0443    0.2332    0.2176
    0.3060    0.4275    0.0746    0.0167   -0.0758    0.0318   -0.0792    0.0923    0.0153   -0.0708
    0.1418   -0.1201    0.2241    0.1904    0.0334    0.0944   -0.0978    0.0242   -0.0441    0.1309
    0.1193    0.0726   -0.0653    0.4756    0.2225    0.3342    0.0632    0.0703    0.0738   -0.1852
    0.1994    0.0543    0.0242   -0.0068    0.1942    0.1197   -0.1102   -0.2082   -0.0571    0.1638
    0.0681    0.0118    0.0844    0.2556    0.1012    0.1527    0.0549    0.0594    0.2292    0.7265
    0.1689    0.0294   -0.0985   -0.1152    0.0814    0.1384   -0.0061    0.0108    0.0471    0.1359
   -0.0432   -0.1488    0.1510   -0.1791    0.1757    0.0135   -0.1252   -0.1236   -0.1100    0.2814
    0.1684    0.2942    0.1423    0.3216    0.0710   -0.1837    0.1547    0.0013    0.1287   -0.0470
    0.0855    0.0290    0.0429   -0.0297    0.0287   -0.0445    0.0491    0.2920   -0.0598    0.1535
    0.0766   -0.0512    0.1382    0.1762   -0.2691   -0.1013   -0.1120    0.2690    0.0687   -0.4277
    0.4523    0.2602    0.3689    0.0880    0.2827    0.1664    0.1823    0.2173    0.3165   -0.2713
    0.1114   -0.1167    0.1314    0.0737   -0.0618   -0.4786    0.0684   -0.0712    0.0139    0.0066
   -0.7629    0.6687    0.1632   -0.2229    0.5465    0.7373    0.6715    0.1916    0.4095    0.1275
    0.2124   -0.8816   -0.2346   -0.3734   -0.3735   -0.0734    0.2576   -0.1082    0.1736    0.5756
    0.0695    0.0465   -0.3696   -0.3644    0.3816    1.2979    0.1355   -0.0580    0.3920    0.2963
    0.3081   -0.0563    0.2049    0.0516    0.1271   -0.1971   -0.0819    0.2220    0.0262   -0.0401
    0.2374   -0.0532   -0.0151   -0.0792   -0.0965    0.1351    0.0689   -0.1755   -0.5091    0.6686
    0.1261   -0.1769    0.2507    0.3392    0.2428    0.1200   -0.0972   -0.0760   -0.0015   -0.4997
    0.4288   -0.4040    0.0548    0.1599   -0.0136    0.0720    0.0035    0.0844   -0.0207    0.1745
    0.1120    0.0774    0.0766    0.3617    0.0697   -0.1227   -0.2042    0.1018    0.0861    0.0265
    0.1166    0.0636   -0.1266    0.1714    0.0826   -0.1650   -0.0269   -0.1195    0.0665    0.1481
   -0.1434    0.3463    0.2377    0.0323    0.1337    0.1193    0.1450    0.3827    0.2384    0.0841
    0.0210   -0.1602    0.1037    0.0705    0.0114    0.1057    0.1329    0.1182    0.2858   -0.2806
    0.2713    0.1177   -0.2109    0.0510    0.0883    0.1468    0.1472   -0.0855    0.1436    0.1212
    0.1209    0.1522    0.0549   -0.1096   -0.0047   -0.0022    0.0684    0.0568   -0.0515    0.0790
    0.1548   -0.0027    0.2253   -0.1953    0.1798    0.1055   -0.1729    0.0539   -0.1763    0.1762
    0.1258    0.0868    0.3662    0.0945    0.1693    0.3110    0.0705   -0.0581   -0.1005    0.3019
    0.0061    0.1761    0.0202   -0.0889    0.1058    0.1877    0.0619    0.0200    0.2134    0.0380
   -0.3158    0.1683    0.0028    0.2363    0.0107    0.2682    0.1408   -0.1819    0.2602    0.3846
    0.2331    0.0004   -0.3103   -0.1016   -0.5285   -0.1693   -0.2816    0.0164   -0.1466    0.0602
    0.0153   -0.3574   -0.1912   -0.2374   -0.2153   -0.0202   -0.5073   -0.2751   -0.4542   -0.3372
   -0.3497   -0.3293   -0.0031    0.1350   -0.4316   -0.3306    0.1255    0.1672    0.2359    0.2390
    0.0673    0.1150    0.1206   -0.0351    0.1489    0.1482    0.0000    0.0000    0.0000    0.0000
    0.0000    0.0000    0.0000    0.0000    0.0000
   -0.1582   -0.0434   -0.0309   -0.0496   -0.0737   -0.0574   -0.1500   -0.1582   -0.1234   -0.0577
   -0.0408   -0.1256   -0.0833   -0.0665   -0.0277   -0.1063   -0.0523   -0.0737   -0.0346   -0.0045
   -0.2803   -0.3059   -0.0854   -0.2075   -0.2002   -0.0995   -0.1463   -0.1130    0.0127    0.0508
   -0.1336   -0.2212   -0.0273   -0.1062   -0.1247   -0.1338   -0.1640    0.0236   -0.0242    0.0282
   -0.1695   -0.0880   -0.1464   -0.0959   -0.0271   -0.3168   -0.0310   -0.1850   -0.1531   -0.1731
   -0.0995   -0.0958   -0.0761   -0.0160   -0.1973   -0.1193   -0.0981    0.1318   -0.2201   -0.1808
   -0.1551   -0.1281    0.0020    0.0070   -0.0137   -0.1012   -0.1210   -0.0671   -0.0299   -0.4061
   -0.1244   -0.1542   -0.1073   -0.1548   -0.1137   -0.1691    0.0416   -0.2003   -0.0896   -0.0808
   -0.1615    0.0725   -0.0877   -0.1600   -0.1255   -0.0751   -0.0401   -0.0368    0.0272   -0.0275
   -0.0795   -0.0223    0.0322   -0.4682   -0.1155   -0.0473   -0.1560   -0.2185   -0.1483   -0.0071
   -0.0916    0.0249   -0.1306   -0.1298   -0.0962    0.0036   -0.0646    0.0571   -0.0317   -0.0654
   -0.0734   -0.1328   -0.1204   -0.0832    0.0539   -0.0460    0.0624   -0.2823   -0.0696    0.0543
   -0.1925   -0.1062   -0.2964   -0.1766   -0.0632   -0.1780   -0.2579   -0.0899   -0.1813    0.0591
   -0.1063   -0.1070   -0.0460   -0.1046    0.0458    0.0003   -0.0009   -0.1141    0.0635    0.0224
    0.1089   -0.4744   -0.0036    0.1157   -0.4507   -0.3269   -0.5655   -0.4214   -0.4137   -0.2246
   -0.3532   -0.0479   -0.4472    0.1905   -0.1413   -0.1299   -0.6955    0.0322    0.1931    0.5151
    0.1346    0.4405    0.2942    0.3626    0.1695   -1.2971   -0.0199    0.0513   -0.2618   -0.2791
   -0.1488   -0.1638   -0.0420   -0.0003   -0.0569    0.0237   -0.1686   -0.0149   -0.0662   -0.0446
   -0.2030   -0.0880   -0.0684   -0.0384   -0.0889    0.0735   -0.0320    0.1162    0.1442   -0.5037
   -0.0609   -0.0099   -0.2552   -0.0809   -0.0542   -0.1640    0.0771   -0.1053   -0.0887   -0.0928
   -0.0766    0.0317   -0.1957   -0.0591   -0.2021   -0.0826   -0.1001   -0.1053   -0.1534   -0.1714
   -0.0983   -0.1100    0.0110   -0.4035   -0.1331   -0.0033   -0.0501   -0.0593   -0.1367   -0.1006
   -0.1426   -0.0820   -0.1589   -0.1294   -0.2022    0.0610   -0.1115   -0.2026   -0.0387   -0.1669
   -0.0372    0.1241   -0.0102   -0.0622   -0.0977    0.0773   -0.0617   -0.5252   -0.1194    0.0147
   -0.1665   -0.1012   -0.1586   -0.1274   -0.1517   -0.0948   -0.0982   -0.1848   -0.2149   -0.0432
   -0.1579   -0.0535   -0.1641   -0.1226   -0.0785    0.0074    0.0498    0.0549   -0.0038   -0.0320
    0.0478   -0.5518   -0.0258    0.0763   -0.0295    0.0023    0.0754   -0.0075    0.0128   -0.0277
   -0.0064   -0.1501   -0.0742    0.1487   -0.1601   -0.0559   -0.0336   -0.1240   -0.2375   -0.0753
   -0.1453   -0.0387   -0.1780   -0.0327   -0.1469   -0.3427   -0.0233   -0.1017   -0.0278   -0.0375
    0.0801    0.0141   -0.0020   -0.0393   -0.0808   -0.1198   -0.2152    0.0644   -0.1490   -0.1634
   -0.0327    0.0327   -0.0479   -0.0647   -0.0961   -0.0097   -0.1536   -0.0563   -0.1576   -0.3091
   -0.0872   -0.0016   -0.9866   -0.8033   -1.2119   -0.3042   -0.8238   -0.0992   -0.9267   -0.9848
   -0.9316   -1.0405   -1.3556   -1.1823   -0.1296   -0.4406   -0.9459   -1.1509   -0.9788   -1.1503
   -1.1308   -1.1903   -0.0816   -0.4545   -0.5622   -0.5165   -0.2156   -0.1634   -0.2103   -0.3561
   -0.3502   -0.0578   -0.2828   -0.3065   -0.3568   -0.1800    0.0000    0.0000    0.0000    0.0000
    0.0000    0.0000    0.0000    0.0000    0.0000
   -0.0353   -0.0666   -0.0054    0.0972    0.0502    0.0061    0.0217   -0.0344   -0.0660    0.1343
    0.0035   -0.0836    0.0532   -0.1128    0.0657    0.1724    0.2269    0.0468    0.0314   -0.0200
   -0.0930   -0.0126   -0.0112    0.0470    0.0264   -0.0721    0.0850   -0.0102   -0.0694    0.1445
   -0.0417    0.2226    0.1196   -0.0793   -0.0657    0.0298    0.2067    0.1302    0.1994    0.1119
   -0.0280    0.2029    0.2073   -0.1526   -0.1906   -0.0873   -0.0784    0.0316    0.0351    0.1701
   -0.0093   -0.0079    0.0280    0.1116    0.0019    0.0449    0.1384    0.0745    0.1160   -0.1147
    0.0998    0.0730    0.0127   -0.1921   -0.2703   -0.0173    0.1283   -0.1548    0.0632    0.0615
   -0.0032   -0.1072    0.0863   -0.0383   -0.0483   -0.0321   -0.0749    0.0318   -0.0210    0.0207
   -0.1371   -0.1027    0.0258    0.1080   -0.0445   -0.0865    0.1524    0.0425   -0.0741   -0.0875
   -0.0677   -0.0107    0.2899    0.0109   -0.0257    0.0566   -0.0471   -0.1690   -0.0931    0.0574
   -0.0698    0.1372    0.1292   -0.2428    0.1292    0.2211   -0.0712   -0.1249    0.2501   -0.0687
    0.0118    0.2413   -0.1123   -0.0582    0.1388    0.0078    0.2969   -0.1673    0.1437    0.1468
   -0.1116   -0.0790   -0.3217    0.0064   -0.1565   -0.2315   -0.1053   -0.0522   -0.0088    0.2382
   -0.0962    0.0027    0.0278   -0.1012    0.0864    0.1368   -0.1631    0.0840   -0.0076    0.1618
    0.8778   -0.1801    0.1082    0.0651    0.5720    0.3921    0.7795    0.4906    0.7020    0.2584
    0.2164    0.0344    0.1353   -0.1033   -0.1641   -0.3994    0.3557    0.0275   -0.0935   -0.2813
   -0.3648   -0.2512   -0.1745   -0.1966   -1.5674    1.0549   -0.1371    0.1740   -0.1730   -0.2737
   -0.2585    0.1709   -0.2567   -0.0630   -0.2194    0.0231   -0.1805    0.2921    0.2966   -0.0269
   -0.2340   -0.0062   -0.0715    0.0936    0.0408   -0.1131   -0.1007    0.2744    0.8359   -0.0333
   -0.0495    0.0107   -0.1410   -0.3603   -0.3394   -0.2450    0.0274    0.0212   -0.1441    0.3856
   -0.0950    0.3959    0.0012   -0.0111    0.0754   -0.0021    0.0109    0.0836    0.1863   -0.0960
   -0.0253    0.0857    0.3255   -0.1074    0.2501   -0.0566    0.0713    0.1578    0.1055    0.1223
   -0.1189    0.0787   -0.0613   -0.0591    0.0084    0.2412    0.1303    0.0695   -0.0597   -0.0173
    0.0357   -0.2249   -0.2233   -0.0197   -0.0171    0.0244    0.1069    0.0948   -0.1223    0.0068
    0.0281    0.0886   -0.1317   -0.0372   -0.0029   -0.2492    0.0906    0.1508   -0.1047    0.0484
   -0.0848    0.0214    0.4398    0.0090   -0.0531   -0.0838    0.1915   -0.0349   -0.0659   -0.1256
    0.2076    0.2582   -0.0326   -0.0733    0.0903   -0.0116    0.0130   -0.0859   -0.0070    0.0912
   -0.0267   -0.0056   -0.0420    0.1720    0.0466   -0.0292    0.2540   -0.0760    0.0447   -0.0773
    0.0972    0.0315   -0.1643   -0.0083    0.0832   -0.0165   -0.0289   -0.0522   -0.0707    0.0655
    0.2272   -0.1068    0.0027    0.0865   -0.1981   -0.1397   -0.1139   -0.0702    0.0169    0.0467
    0.5154   -0.0606    0.0485   -0.0003    0.0755   -0.2551   -0.1443    0.0523    0.0244   -0.0994
   -0.0292   -0.0704    0.4884    0.6591    0.4439   -0.2753   -0.2856    0.0416   -0.2611    0.7783
    0.7438    0.3168    0.1476    0.5409   -0.0379   -0.3257   -0.0969    0.4482   -0.1324    0.5175
    0.1315    0.1305   -0.0391   -0.3695   -0.0436    0.0530    0.3036    0.3522   -0.0910   -0.0481
    0.0775    0.0710    0.0172    0.0834   -0.0956   -0.7192    0.0000    0.0000    0.0000    0.0000
    0.0000    0.0000    0.0000    0.0000    0.0000
   -0.0873   -0.0002    0.0025    0.1111   -0.1234   -0.0784    0.0124    0.0472   -0.3178   -0.0795
   -0.1727   -0.1735   -0.0603   -0.1538   -0.0428   -0.1001   -0.0680   -0.1313   -0.1457   -0.1362
   -0.2800   -0.4316    0.0180   -0.0180    0.0558   -0.0389   -0.0217    0.0131   -0.0350   -0.1142
   -0.1279   -0.1818    0.0285   -0.1232   -0.2700   -0.0505    0.0401   -0.0782   -0.0394   -0.1309
   -0.1270   -0.2073    0.1016   -0.1846   -0.2303   -0.3745   -0.0904   -0.1202   -0.1087   -0.0705
   -0.1124    0.1298    0.0832   -0.0976   -0.0883   -0.0564   -0.2478   -0.0305   -0.0398   -0.2624
   -0.0920   -0.0332   -0.0476   -0.2259   -0.1127   -0.1109   -0.0894   -0.1739   -0.1118   -0.2926
    0.0120   -0.1483   -0.0229   -0.0668   -0.1407   -0.0504    0.0140    0.0099   -0.1589   -0.1010
   -0.2650    0.0524   -0.1880   -0.1357   -0.1021   -0.0428    0.0106    0.0107   -0.1020   -0.0196
   -0.2010   -0.1087   -0.1066   -0.2957   -0.0520    0.0098   -0.1953   -0.0913   -0.1410   -0.0474
   -0.2040   -0.0002   -0.0059   -0.0787   -0.0346    0.1138   -0.0954   -0.1697   -0.0629   -0.0532
   -0.0489   -0.2070    0.0119   -0.1710   -0.0674   -0.0380   -0.0074   -0.3393    0.0738    0.1164
   -0.1837   -0.1404   -0.3276   -0.0088   -0.1687   -0.0735   -0.2002   -0.1393   -0.3578    0.0704
   -0.1197   -0.1704   -0.0762    0.0218    0.0784    0.0671   -0.2093   -0.0805    0.0080   -0.0392
    0.3620   -0.5036   -0.0431   -0.0221   -0.4140   -0.1471   -0.1685    0.0497    0.1365   -0.0719
   -0.1610    0.1356   -0.2055    0.0398   -0.1359   -0.0743   -0.1910    0.0953   -0.0524   -0.5720
   -0.0134   -0.1926    0.1242   -0.0607    0.2025   -0.3830   -0.0163    0.0016   -0.2756   -0.1976
   -0.0897    0.0983   -0.2600   -0.0611   -0.1009   -0.1979   -0.1858   -0.0178   -0.1453   -0.0940
   -0.1082   -0.1322    0.0298   -0.1363   -0.0292    0.0785    0.2908    0.1019    0.2198   -0.4433
   -0.1573    0.0117   -0.0981   -0.1689   -0.2831   -0.0291    0.0411    0.0506   -0.1335   -0.0815
   -0.0481    0.0311    0.0926   -0.2021   -0.1171   -0.1756   -0.0068   -0.1853   -0.1207   -0.0876
   -0.1590   -0.1174   -0.0882   -0.4287   -0.0068   -0.0075   -0.0703   -0.1060   -0.0352   -0.0970
    0.1388   -0.0775    0.0381   -0.2506   -0.2065    0.1536   -0.0994   -0.0079   -0.1221    0.0010
   -0.0197   -0.0907   -0.1161   -0.1672   -0.2179   -0.0267   -0.1350   -0.4894   -0.0976   -0.0475
   -0.0071   -0.3025   -0.1469   -0.0886    0.0299    0.0305   -0.1552   -0.0849   -0.1084    0.0891
   -0.0833   -0.1445   -0.0667    0.0086    0.0963   -0.1068   -0.0572   -0.1417   -0.1668   -0.0317
   -0.1933   -0.4075   -0.1261   -0.0258    0.0511   -0.0729   -0.1218   -0.1200   -0.0324    0.1360
    0.1971   -0.1941   -0.2790    0.0383   -0.0382   -0.1065    0.0022    0.0210   -0.0493    0.0032
   -0.2012   -0.1094   -0.2489   -0.2056   -0.1651   -0.2479   -0.1048   -0.1388    0.0698   -0.0114
   -0.0552   -0.0154    0.0220    0.0141   -0.0477   -0.1992   -0.1111    0.1113   -0.0199   -0.0057
    0.0107    0.0654   -0.1030   -0.0189   -0.1261   -0.1617   -0.2701   -0.2205   -0.2327   -0.4905
   -0.0562   -0.0670   -0.1659   -0.3641   -0.0011    0.1139    0.1420   -0.0508   -0.0501   -0.4466
   -0.4234    0.0497   -0.1198   -0.0887   -0.0192    0.0518    0.0439   -0.1840    0.1099   -0.1148
    0.0391    0.0552   -0.0528   -1.0319   -0.2331   -0.2276    0.0568   -0.1002   -0.2734   -0.1715
   -0.2863   -0.1834   -0.0579   -0.2394   -0.3046   -1.0824    0.0000    0.0000    0.0000    0.0000
    0.0000    0.0000    0.0000    0.0000    0.0000
    0.1607    0.0859    0.1124   -0.0535    0.2369    0.1605    0.0382   -0.1043    0.1905    0.0919
    0.0341    0.0389    0.2582   -0.1162    0.0273   -0.0206    0.2022   -0.0211    0.0018    0.0017
   -0.1040    0.3884   -0.3300   -0.5499    0.0055    0.0173   -0.0822   -0.2168   -0.1950    0.1659
    0.0658   -0.1335    0.0935   -0.1016    0.1325   -0.0794   -0.0610   -0.2000    0.0783    0.0654
    0.0934    0.0194    0.0685   -0.0224    0.4230    0.2916   -0.0814   -0.2837   -0.1713   -0.1082
   -0.1848   -0.4266   -0.2385    0.1555   -0.0207   -0.0193    0.0318    0.3318   -0.0378    0.0455
   -0.1882   -0.1182    0.2453    0.3662    0.0075    0.5894    0.1364   -0.0281    0.1468   -0.5085
   -0.1718   -0.2811   -0.3707   -0.1428   -0.3676   -0.2714   -0.2121   -0.3367   -0.3032    0.0603
    0.0669    0.0798    0.2490    0.1198   -0.3174   -0.1833    0.1999    0.2477    0.2789    0.3319
    0.3564    0.4453    0.9881   -0.3177   -0.2394   -0.2584   -0.4272   -0.1995   -0.6188   -0.1997
   -0.2178   -0.1223   -0.1823    0.0369   -0.1545    0.2880    0.1386    0.2173   -0.2181   -0.0768
    0.0178    0.4204   -0.0160    0.1231    0.3127    0.1140    1.1559   -0.1261   -0.0959    0.2070
   -0.5246   -0.2767   -0.5713   -0.1722   -0.3404   -0.2600   -0.4218    0.2086   -0.0055    0.6647
    0.0774   -0.0410   -0.2579   -0.3006   -0.2155    0.4122   -0.0740    0.1408    0.3107    0.3800
    0.9166   -0.4012    0.0027    0.2138   -1.3658   -1.3156   -1.6570   -1.4741   -1.2558   -0.6089
   -0.0260   -0.1553   -1.3937    0.4419   -0.3116   -0.1917   -1.8697    0.1883    1.5334    3.3173
    0.8541    1.8687    0.6043    1.2232    0.4216   -2.8206    0.1899   -0.1068   -0.2156   -0.3567
   -0.6737   -0.3431   -0.1480    0.0196   -0.3328    0.4796    0.0165    0.6152    0.2866   -0.1077
   -0.1960    0.0422   -0.3909    0.3432   -0.1823    0.1885    0.1644    0.4776    1.0132   -0.4124
   -0.0536    0.2294   -0.2874   -0.2801   -0.3316   -0.3995   -0.2587   -0.1438   -0.1419    0.2774
   -0.2972    0.6598   -0.0525    0.1675   -0.2534   -0.1063    0.1106    0.3165    0.0862   -0.0001
    0.1396    0.2580    0.9821   -0.5756    0.0123    0.1350   -0.1840   -0.3638   -0.3020   -0.5453
   -0.3041    0.0711   -0.1850    0.2851   -0.2244    0.4669    0.3317    0.1372    0.0601   -0.4968
    0.1141    0.4588    0.2143    0.3855    0.1927    0.2839    0.7761   -0.3904    0.0659   -0.0985
   -0.1341   -0.2802   -0.2085   -0.3205   -0.1892   -0.3674    0.0620   -0.0910   -0.1260    0.1878
   -0.1327    0.0871   -0.0907    0.1140    0.1028    0.5371    0.5027    0.4922    0.1739    0.2095
    0.7683   -0.5132    0.0640    0.0240    0.0794    0.0080    0.0929   -0.0591    0.1656    0.0122
    0.0287   -0.1257    0.1298    0.1592   -0.0250    0.0095    0.1187   -0.1834   -0.0669   -0.1276
   -0.0705    0.0434   -0.1767   -0.0037    0.2544    0.1102    0.0671   -0.2145    0.1046    0.0995
    0.3563   -0.0512    0.2061    0.1136   -0.0676   -0.0834   -0.1312    0.0199   -0.0806   -0.0298
    0.4016   -0.1902   -0.0589   -0.0603    0.0531   -0.1570   -0.0688   -0.0372    0.1741    0.3403
   -0.1849    0.0626   -1.4769   -0.3702   -2.3368   -2.3107   -1.9070   -2.2295   -2.8017   -1.6166
   -1.1377   -2.1112   -2.5595   -1.6813   -0.6284   -2.8655   -1.6301   -2.4721   -3.3266   -2.3166
   -2.9108   -1.6301   -0.0565    2.0003   -0.4216   -0.5613   -0.3934   -0.1479    0.1415    0.0649
    0.2573    0.3101    0.1795   -0.0272    0.2814    3.5948    0.0000    0.0000    0.0000    0.0000
    0.0000    0.0000    0.0000    0.0000    0.0000
    0.0300    0.3116    0.0737    0.2648   -0.0091   -0.0605    0.0483   -0.0182    0.1743   -0.1511
   -0.0027    0.1364    0.0560    0.1562    0.1320   -0.0705   -0.2583    0.2762   -0.1494    0.0343
    0.1055    0.3013   -0.2083   -0.3062    0.2733    0.1799    0.1642   -0.0240    0.2032    0.0597
   -0.1465   -0.2465    0.2185    0.1631   -0.1085   -0.1208    0.0456   -0.0379   -0.0356    0.3075
    0.0107    0.0613    0.1659   -0.0308    0.3236    0.3626    0.0747   -0.1081   -0.1659   -0.1584
   -0.2751   -0.1426    0.0646   -0.2370   -0.2094   -0.0838    0.1031    0.2732    0.1401   -0.1283
    0.0636   -0.0363    0.0598    0.4011    0.3740    0.1796   -0.0370    0.4268    0.4417   -0.2435
    0.0269   -0.1487   -0.0928   -0.1495   -0.1469   -0.0379   -0.1760   -0.0475    0.2579   -0.1663
    0.1956    0.1099   -0.1487   -0.0752   -0.0984    0.0550    0.2229    0.5257    0.3019    0.4292
    0.0291    0.1606    0.2120   -0.5266    0.3260   -0.0725   -0.2978    0.2698   -0.1877   -0.1316
   -0.2240   -0.0548   -0.2160    0.0417    0.0858    0.0369    0.3678    0.0561   -0.0754   -0.2691
   -0.0617   -0.2135    0.0417   -0.3547    0.2105    0.4932    1.0380    0.3092    0.0753    0.2945
   -0.4342   -0.4065   -0.4743   -0.3926   -0.3626   -0.2133   -0.3552   -0.0122    0.0705    0.6920
    0.2213   -0.1629   -0.3474   -0.1515    0.1820    0.4967    0.2870    0.2466   -0.0025    0.0176
    1.3791   -0.5575    0.2084    0.3177   -1.9200   -2.0095   -2.1330   -1.1563   -1.5573   -1.1064
   -1.6969    0.9550    0.7081    1.2915    0.6869    0.3144   -2.1090   -0.0209    0.2383    1.9673
    0.8392    1.7394    1.3108    1.5818    2.1223   -3.3942    0.1739   -0.0471   -0.3375   -0.3094
   -0.3826   -0.1939   -0.4851   -0.3917   -0.1052    0.5754    0.0330   -0.6736   -0.1440   -0.1053
   -0.0664    0.0478    0.1139    0.1908    0.1751    0.3331    0.4794    0.2300    1.2154   -0.3300
    0.3848    0.3784   -0.2070    0.0193   -0.5293    0.1370    0.0897   -0.0745   -0.2104    0.3185
   -0.3336    0.6852    0.3163    0.2399   -0.1099   -0.2677    0.0181    0.1501   -0.3525   -0.0631
   -0.1109   -0.2663    0.5394   -0.1510    0.0373    0.5883    0.1010   -0.3537   -0.1347   -0.3392
   -0.0065   -0.2878   -0.1889    0.0349   -0.0479    0.7066   -0.0484    0.0103   -0.1920    0.0798
    0.0160    0.4481    0.4234   -0.0651    0.0309    0.1060    0.3489   -0.3870    0.0334    0.2646
    0.0259   -0.3646   -0.0792   -0.3681   -0.1851    0.0849   -0.3702    0.0397    0.1330    0.2630
    0.3295    0.1296   -0.2354   -0.0095    0.0812    0.2580   -0.0054    0.3065   -0.0107    0.2657
    0.3929   -0.2132   -0.1007    0.0883    0.0897   -0.0615    0.0955   -0.2535   -0.0422    0.0535
    0.1423   -0.2515   -0.1206    0.0720    0.2531   -0.1272    0.0977    0.2581   -0.0503    0.0296
   -0.1336   -0.0454   -0.1602    0.0148    0.0942    0.2036   -0.2638   -0.0348    0.3178    0.0221
    0.1135   -0.0005    0.0267    0.1203    0.0007   -0.0954    0.0994    0.0312    0.0207    0.0787
    0.1395    0.0577   -0.1223   -0.0045    0.0297   -0.1194   -0.2271    0.0282   -0.0994    0.1839
    0.0935    0.1809    0.4007    0.6640    0.3923    0.7056    0.7574    0.1483    0.3422    0.1102
    0.2465    0.5089    0.2560    0.0449    1.0182    0.3895    1.2832   -0.0625    0.6315    0.0610
   -0.3320    0.4559   -0.0891    0.0560   -0.2340   -0.4367   -0.4969   -0.0230    0.0290    0.1782
   -0.0209    0.3332   -0.0069    0.1339    0.0544    0.7556    0.0000    0.0000    0.0000    0.0000
    0.0000    0.0000    0.0000    0.0000    0.0000
   -0.2381   -0.1074   -0.0967    0.0400   -0.1566   -0.1962   -0.0055   -0.1065   -0.3825   -0.1950
   -0.1076   -0.2247   -0.1057   -0.2521   -0.1793   -0.1458   -0.1596   -0.1038   -0.0638   -0.1088
   -0.0831    0.0223   -0.0194   -0.2582   -0.0815   -0.0192   -0.2046   -0.1687   -0.2639   -0.2634
   -0.2674   -0.1393    0.1350   -0.1724   -0.2400   -0.0595    0.0203   -0.0856    0.0342   -0.2935
   -0.1926   -0.1464   -0.1780   -0.2277   -0.3029    0.1349    0.0807   -0.1437   -0.1090    0.0141
   -0.1990    0.0360    0.1238   -0.1770   -0.2446   -0.1614   -0.4411   -0.1053   -0.1423   -0.2886
   -0.1551    0.0394   -0.2282   -0.1996   -0.1303   -0.1591   -0.1215   -0.2748   -0.2939    0.1847
    0.0279   -0.3363   -0.3378    0.0393   -0.2442   -0.4235    0.0144   -0.0157   -0.3106   -0.0617
   -0.3706   -0.1071    0.0080   -0.3843   -0.0127   -0.0387   -0.2132   -0.1903    0.0212   -0.1890
   -0.2089   -0.0876   -0.0229    0.3030    0.0593   -0.2654   -0.3115   -0.3981   -0.3675   -0.0798
   -0.1963   -0.0108    0.0854   -0.0842   -0.1688    0.1181   -0.0793   -0.1348   -0.3244   -0.0675
   -0.0050   -0.2095   -0.1739   -0.1056   -0.0574   -0.2476   -0.2793   -0.0757    0.1845   -0.2457
   -0.2939   -0.0303   -0.4489   -0.0823   -0.2696   -0.1317   -0.2103   -0.0129   -0.4271   -0.1030
   -0.1375   -0.3383   -0.0927    0.0363    0.0526   -0.1463   -0.2230   -0.1222    0.1434   -0.0317
   -0.0650    0.0197    0.1777   -0.1530   -0.5223   -0.0882    0.0195    0.2119    0.4155    0.2895
    0.2015   -0.6411   -0.9404   -0.3217   -0.5224   -0.4068    0.2038    0.4863    0.3261   -0.8051
   -0.1613   -0.4268   -0.1658   -0.6351    0.0508    0.9142    0.0587   -0.1336   -0.5400   -0.4514
   -0.0227    0.0247   -0.3726    0.1169   -0.2895   -0.3824   -0.3991    0.2964   -0.0372    0.1090
   -0.2986   -0.1207   -0.1792   -0.4159   -0.2744    0.1100    0.0710    0.1136   -0.0990   -0.0283
   -0.0513   -0.2202   -0.1636   -0.2447   -0.3926   -0.4246    0.2319   -0.0374   -0.2311   -0.1135
   -0.1185   -0.1966    0.0549   -0.2373   -0.1390   -0.1470   -0.0198   -0.2483   -0.1080   -0.2879
   -0.2436   -0.1468   -0.0796   -0.0527    0.0085   -0.0773   -0.2140   -0.0235   -0.2048   -0.2107
    0.0802   -0.1270   -0.1204   -0.3130   -0.1525   -0.0121   -0.1918   -0.0612   -0.1288   -0.0622
   -0.2037   -0.0311   -0.0011   -0.1594   -0.2173   -0.0052   -0.1064   -0.0156   -0.0768    0.1169
   -0.3007   -0.2383   -0.1248   -0.1942   -0.1456    0.0634   -0.2244   -0.1465   -0.3899   -0.0472
    0.0505   -0.2994   -0.3386    0.1007    0.0435    0.0508   -0.1083   -0.1853   -0.1368   -0.0382
   -0.0542   -0.2404   -0.0843   -0.1245   -0.0416   -0.0012   -0.1618   -0.2270   -0.1223    0.0951
    0.0941   -0.2882   -0.2838   -0.0272   -0.0701   -0.0609   -0.1726   -0.1841   -0.2647    0.1428
   -0.3648   -0.1883   -0.1882   -0.1925   -0.2593    0.1982   -0.1352   -0.2443    0.2092   -0.1870
   -0.0773   -0.1896   -0.0975    0.0437   -0.1146   -0.2013   -0.1154    0.1089   -0.1510   -0.1021
   -0.1841    0.0853   -0.1518   -0.0755   -0.4731   -0.0220   -0.2386   -0.5011   -0.1186   -0.0822
   -0.1229   -0.0914   -2.3827   -1.9555   -2.2050   -0.3966   -1.6133   -0.1388   -1.5801   -2.5593
   -2.0422   -1.8322   -2.8184   -2.4386   -0.4387   -0.5815   -1.8259   -1.9267   -1.6367   -2.0071
   -2.1593   -2.4671   -0.0655    0.1850    0.3700    0.1465    0.0883   -0.1378   -0.0852   -0.0488
   -0.1416   -0.0286    0.0501   -0.0983   -0.0892    0.0840    0.0000    0.0000    0.0000    0.0000
    0.0000    0.0000    0.0000    0.0000    0.0000
    0.3111    0.0784    0.1123   -0.0217   -0.0297    0.0867    0.0106    0.1889   -0.0390    0.1216
    0.1963    0.1675    0.1295    0.3132    0.3251    0.1297    0.2518    0.0182    0.2632    0.0890
   -0.2026   -0.5901    0.0569    0.1709   -0.0052    0.1629    0.1307    0.2652    0.2524    0.1194
    0.2436    0.0421    0.2708   -0.0483    0.1949    0.5038   -0.0441    0.0178    0.3874   -0.0050
    0.0864   -0.0097    0.3708    0.2950   -0.0737   -0.1950    0.1465    0.0935    0.2796    0.1059
    0.0090    0.4742    0.0953    0.0630    0.2710    0.0876   -0.0024   -0.1155    0.3411    0.4119
    0.1088    0.2466    0.2862    0.1404    0.1250    0.2391    0.2113    0.0546    0.0230   -0.1737
    0.2399   -0.0420    0.3140    0.1004    0.0594   -0.1060    0.2752    0.0975   -0.0773   -0.1420
    0.0207    0.6102    0.3683    0.3146    0.2671    0.0908    0.1308    0.0194    0.2521    0.0281
   -0.0514    0.0317    0.3253    0.1023   -0.0606   -0.1589    0.3120   -0.0232    0.2129   -0.1948
    0.2504    0.2431   -0.1170    0.3363    0.0213    0.2356   -0.0142    0.3406    0.3480    0.2346
    0.1229    0.2763    0.0752    0.1911    0.1960    0.1089    0.2980   -0.5440   -0.0426   -0.0130
    0.2347    0.3797    0.1137    0.3913    0.5510   -0.0539    0.0223    0.1761   -0.2405    0.2672
    0.1812    0.3142    0.1933    0.1723    0.0559   -0.3035   -0.1777    0.0565    0.0608    0.2073
    0.3775    0.2464    0.0156   -0.0511    0.0970    0.6195    0.3907    0.7838    0.6353   -0.0973
   -0.3433    0.5361   -0.7185   -0.1531    0.1970    0.4553    0.0834    0.2549    0.3756    0.5729
    0.3728    0.3519    0.2026    0.2633   -0.3282    0.0106   -0.0254    0.1387    0.1084    0.1139
    0.2503    0.1461    0.5654    0.0604   -0.0065    0.1385    0.3072   -0.0857    0.0655    0.2616
   -0.0002   -0.1594    0.2684   -0.1565    0.0974    0.2790    0.4739    0.0421    0.7075   -0.2359
   -0.1826    0.2560   -0.0381    0.0801    0.7569    0.0788   -0.1854   -0.0248    0.3960   -0.2989
    0.2763    0.0438    0.3611   -0.0415   -0.0393    0.0978    0.0528   -0.0866    0.1815    0.1934
    0.1777    0.3914    0.4337   -0.4564   -0.0238   -0.0657   -0.0434    0.0509    0.0804    0.4902
    0.1380   -0.1548    0.2987   -0.0748    0.2069    0.0031   -0.0703    0.1034    0.3374    0.2953
    0.3955    0.0758    0.1529    0.2366    0.2603    0.1946    0.1965   -0.4028    0.0051    0.1482
    0.4651    0.1503    0.3106    0.0015    0.4309    0.2479    0.4202   -0.0132    0.1982    0.3248
    0.0889    0.1081   -0.1251    0.0190    0.1908    0.2472   -0.1355    0.0958   -0.0136   -0.0838
    0.2064   -0.3651   -0.0642    0.2084    0.0425    0.3722    0.3479    0.0861    0.3420    0.1006
    0.3597   -0.0224    0.2011    0.2165   -0.1822    0.2543   -0.0217    0.1181   -0.0533    0.2417
    0.1994   -0.0196    0.0843    0.1474    0.1807   -0.0494   -0.1237   -0.2110   -0.0615    0.1222
    0.0180    0.1995    0.3904   -0.0297   -0.0111    0.3204    0.1370    0.3275    0.1094    0.0489
    0.0454    0.3319    0.2120    0.4075    0.0621    0.4310    0.1453   -0.0070    0.0920   -0.4119
   -0.2891   -0.1007    3.3841    2.8474    3.6756    1.0155    3.3342    0.3333    2.8280    2.6613
    2.5467    3.5621    3.4393    3.8020    0.6442    1.3070    3.2011    3.1185    2.8871    3.1107
    3.4803    3.6100   -0.0442   -1.4625   -0.6144   -0.2675    0.1744   -0.0453   -0.1549   -0.1177
   -0.2275   -0.0023   -0.1630   -0.0871   -0.2872   -1.3869    0.0000    0.0000    0.0000    0.0000
    0.0000    0.0000    0.0000    0.0000    0.0000
    0.0567    0.0139    0.0198    0.1200    0.1393   -0.0332    0.0321   -0.0034    0.1613    0.0897
    0.0850    0.1081    0.1021    0.1360    0.0854    0.0648    0.0971    0.1639    0.1154    0.0934
    0.1973    0.4229    0.0001    0.0603    0.0072    0.0536    0.1830   -0.0115    0.0091    0.1028
    0.1138    0.0741    0.1491    0.0537    0.1223    0.1049   -0.0267   -0.0533    0.1420    0.0961
    0.0253    0.1295    0.1005    0.1477    0.1040    0.3385    0.0140    0.0363    0.0766    0.0865
    0.1422    0.0646   -0.0238    0.0520    0.1273    0.0494    0.0918   -0.0494   -0.0095    0.1684
    0.1260    0.0955    0.0383    0.0877    0.1110    0.1252    0.0355    0.1159    0.0912    0.5386
   -0.0325    0.1069    0.0799    0.1517    0.1461    0.1610    0.1316    0.0887   -0.0605    0.0727
   -0.0045    0.1397    0.1291    0.1844    0.0428    0.0931   -0.0314    0.1207    0.0131    0.0549
    0.0522    0.1142   -0.0203    0.5035   -0.0113   -0.0273    0.1485    0.0866    0.1194   -0.0142
    0.1224    0.0437    0.1376    0.0780    0.1762   -0.0138    0.1058    0.0215    0.0528   -0.0114
    0.0520    0.1771    0.1050    0.0608    0.0778    0.0947    0.0485    0.3432    0.0282    0.0690
    0.0843    0.1072    0.1812    0.0129    0.1059   -0.0476    0.0682    0.0715    0.1340   -0.0218
    0.1167    0.0532    0.0360   -0.0102   -0.0196    0.0621    0.0403    0.1345    0.0315    0.0792
   -0.0795    0.4171    0.1070   -0.0516    0.4663    0.3857    0.4271    0.2613    0.1806    0.0805
    0.1918    0.0412    0.2562   -0.0213   -0.0601    0.0708    0.1905   -0.0122    0.0272    0.1287
   -0.0071   -0.0629   -0.0407    0.0112   -0.0110    0.9179    0.1027   -0.0235    0.0304    0.1416
    0.1216    0.1642    0.1374    0.0486    0.1331    0.1256    0.1601    0.0798    0.2001    0.0442
    0.0187   -0.0627    0.1054    0.0052    0.1328    0.0232    0.0629   -0.0594    0.0775    0.4349
    0.0233    0.0220    0.1903    0.1416    0.1687   -0.0196    0.0320   -0.0421    0.1318   -0.0508
    0.0535   -0.0615    0.0607    0.0756    0.0749    0.0590    0.0589    0.0284    0.1060    0.1567
    0.0976    0.0990    0.0224    0.3541   -0.0057   -0.0100    0.0660    0.1161    0.1676    0.0037
    0.0827    0.0306    0.0132    0.0798    0.1616    0.0800    0.0696    0.0709    0.0559    0.1444
    0.1058    0.0626   -0.0269    0.0627    0.0343    0.1200    0.0262    0.4214    0.0480   -0.0225
    0.1668    0.0794    0.0776    0.1039    0.0609   -0.0402    0.1499    0.1029    0.0864    0.1061
    0.0150   -0.0146    0.0734    0.1381   -0.0243    0.0057    0.1521    0.0778    0.0127    0.0377
    0.1288    0.4995   -0.0373    0.0741    0.1488    0.1236    0.0919    0.0017    0.0287    0.0634
   -0.0151    0.1988    0.1605    0.0383    0.1227    0.1750    0.0808   -0.0578    0.0258    0.1785
    0.0814    0.1524    0.0883    0.1417    0.1952    0.3793    0.1111   -0.0376   -0.0090    0.1912
   -0.0167    0.0095   -0.0757    0.0907    0.0760    0.0551    0.1465    0.1105    0.0456    0.0122
   -0.0579    0.0589    0.0814   -0.0314    0.0312    0.1459    0.1462    0.0533    0.1016    0.3150
    0.0057   -0.0458    0.7186    0.8393    0.4888   -0.0320    0.1655   -0.0919    0.2513    0.8763
    0.6786    0.4118    0.6276    0.6557   -0.0769    0.0962    0.2614    0.5081    0.1672    0.6212
    0.3826    0.6293   -0.0064    0.5366    0.4837    0.2907    0.3835    0.1759    0.0969    0.2265
    0.1423    0.1083    0.1466    0.1187    0.1446    0.5178    0.0000    0.0000    0.0000    0.0000
    0.0000    0.0000    0.0000    0.0000    0.0000
    0.1348    0.0881    0.0146    0.1010    0.0827    0.1145   -0.0181    0.0303    0.1978    0.0909
    0.0277    0.0478   -0.1186    0.0024    0.0960    0.0988    0.0160    0.0991   -0.0545   -0.0144
   -0.2527   -0.4569   -0.1120    0.0737    0.2238    0.0442    0.1217    0.1641    0.0790   -0.0147
   -0.0894    0.0104    0.1099    0.0113   -0.1286   -0.0160    0.1538    0.0863    0.1365    0.0549
   -0.1131    0.0191    0.2033   -0.1796   -0.3899   -0.4205    0.0225    0.0439    0.1481    0.1413
    0.0896    0.0779    0.1364   -0.0364   -0.0604   -0.0379    0.1483    0.0956    0.0674   -0.0353
    0.0519    0.0293    0.0515   -0.1324    0.0133    0.0345   -0.0405   -0.0214   -0.1858   -0.5660
   -0.0271   -0.0790    0.1657    0.1588    0.1274    0.0232    0.0174   -0.0578    0.0138   -0.0895
    0.0301    0.0797    0.0095    0.0820    0.0717    0.0178    0.3016    0.0926    0.1380    0.0584
   -0.0285   -0.1111   -0.0837   -0.5486    0.0715    0.0011   -0.0921    0.0988   -0.0796   -0.0051
   -0.0956    0.0414   -0.1010    0.0701    0.1141    0.0834    0.0965   -0.0229    0.0786   -0.0569
    0.0709    0.0813   -0.1127   -0.0867    0.0859    0.0496    0.1585   -0.4125   -0.0302    0.2067
   -0.1643   -0.2241   -0.1991   -0.0088   -0.1011   -0.0717   -0.1687    0.0201   -0.0647    0.3256
    0.0782    0.0502   -0.1528    0.0837    0.2490    0.1413    0.0452    0.0717    0.0786    0.1725
    0.5483   -0.5764    0.0028    0.1220   -0.2704   -0.2461   -0.3250   -0.1667   -0.2303   -0.1678
   -0.4838    0.6474    0.2184    0.3580    0.3573    0.0021   -0.2759    0.1061   -0.1071   -0.0536
    0.0550    0.2031    0.4012    0.2667    0.0832   -0.6976   -0.1487    0.0898   -0.2136   -0.1996
   -0.0785    0.0823   -0.1806   -0.1679   -0.1986    0.1885    0.0437   -0.1894    0.0364    0.1193
   -0.0646    0.0321    0.0753    0.1119    0.1909    0.0130    0.1901    0.2375    0.4639   -0.5722
   -0.1486    0.1596   -0.1536   -0.2507   -0.1781   -0.0427    0.0369   -0.0014    0.0930    0.3694
   -0.1488    0.2678    0.0953    0.1655   -0.0728    0.0323    0.0797    0.0355   -0.0053   -0.0303
    0.1299   -0.0429    0.0578   -0.4844    0.0593    0.2421    0.2934   -0.0139    0.0717    0.1208
    0.0322    0.0256    0.1233   -0.1505    0.0323    0.1543   -0.1370    0.0474   -0.1497    0.0200
    0.0504   -0.0251    0.0570   -0.0250    0.0285   -0.0437   -0.1006   -0.3652   -0.1573    0.1150
    0.1168    0.0724   -0.0360   -0.0025    0.0766    0.0226   -0.0389    0.0444   -0.0428    0.0705
    0.0259    0.0560    0.0058   -0.0239    0.2165    0.0452   -0.1174    0.1688   -0.0363   -0.1363
   -0.1576   -0.3765   -0.0308    0.0498    0.0325    0.0372    0.1856   -0.0791    0.0044    0.0619
    0.0475   -0.0554   -0.0730    0.0922   -0.0164    0.0533    0.1550    0.1285    0.0268    0.0242
    0.0620   -0.0964   -0.2025    0.0137   -0.1472   -0.3421   -0.1458   -0.0262    0.0694    0.0216
    0.0268    0.0178    0.1215    0.1209   -0.0715   -0.0732    0.1071    0.0897   -0.0601    0.1532
    0.1996    0.0764    0.1022    0.0085    0.0051   -0.0804   -0.0826    0.1501   -0.2243   -0.4223
   -0.1230    0.1242    1.2805    1.4098    0.9123    0.1642    0.6195    0.0388    0.4240    1.3093
    1.3117    0.7904    0.9358    0.9872    0.3613    0.2573    0.9542    0.9016    0.5658    0.9789
    0.7650    1.1181   -0.0917   -1.7633   -0.7665   -0.4846    0.0771   -0.2099   -0.2521   -0.3020
   -0.4672   -0.1626   -0.3518   -0.2901   -0.5125   -1.8995    0.0000    0.0000    0.0000    0.0000
    0.0000    0.0000    0.0000    0.0000    0.0000
    0.0836    0.0404   -0.0483   -0.0828    0.1554    0.2496   -0.0338   -0.0493    0.1065    0.2862
   -0.1207   -0.1243    0.0008   -0.1685   -0.0574   -0.2747    0.0329   -0.0309   -0.4109    0.0445
   -0.1898    0.0392    0.0027   -0.0353    0.1184    0.0481    0.1757    0.0701    0.1558    0.0232
   -0.1511   -0.0972   -0.1955    0.1519   -0.0264   -0.3093   -0.0637    0.1809   -0.0703    0.0422
    0.1668   -0.2832    0.1682   -0.0276   -0.1921   -0.1194   -0.1437    0.0525   -0.1396   -0.0695
    0.1423   -0.0886   -0.2003   -0.0321   -0.0463    0.0095   -0.0128    0.1229    0.0313   -0.0365
    0.1194    0.1848   -0.0290   -0.0946    0.0166    0.0669   -0.0044    0.1551   -0.1466   -0.2207
   -0.1903   -0.0058   -0.0049    0.0356    0.2580    0.2112   -0.2963   -0.1127   -0.2469    0.0878
    0.0928    0.2387   -0.0551    0.0746    0.0066   -0.1436    0.0618    0.0372    0.0130   -0.0611
    0.0857   -0.1276    0.0678   -0.0591    0.0080    0.1184   -0.0661    0.2095   -0.1466   -0.0056
   -0.3252   -0.0134   -0.2765    0.2280   -0.0431    0.0364   -0.0373   -0.2134    0.1610   -0.0558
   -0.0540    0.2495    0.1853    0.1332    0.0747    0.0030   -0.0049   -0.0364    0.2272    0.1093
   -0.3404   -0.6831    0.0232    0.1874   -0.1660   -0.1775   -0.2341    0.1430   -0.1254    0.4281
    0.0843   -0.0059   -0.1096    0.1942   -0.0264   -0.0090   -0.1032   -0.1252   -0.2164    0.1385
    1.0044   -0.3828    0.1520    0.1556    0.3216    0.1902   -0.0848    0.0107    0.2557    0.6231
    0.5117    0.2199    0.2606   -0.0156    0.0598   -0.0146    0.1518    0.1219   -0.1451   -0.3653
   -0.0466   -0.3720    0.2068   -0.1366   -0.7637    0.6077    0.0912    0.1353   -0.3128   -0.1427
   -0.1742    0.0686   -0.1438   -0.2332   -0.4241    0.2711    0.2281    0.1132    0.2364   -0.1928
   -0.4184   -0.3540   -0.0270    0.1089    0.0052   -0.2809    0.2067    0.2527    0.9627   -0.3484
   -0.0927    0.1626    0.0630   -0.0878   -0.2780    0.0233   -0.1366    0.0810    0.1760    0.0403
   -0.2024    0.2442   -0.2121   -0.0215   -0.0908   -0.1360   -0.1952   -0.0755    0.2484    0.1876
   -0.0004    0.0429    0.1471   -0.2843    0.1973   -0.0474    0.3670   -0.2863   -0.0205    0.1048
   -0.0640   -0.2311   -0.0343    0.3943   -0.1327    0.1597   -0.2387    0.0115    0.1814   -0.1003
    0.1540    0.3046   -0.1052   -0.0644    0.0594   -0.0347   -0.1585   -0.3666    0.0838    0.0553
    0.2829   -0.2495   -0.2365    0.0608   -0.0291   -0.0304   -0.1112   -0.0404    0.1654    0.0929
   -0.2104    0.0890    0.1335    0.0501    0.1401   -0.0684    0.0782    0.2493    0.0243   -0.0643
   -0.0876   -0.3937    0.1072   -0.0229   -0.0869   -0.1778    0.0422   -0.1077   -0.0613    0.1495
    0.0168    0.2535   -0.1844    0.0877    0.0110   -0.0133    0.2236    0.1233   -0.0150   -0.1181
    0.0546    0.1495   -0.2348   -0.1293   -0.1337    0.0150   -0.0043   -0.0445   -0.2832    0.0480
   -0.1321   -0.2395    0.1774    0.1755   -0.0190   -0.0926   -0.0537   -0.0050    0.0248   -0.1048
    0.0123   -0.2184    0.0072   -0.0618   -0.1513   -0.2683    0.0271    0.1870   -0.0451   -0.1028
   -0.1315    0.0537    0.8215    0.6676    1.2770    0.5957    1.2895    0.4555    1.2418    0.6067
    0.8273    1.4237    1.0996    1.2023    0.5124    0.6282    1.3608    1.4230    1.3450    1.1565
    1.2820    0.9115    0.0152   -0.9041    0.3133   -0.1382   -0.1147    0.2514    0.1318    0.2242
    0.1263   -0.1209    0.1003    0.0559   -0.1774   -1.5988    0.0000    0.0000    0.0000    0.0000
    0.0000    0.0000    0.0000    0.0000    0.0000
    0.0122    0.1220    0.0815    0.0196    0.0323    0.0112    0.0561    0.0466   -0.0394    0.1813
   -0.0233   -0.0121   -0.0355    0.0889    0.1067   -0.0997    0.0460    0.0481   -0.0957    0.1748
   -0.1333   -0.2419    0.0306   -0.0902    0.0779    0.1363    0.1872    0.1125    0.0884    0.0327
    0.0066    0.0484    0.0873    0.0925   -0.0517    0.0335    0.0003    0.0549   -0.0251    0.0655
    0.0864   -0.0471    0.1667    0.0112   -0.2388   -0.3789    0.0129    0.0312    0.1133    0.0599
   -0.0244    0.0606   -0.0265   -0.0131   -0.0065   -0.0400   -0.0130   -0.0714    0.2531    0.0862
    0.0770    0.1499    0.0677    0.0104   -0.0417   -0.0391    0.1470   -0.0025   -0.2022   -0.3050
   -0.0381   -0.0615    0.1111    0.0382    0.0985   -0.0107    0.0446    0.0699   -0.0359   -0.1923
   -0.0508    0.2014    0.0184    0.1345   -0.0146    0.1116    0.1081    0.0718   -0.0285    0.0846
   -0.0348    0.0059    0.0135   -0.2401    0.0740   -0.0054    0.0398   -0.0629    0.0303   -0.0581
   -0.0644    0.1061   -0.1287    0.0400   -0.0330   -0.0036   -0.0075   -0.0239    0.1619   -0.0911
    0.0540    0.2339    0.0951   -0.0118    0.0760    0.0907    0.1423   -0.3557    0.0219    0.0558
   -0.0978   -0.0378   -0.0683    0.1113   -0.0235    0.0214   -0.0663    0.0519   -0.0931    0.2874
    0.0243   -0.0999   -0.0748    0.0247   -0.0116   -0.0236   -0.0935    0.0101   -0.0016    0.0747
    0.7760   -0.3378    0.0437    0.0575    0.0675   -0.0378   -0.0638    0.0324   -0.0907    0.0137
   -0.1782    0.4758    0.1840    0.2345    0.2240    0.1066   -0.1604    0.0665    0.0198   -0.1877
    0.0977   -0.0965    0.1771    0.0275   -0.0085   -0.2992   -0.0224    0.0047   -0.0698   -0.1907
   -0.1289    0.1366   -0.1123   -0.0246   -0.1897    0.2294    0.0990   -0.0646    0.1835   -0.0580
   -0.1247   -0.0040    0.0915   -0.0066   -0.0119   -0.0769    0.1830    0.1566    0.7539   -0.3280
   -0.0293    0.1150    0.0255   -0.0444   -0.0152    0.0457   -0.0962   -0.0487   -0.0076   -0.0090
   -0.0055    0.1993    0.1095    0.0045   -0.0186   -0.0102    0.0020   -0.0537    0.1716    0.0159
    0.0790    0.0550    0.1119   -0.3704    0.0182    0.0762    0.1609   -0.1401    0.1050    0.0138
    0.0750   -0.1152    0.0275    0.0156    0.0661    0.1304   -0.1200    0.0721    0.0078    0.1344
    0.1040   -0.0497   -0.0706   -0.0652   -0.0067    0.0050   -0.1981   -0.5391   -0.0506    0.1095
    0.2976   -0.0523   -0.0150    0.0362    0.0509    0.0809    0.0475    0.0059    0.0581    0.1441
   -0.0153    0.0653    0.1287    0.0389    0.0451    0.0920   -0.0457    0.0773   -0.0008   -0.1739
   -0.1918   -0.3734   -0.0389    0.1434    0.0800   -0.0736   -0.0321   -0.1105    0.0890    0.0402
    0.0319   -0.0684   -0.0137    0.0810    0.1179    0.0031    0.0416    0.0298    0.0036    0.0868
   -0.0951   -0.0501   -0.0501   -0.1341   -0.1189   -0.2563   -0.0576    0.0821   -0.0564    0.0738
   -0.0575    0.0512    0.0641    0.0700   -0.0798   -0.1293    0.0932    0.0502    0.1712   -0.0556
    0.1268   -0.0374   -0.0227    0.1409    0.0070   -0.0145   -0.0962    0.0937   -0.1550   -0.4464
   -0.0994   -0.0017    0.8206    0.9788    0.5442    0.1205    0.3336    0.1008    0.2368    0.8540
    1.0531    0.5265    0.7654    0.6239    0.3562    0.0901    0.5537    0.6173    0.4709    0.5481
    0.3892    0.6108    0.0378   -1.8910   -0.7777   -0.4897   -0.0123   -0.0869   -0.1092   -0.1164
   -0.2608   -0.0320   -0.1056   -0.2774   -0.4600   -2.0434    0.0000    0.0000    0.0000    0.0000
    0.0000    0.0000    0.0000    0.0000    0.0000
 ***                         junction second layer: row=numhid+ (10F10.4)
    0.0931   -0.8286   -1.0432   -0.7774   -0.7161   -0.9065   -1.0203   -1.0729   -1.2317   -2.5040
    4.3924    2.1933    2.9199    3.2949    2.8742    2.1434    1.5404    1.6321    5.1218    5.1408
    2.6793    0.3959    2.5119    1.9497    1.9274    2.5163    2.2604    4.3396    3.4397    4.7900
    0.5241    0.2058   -0.0736   -0.3678   -0.5844   -0.3997   -0.1953    0.9820   -1.2205   -1.2722
   -1.2277    0.5740    1.1535    0.8197    0.8300    0.9834    1.4309    1.6049    2.1411    1.7679
   -0.0376    0.2635    0.2268   -1.1508   -0.8898   -1.2418   -1.5961   -2.4886    0.3267    2.5530
    0.9488    3.4792    3.2347    2.8794    2.5995    2.4568    1.9155    2.9369    3.3853    3.7698
   -2.9542   -1.6040    0.2891    0.7184    1.7613    2.3828    2.4926    1.6956    1.8996    1.6146
   -1.7604   -0.5556   -1.4154   -1.6055   -1.5811   -1.2256   -0.2893    1.6307    2.6776    3.6404
   -0.9926    3.7252    4.5629    3.9024    3.4485    1.8187    0.0223    2.7510    2.5987    3.3944
   -0.9482    1.0912   -0.5117   -0.4610   -0.7350   -0.2750    0.8626   -0.1779   -0.0623    1.9116
    0.2853   -0.4712   -0.6489   -0.6048   -0.7220   -0.8350   -1.1122   -1.7574   -1.8277   -2.4382
    1.1173    2.9307    3.2617    3.5504    2.9226    2.7751    2.2577    2.3165    3.6987    4.1949
    0.5652    1.4059    2.8157    3.7811    0.6093   -0.1967   -0.1197    0.0486    0.2744    4.8350
    0.9745    2.3239    2.6398    2.6151    1.8447    2.0058    1.8655    1.8969    2.2323    4.3128
   -0.6257   -1.2780   -1.3029   -0.9182   -0.8672   -0.8891   -1.1312   -1.4568   -1.5114   -3.0511
    0.0000    0.0000    0.0000    0.0000    0.0000    0.0000    0.0000    0.0000    0.0000    0.0000
    0.0000    0.0000    0.0000    0.0000    0.0000    0.0000    0.0000    0.0000    0.0000    0.0000
    0.0000    0.0000    0.0000    0.0000    0.0000    0.0000    0.0000    0.0000    0.0000    0.0000
    0.0000    0.0000    0.0000    0.0000    0.0000    0.0000    0.0000    0.0000    0.0000    0.0000
    0.0000    0.0000    0.0000    0.0000    0.0000    0.0000    0.0000    0.0000    0.0000    0.0000
    0.0000    0.0000    0.0000    0.0000    0.0000    0.0000    0.0000    0.0000    0.0000    0.0000
    0.0000    0.0000    0.0000    0.0000    0.0000    0.0000    0.0000    0.0000    0.0000    0.0000
    0.0000    0.0000    0.0000    0.0000    0.0000    0.0000    0.0000    0.0000    0.0000    0.0000
    0.0000    0.0000    0.0000    0.0000    0.0000    0.0000    0.0000    0.0000    0.0000    0.0000
END
